2011.04.18 14:56 B D:\SIM_MMRS\source\xampp\htdocs\~mmos_v1\public_html\filemanager\filemanager\jscripts\edit_area\langs\zh_cn.js --> 10.1.3.12 /usr/home/mmos/public_html/filemanager/filemanager/jscripts/edit_area/langs zh_cn.js
2011.04.18 14:56 B D:\SIM_MMRS\source\xampp\htdocs\~mmos_v1\public_html\filemanager\filemanager\jscripts\edit_area\langs\en.js --> 10.1.3.12 /usr/home/mmos/public_html/filemanager/filemanager/jscripts/edit_area/langs en.js
2011.04.18 14:56 B D:\SIM_MMRS\source\xampp\htdocs\~mmos_v1\public_html\filemanager\filemanager\jscripts\edit_area\langs\hr.js --> 10.1.3.12 /usr/home/mmos/public_html/filemanager/filemanager/jscripts/edit_area/langs hr.js
2011.04.18 14:56 B D:\SIM_MMRS\source\xampp\htdocs\~mmos_v1\public_html\filemanager\filemanager\jscripts\edit_area\langs\pt.js --> 10.1.3.12 /usr/home/mmos/public_html/filemanager/filemanager/jscripts/edit_area/langs pt.js
2011.04.18 14:56 B D:\SIM_MMRS\source\xampp\htdocs\~mmos_v1\public_html\filemanager\filemanager\jscripts\edit_area\langs\nl.js --> 10.1.3.12 /usr/home/mmos/public_html/filemanager/filemanager/jscripts/edit_area/langs nl.js
2011.04.18 14:56 B D:\SIM_MMRS\source\xampp\htdocs\~mmos_v1\public_html\filemanager\filemanager\jscripts\edit_area\langs\ja.js --> 10.1.3.12 /usr/home/mmos/public_html/filemanager/filemanager/jscripts/edit_area/langs ja.js
2011.04.18 14:56 B D:\SIM_MMRS\source\xampp\htdocs\~mmos_v1\public_html\filemanager\filemanager\jscripts\edit_area\langs\pl.js --> 10.1.3.12 /usr/home/mmos/public_html/filemanager/filemanager/jscripts/edit_area/langs pl.js
2011.04.18 14:56 B D:\SIM_MMRS\source\xampp\htdocs\~mmos_v1\public_html\filemanager\filemanager\jscripts\edit_area\langs\it.js --> 10.1.3.12 /usr/home/mmos/public_html/filemanager/filemanager/jscripts/edit_area/langs it.js
2011.04.18 14:56 B D:\SIM_MMRS\source\xampp\htdocs\~mmos_v1\public_html\filemanager\filemanager\jscripts\edit_area\langs\dk.js --> 10.1.3.12 /usr/home/mmos/public_html/filemanager/filemanager/jscripts/edit_area/langs dk.js
2011.04.18 14:56 B D:\SIM_MMRS\source\xampp\htdocs\~mmos_v1\public_html\filemanager\filemanager\jscripts\edit_area\langs\de.js --> 10.1.3.12 /usr/home/mmos/public_html/filemanager/filemanager/jscripts/edit_area/langs de.js
2011.04.18 14:56 B D:\SIM_MMRS\source\xampp\htdocs\~mmos_v1\public_html\filemanager\filemanager\jscripts\edit_area\langs\fr.js --> 10.1.3.12 /usr/home/mmos/public_html/filemanager/filemanager/jscripts/edit_area/langs fr.js
2011.04.18 15:10 B D:\SIM_MMRS\source\xampp\htdocs\~mmos_v1\public_html\filemanager\filemanager\jscripts\edit_area\langs\de.js --> 10.1.3.12 /usr/home/mmos/public_html/file/filemanager/jscripts/edit_area/langs de.js
2011.04.18 15:10 B D:\SIM_MMRS\source\xampp\htdocs\~mmos_v1\public_html\filemanager\filemanager\jscripts\edit_area\langs\dk.js --> 10.1.3.12 /usr/home/mmos/public_html/file/filemanager/jscripts/edit_area/langs dk.js
2011.04.18 15:10 B D:\SIM_MMRS\source\xampp\htdocs\~mmos_v1\public_html\filemanager\filemanager\jscripts\edit_area\langs\en.js --> 10.1.3.12 /usr/home/mmos/public_html/file/filemanager/jscripts/edit_area/langs en.js
2011.04.18 15:10 B D:\SIM_MMRS\source\xampp\htdocs\~mmos_v1\public_html\filemanager\filemanager\jscripts\edit_area\langs\fr.js --> 10.1.3.12 /usr/home/mmos/public_html/file/filemanager/jscripts/edit_area/langs fr.js
2011.04.18 15:10 B D:\SIM_MMRS\source\xampp\htdocs\~mmos_v1\public_html\filemanager\filemanager\jscripts\edit_area\langs\hr.js --> 10.1.3.12 /usr/home/mmos/public_html/file/filemanager/jscripts/edit_area/langs hr.js
2011.04.18 15:10 B D:\SIM_MMRS\source\xampp\htdocs\~mmos_v1\public_html\filemanager\filemanager\jscripts\edit_area\langs\it.js --> 10.1.3.12 /usr/home/mmos/public_html/file/filemanager/jscripts/edit_area/langs it.js
2011.04.18 15:10 B D:\SIM_MMRS\source\xampp\htdocs\~mmos_v1\public_html\filemanager\filemanager\jscripts\edit_area\langs\ja.js --> 10.1.3.12 /usr/home/mmos/public_html/file/filemanager/jscripts/edit_area/langs ja.js
2011.04.18 15:10 B D:\SIM_MMRS\source\xampp\htdocs\~mmos_v1\public_html\filemanager\filemanager\jscripts\edit_area\langs\nl.js --> 10.1.3.12 /usr/home/mmos/public_html/file/filemanager/jscripts/edit_area/langs nl.js
2011.04.18 15:10 B D:\SIM_MMRS\source\xampp\htdocs\~mmos_v1\public_html\filemanager\filemanager\jscripts\edit_area\langs\pl.js --> 10.1.3.12 /usr/home/mmos/public_html/file/filemanager/jscripts/edit_area/langs pl.js
2011.04.18 15:10 B D:\SIM_MMRS\source\xampp\htdocs\~mmos_v1\public_html\filemanager\filemanager\jscripts\edit_area\langs\pt.js --> 10.1.3.12 /usr/home/mmos/public_html/file/filemanager/jscripts/edit_area/langs pt.js
2011.04.19 12:25 B D:\SIM_MMRS\source\xampp\htdocs\mmos\public_html\file\filemanager\jscripts\edit_area\langs\WS_FTP.LOG <-- mmos /usr/home/mmos/public_html/file/filemanager/jscripts/edit_area/langs WS_FTP.LOG
2011.04.19 12:25 B D:\SIM_MMRS\source\xampp\htdocs\mmos\public_html\file\filemanager\jscripts\edit_area\langs\zh_cn.js <-- mmos /usr/home/mmos/public_html/file/filemanager/jscripts/edit_area/langs zh_cn.js
