<?xml version="1.0" standalone="no"?>
<!DOCTYPE svg PUBLIC "-//W3C//DTD SVG 1.1//EN" "http://www.w3.org/Graphics/SVG/1.1/DTD/svg11.dtd" >
<svg xmlns="http://www.w3.org/2000/svg" xmlns:xlink="http://www.w3.org/1999/xlink" version="1.1">
<metadata></metadata>
<defs>
<font id="robotolight" horiz-adv-x="1135" >
<font-face units-per-em="2048" ascent="1536" descent="-512" />
<missing-glyph horiz-adv-x="498" />
<glyph unicode="&#xfb01;" horiz-adv-x="1100" d="M48 984v98h180v114q0 87 25 154.5t71.5 113.5t113 69.5t149.5 23.5q134 0 276 -59l-20 -103q-53 23 -110.5 38t-137.5 15q-123 0 -185 -64.5t-62 -187.5v-114h253v-98h-253v-984h-120v984h-180zM808 0v1082h120v-1082h-120z" />
<glyph horiz-adv-x="0" />
<glyph unicode="&#xd;" horiz-adv-x="498" />
<glyph horiz-adv-x="0" />
<glyph unicode="&#x9;" horiz-adv-x="0" />
<glyph unicode=" "  horiz-adv-x="498" />
<glyph unicode="&#x09;" horiz-adv-x="498" />
<glyph unicode="&#xa0;" horiz-adv-x="498" />
<glyph unicode="!" horiz-adv-x="462" d="M153 70q0 34 22 57.5t60 23.5t60.5 -23.5t22.5 -57.5q0 -33 -22.5 -55.5t-60.5 -22.5t-60 22.5t-22 55.5zM167 1456h124l-7 -1051h-111z" />
<glyph unicode="&#x22;" horiz-adv-x="588" d="M143 1083l3 307v146h97v-140l-20 -313h-80zM378 1083l4 311v142h97v-140l-20 -313h-81z" />
<glyph unicode="#" horiz-adv-x="1270" d="M67 410v93h272l83 441h-279v96h297l79 416h100l-79 -416h314l79 416h100l-79 -416h229v-96h-247l-83 -441h255v-93h-273l-77 -410h-100l77 410h-313l-77 -410h-100l77 410h-255zM439 503h314l83 441h-314z" />
<glyph unicode="$" d="M115 418h120q0 -97 31.5 -161t81 -102.5t111 -54t121.5 -15.5q76 0 135.5 21.5t101 58.5t63 87t21.5 107q0 55 -16.5 99t-54.5 81.5t-100.5 70t-154.5 64.5q-95 30 -170.5 66t-128.5 85t-81 114.5t-28 155.5q0 82 26 149t74.5 116t117 78.5t154.5 36.5v202h102v-202 q87 -8 155.5 -41t116 -89.5t72.5 -136t25 -180.5h-119q0 74 -19.5 136.5t-58 108.5t-95.5 71.5t-131 25.5q-77 0 -134 -21.5t-94 -59t-55 -87t-18 -105.5q0 -55 14 -98.5t51 -81t101 -71t163 -66.5q94 -31 169.5 -67t128 -84.5t80.5 -113.5t28 -154q0 -84 -27 -151 t-77.5 -115.5t-121.5 -77t-158 -35.5v-190h-101v189q-80 5 -156 30.5t-135 77t-94.5 132.5t-35.5 197z" />
<glyph unicode="%" horiz-adv-x="1513" d="M109 1099v77q0 62 20 116.5t57 95.5t90 65t118 24q66 0 118.5 -24t89.5 -65t57 -95.5t20 -116.5v-77q0 -61 -20 -115.5t-56.5 -95t-89 -64.5t-117.5 -24q-66 0 -119 24t-90.5 64.5t-57.5 95t-20 115.5zM206 1099q0 -40 11.5 -78.5t35 -68.5t59.5 -48t84 -18q47 0 82 18 t58 48t34.5 68t11.5 79v77q0 40 -11.5 78.5t-35 68.5t-58.5 48.5t-83 18.5q-47 0 -82.5 -18.5t-59 -48.5t-35 -68.5t-11.5 -78.5v-77zM359 169l711 1138l75 -48l-711 -1138zM842 279v78q0 61 20 116t57 95.5t89.5 64.5t117.5 24q66 0 118.5 -24t90 -64.5t57.5 -95.5t20 -116 v-78q0 -62 -20 -116.5t-57 -95t-89.5 -64.5t-117.5 -24q-66 0 -118.5 24t-90 64.5t-57.5 95t-20 116.5zM938 279q0 -41 11.5 -79.5t35 -68.5t59.5 -48t84 -18t83 18t58 48t34.5 68.5t11.5 79.5v78q0 43 -11.5 81.5t-35 67.5t-59 46.5t-83.5 17.5q-47 0 -82 -17.5 t-58.5 -46.5t-35.5 -67.5t-12 -81.5v-78z" />
<glyph unicode="&#x26;" horiz-adv-x="1260" d="M108 371q0 65 21.5 121t59.5 105.5t89.5 95.5t111.5 91l14 10q-39 47 -69.5 91t-52 86.5t-33 85.5t-11.5 88q0 76 23.5 137.5t67.5 104.5t105.5 66t138.5 23q73 0 131 -22.5t98 -61.5t61 -91t21 -110q0 -50 -17 -93.5t-44.5 -81.5t-62.5 -70.5t-71 -60.5l-131 -101 l400 -466q42 68 66.5 151.5t24.5 181.5h111q0 -128 -32.5 -231.5t-95.5 -187.5l199 -232h-144l-126 146q-79 -78 -182.5 -122t-218.5 -44q-105 0 -189 28t-142.5 79.5t-89.5 123.5t-31 160zM227 371q0 -58 20 -110.5t61.5 -92.5t104 -63.5t147.5 -23.5q91 0 176.5 38.5 t153.5 109.5l-407 472l-14 15l-46 -35q-65 -53 -103.5 -98.5t-59 -84.5t-27 -70.5t-6.5 -56.5zM358 1149q0 -66 35 -137t100 -151l131 100q64 46 105 101t41 129q0 36 -13 69t-38 58.5t-62 40.5t-85 15q-53 0 -93 -18t-67 -49t-40.5 -71.5t-13.5 -86.5z" />
<glyph unicode="'" horiz-adv-x="348" d="M119 1090l5 296v150h102v-141l-17 -305h-90z" />
<glyph unicode="(" horiz-adv-x="653" d="M140 573v15q0 130 19 249.5t52 225t77.5 196.5t94.5 163.5t103.5 125.5t105.5 84l29 -81q-66 -47 -131 -137t-116 -214t-82.5 -278.5t-31.5 -330.5v-20q0 -176 31.5 -330t82.5 -278.5t116 -215.5t131 -140l-29 -77q-52 31 -105.5 83t-103.5 123.5t-94.5 161t-77.5 195 t-52 226t-19 254.5z" />
<glyph unicode=")" horiz-adv-x="667" d="M33 -393q66 47 131 137.5t116 216t82.5 280t31.5 330.5v20q0 176 -32.5 331t-84.5 280.5t-116 216t-128 136.5l29 77q51 -31 105 -84t104 -125.5t94.5 -163.5t77.5 -196.5t52 -225t19 -249.5v-15q0 -134 -19 -254.5t-52 -226t-77.5 -195t-94.5 -161t-104 -123.5t-105 -83 z" />
<glyph unicode="*" horiz-adv-x="869" d="M29 1108l32 101l332 -123l-4 370h104l-8 -373l324 127l33 -101l-333 -115l223 -294l-85 -63l-214 305l-204 -303l-85 61l217 300z" />
<glyph unicode="+" horiz-adv-x="1156" d="M75 628v112h434v466h121v-466h443v-112h-443v-482h-121v482h-434z" />
<glyph unicode="," horiz-adv-x="392" d="M60 -220q46 62 70 124.5t24 141.5v142h117v-140q0 -45 -9.5 -90t-27.5 -86t-44 -77.5t-59 -66.5z" />
<glyph unicode="-" horiz-adv-x="586" d="M49 592v101h479v-101h-479z" />
<glyph unicode="." horiz-adv-x="489" d="M145 72q0 35 22.5 59.5t62.5 24.5t63 -24.5t23 -59.5t-23 -57.5t-63 -22.5t-62.5 22.5t-22.5 57.5z" />
<glyph unicode="/" horiz-adv-x="813" d="M30 -125l608 1581h108l-607 -1581h-109z" />
<glyph unicode="0" d="M120 607v246q0 160 30.5 277.5t88 194t140.5 114t188 37.5t188.5 -37.5t141 -114t88 -194t30.5 -277.5v-246q0 -160 -30 -278t-87 -195.5t-140 -115.5t-189 -38q-105 0 -188 38t-141 115.5t-89 195.5t-31 278zM239 594q0 -123 21 -218.5t62.5 -161t103.5 -99.5t143 -34 q82 0 143.5 34t102 99.5t60.5 161t20 218.5v274q0 250 -81.5 378t-246.5 128q-164 0 -246 -128t-82 -378v-274z" />
<glyph unicode="1" d="M178 1165v112l496 184h20v-1461h-120v1312z" />
<glyph unicode="2" d="M105 1036q0 90 30.5 170t88.5 140t140.5 95t187.5 35q98 0 177 -26.5t134 -77t84.5 -123t29.5 -164.5q0 -66 -24 -133t-64 -133t-92 -131t-107 -128l-406 -459h765v-101h-912v92l477 541q67 76 113.5 137t75 113.5t41 99t12.5 92.5q0 66 -19.5 120.5t-58 94.5t-95.5 62 t-131 22q-76 0 -136.5 -25.5t-103 -70.5t-65.5 -107t-23 -135h-119z" />
<glyph unicode="3" d="M98 395h120q0 -69 25.5 -127t71.5 -99.5t109.5 -64.5t139.5 -23q155 0 241.5 79.5t86.5 230.5q0 79 -26.5 136t-75 93.5t-116 53.5t-149.5 17h-122v102h122q84 0 147.5 22.5t106.5 61t64.5 90t21.5 109.5q0 66 -18.5 120.5t-56 94t-95 61.5t-136.5 22q-69 0 -127 -21 t-101 -60t-67 -94.5t-24 -124.5h-120q0 88 33.5 162t92 127.5t139 83t174.5 29.5q96 0 175 -27t134.5 -78.5t86 -126.5t30.5 -172q0 -49 -16 -97.5t-47 -91.5t-78 -78.5t-108 -58.5q72 -20 124 -54.5t85.5 -80.5t50 -101t16.5 -115q0 -99 -34 -176t-94 -130.5t-142 -81 t-178 -27.5q-89 0 -172.5 26t-149 77.5t-105 129.5t-39.5 182z" />
<glyph unicode="4" d="M67 368v68l674 1020h131v-987h227v-101h-227v-368h-120v368h-685zM214 469h538v832l-53 -92z" />
<glyph unicode="5" d="M168 383h115q17 -149 101 -225.5t227 -76.5q156 0 235.5 99t79.5 282q0 77 -22 143t-64 115t-104 76.5t-142 27.5q-53 0 -93 -7.5t-73 -21t-60.5 -33t-54.5 -43.5l-95 27l71 710h728v-111h-625l-51 -492q19 13 47 27.5t63 26t76.5 19t87.5 7.5q97 0 176.5 -32.5 t136 -93.5t87.5 -147.5t31 -195.5q0 -105 -25.5 -193.5t-79 -153t-135.5 -101t-195 -36.5q-87 0 -164 24.5t-136 74.5t-96.5 126t-46.5 178z" />
<glyph unicode="6" d="M129 514v129q0 186 42.5 338t129 260t217.5 167t307 59h18v-105h-18q-131 0 -233.5 -40t-175.5 -115t-115 -183t-50 -243q60 84 153.5 129.5t208.5 45.5q105 0 183.5 -38.5t131 -104.5t78.5 -153t26 -183q0 -105 -29.5 -196t-85.5 -157.5t-136 -105t-180 -38.5 q-110 0 -197.5 42t-148.5 115t-93.5 170t-32.5 207zM249 512q0 -101 27.5 -180.5t75 -135t111.5 -85t138 -29.5q73 0 131 30.5t98.5 84t62 124.5t21.5 152q0 77 -20 146t-59.5 121t-99.5 82.5t-141 30.5q-59 0 -115 -18.5t-102 -51.5t-79.5 -77t-48.5 -95v-99z" />
<glyph unicode="7" d="M77 1354v102h957v-69l-622 -1387h-125l618 1354h-828z" />
<glyph unicode="8" d="M106 386q0 64 19.5 120.5t55 103t86 81.5t112.5 56q-54 21 -97.5 54.5t-74 76t-47.5 94t-17 109.5q0 95 32 168.5t89 124t134.5 76.5t169.5 26q90 0 168 -26t135.5 -76.5t90.5 -124t33 -168.5q0 -58 -17.5 -109.5t-49 -94t-75.5 -76t-98 -54.5q62 -21 113 -56t88 -81.5 t57 -103t20 -120.5q0 -100 -36 -176t-98.5 -127t-147 -77t-181.5 -26q-99 0 -183.5 26t-147 77t-98 127t-35.5 176zM225 385q0 -73 25.5 -129.5t71 -95.5t109 -59t139.5 -20q75 0 137.5 20t108.5 59t71.5 95.5t25.5 129.5q0 70 -26.5 127.5t-72.5 98t-109.5 63t-136.5 22.5 q-75 0 -138 -22.5t-108.5 -63t-71 -98t-25.5 -127.5zM263 1082q0 -65 22.5 -117.5t63 -89.5t97 -57t123.5 -20q66 0 122 20t97 57t64 89.5t23 117.5q0 64 -23.5 117.5t-64.5 92.5t-97 60.5t-122 21.5t-122 -20.5t-96.5 -58t-63.5 -92t-23 -121.5z" />
<glyph unicode="9" d="M101 965q0 105 30 197.5t86.5 162.5t138 110.5t185.5 40.5q117 0 204 -43t144.5 -120t86 -184t28.5 -234v-116q0 -108 -13.5 -208.5t-45 -188.5t-82.5 -160.5t-126.5 -124t-177 -80t-232.5 -28.5h-26l1 104h25q154 0 259.5 44t170.5 122t94.5 184t32.5 231 q-30 -44 -69 -80.5t-85.5 -62.5t-99.5 -40t-111 -14q-102 0 -180 41t-131 109t-80 156t-27 182zM219 970q0 -75 20.5 -145t60 -124.5t98.5 -87.5t136 -33q68 0 125 22t101.5 58t76 82t48.5 95v69q0 115 -25 202.5t-70.5 146t-108.5 88.5t-138 30q-76 0 -136 -32.5t-102 -88 t-64 -128.5t-22 -154z" />
<glyph unicode=":" horiz-adv-x="430" d="M127 72q0 35 22.5 59.5t62.5 24.5t63 -24.5t23 -59.5t-23 -57.5t-63 -22.5t-62.5 22.5t-22.5 57.5zM129 995q0 35 22.5 59.5t62.5 24.5t63 -24.5t23 -59.5t-23 -57.5t-63 -22.5t-62.5 22.5t-22.5 57.5z" />
<glyph unicode=";" horiz-adv-x="399" d="M60 -220q46 62 70 124.5t24 141.5v142h117v-140q0 -45 -9.5 -90t-27.5 -86t-44 -77.5t-59 -66.5zM118 995q0 35 22.5 59.5t62.5 24.5t63 -24.5t23 -59.5t-23 -57.5t-63 -22.5t-62.5 22.5t-22.5 57.5z" />
<glyph unicode="&#x3c;" horiz-adv-x="1047" d="M77 608v97l827 378v-126l-696 -302l696 -300v-126z" />
<glyph unicode="=" horiz-adv-x="1133" d="M149 418v106h834v-106h-834zM149 829v106h834v-106h-834z" />
<glyph unicode="&#x3e;" horiz-adv-x="1061" d="M124 231v124l711 304l-711 303v123l845 -378v-97z" />
<glyph unicode="?" horiz-adv-x="930" d="M84 1115q1 85 31.5 152.5t83 113.5t123 70.5t150.5 24.5q90 0 159 -27.5t116 -76.5t71.5 -118t24.5 -151q0 -67 -17 -123.5t-48 -107t-74.5 -97.5t-95.5 -95q-32 -27 -54 -58.5t-35 -66.5t-18.5 -73t-5.5 -78h-119q1 64 9.5 112t27.5 89t50.5 79t77.5 83q40 40 73.5 74.5 t58 72t38 82.5t13.5 105t-16 109t-47.5 84.5t-79 55t-109.5 19.5q-58 0 -107 -17t-85 -50t-56 -80t-21 -107h-119zM360 70q0 34 21.5 57.5t60.5 23.5q38 0 60.5 -23.5t22.5 -57.5q0 -33 -22.5 -55.5t-60.5 -22.5q-39 0 -60.5 22.5t-21.5 55.5z" />
<glyph unicode="@" horiz-adv-x="1870" d="M122 478q9 210 74 383t177.5 297.5t267 193t343.5 68.5q199 0 347.5 -63.5t244.5 -181.5t140 -286t35 -376q-2 -63 -13.5 -127t-32 -123t-52 -110.5t-74 -90t-97 -60.5t-121.5 -22q-97 0 -158 51t-81 143q-54 -97 -130.5 -145.5t-167.5 -48.5q-71 0 -124 32t-86 90.5 t-46 141t-4 183.5q12 129 50.5 233t97 176.5t132 112t154.5 39.5q51 0 89.5 -8.5t70 -23.5t58 -34.5t52.5 -41.5l-51 -570q-7 -80 7.5 -128.5t39.5 -74t55 -33.5t54 -8q67 0 118 34.5t87 94.5t56 141.5t24 176.5q9 189 -25.5 340t-117.5 256t-216 161.5t-319 56.5 q-161 0 -296 -60.5t-235 -171.5t-159 -267.5t-68 -349.5q-9 -186 32 -340.5t128 -266t218.5 -173t302.5 -61.5q44 0 89.5 5.5t88.5 16t82 25t70 32.5l31 -80q-33 -22 -77.5 -38.5t-93.5 -28t-99 -17t-95 -5.5q-190 0 -338.5 64.5t-249 185.5t-149.5 293.5t-40 387.5z M669.5 285.5q7.5 -64.5 29.5 -111t58.5 -72t87.5 -25.5q36 0 73.5 11.5t73.5 41t68 78.5t58 124l45 516q-30 22 -69 35.5t-89 13.5q-60 0 -115.5 -28.5t-100 -87t-76 -147t-43.5 -207.5q-8 -77 -0.5 -141.5z" />
<glyph unicode="A" horiz-adv-x="1279" d="M30 0l551 1456h117l551 -1456h-128l-151 408h-661l-150 -408h-129zM347 513h584l-292 793z" />
<glyph unicode="B" horiz-adv-x="1255" d="M184 0v1456h430q111 0 199 -22.5t149.5 -69t94.5 -118.5t33 -171q0 -56 -15.5 -105.5t-45.5 -90.5t-72.5 -71.5t-96.5 -48.5q64 -14 116 -46.5t89 -79t57 -103.5t20 -120q0 -100 -33.5 -176.5t-95 -128.5t-147.5 -78.5t-190 -26.5h-492zM307 104h369q80 0 143.5 21 t108 60t68 95.5t23.5 127.5q0 61 -20 114.5t-61.5 93t-104 62t-147.5 22.5h-379v-596zM307 803h336q154 3 238.5 72.5t84.5 202.5q0 140 -87.5 206.5t-264.5 66.5h-307v-548z" />
<glyph unicode="C" horiz-adv-x="1330" d="M131 636v183q0 147 39 268.5t111.5 207.5t175.5 133.5t231 47.5q116 0 209 -32t159.5 -93.5t107 -150t51.5 -200.5h-124q-11 88 -40 157.5t-78.5 116.5t-120 72t-164.5 25q-102 0 -182 -39.5t-136 -111.5t-85.5 -173.5t-29.5 -225.5v-185q0 -120 28 -221.5t82 -175 t133 -114.5t181 -41q193 0 291 92.5t121 277.5h124q-12 -111 -52 -199t-107.5 -149t-162 -93.5t-214.5 -32.5q-124 0 -225 47t-173 133.5t-111 207.5t-39 268z" />
<glyph unicode="D" horiz-adv-x="1341" d="M184 0v1456h407q136 0 250.5 -47t197 -134t128.5 -209t46 -272v-133q0 -150 -46 -272t-129 -208.5t-199 -133.5t-256 -47h-399zM307 104h276q117 0 211 40.5t160 114t101.5 176t35.5 226.5v136q0 126 -36 228.5t-101.5 174.5t-157.5 111.5t-205 39.5h-284v-1247z" />
<glyph unicode="E" horiz-adv-x="1165" d="M184 0v1456h901v-105h-778v-549h681v-104h-681v-594h783v-104h-906z" />
<glyph unicode="F" horiz-adv-x="1152" d="M184 0v1456h902v-105h-779v-566h679v-105h-679v-680h-123z" />
<glyph unicode="G" horiz-adv-x="1400" d="M145 645v177q0 150 39 271t112.5 206t177.5 131t235 46q121 0 214 -32.5t158 -90.5t103 -136.5t50 -170.5h-123q-11 65 -38 124t-75 103.5t-118.5 71t-169.5 26.5q-107 0 -189 -39.5t-138.5 -111t-85.5 -172.5t-29 -224v-179q0 -128 33 -231.5t93.5 -176.5t145.5 -113 t189 -40q84 0 148 12.5t111 31.5t77.5 41t46.5 42v376h-391v104h514v-518q-19 -27 -57.5 -61t-100 -63t-148 -49t-200.5 -20q-129 0 -236 46.5t-184.5 133t-120.5 209.5t-43 276z" />
<glyph unicode="H" horiz-adv-x="1449" d="M184 0v1456h123v-654h832v654h124v-1456h-124v698h-832v-698h-123z" />
<glyph unicode="I" horiz-adv-x="545" d="M211 0v1456h123v-1456h-123z" />
<glyph unicode="J" horiz-adv-x="1127" d="M71 401h123q0 -158 83 -237.5t234 -79.5q66 0 123.5 22.5t100.5 66.5t67.5 109t24.5 151v1023h124v-1023q0 -110 -33.5 -194.5t-92 -142t-139.5 -87t-175 -29.5q-99 0 -180 25.5t-138.5 78t-89.5 131.5t-32 186z" />
<glyph unicode="K" horiz-adv-x="1292" d="M184 0v1456h123v-785l198 207l548 578h155l-610 -648l657 -808h-150l-593 723l-205 -202v-521h-123z" />
<glyph unicode="L" horiz-adv-x="1079" d="M184 0v1456h124v-1352h719v-104h-843z" />
<glyph unicode="M" horiz-adv-x="1772" d="M184 0v1456h163l537 -1285l539 1285h164v-1456h-123v636l10 648l-542 -1284h-95l-540 1279l10 -643v-636h-123z" />
<glyph unicode="N" horiz-adv-x="1454" d="M184 0v1456h124l838 -1247v1247h122v-1456h-123l-837 1246v-1246h-124z" />
<glyph unicode="O" horiz-adv-x="1386" d="M125 649v156q0 153 41 277t115 211.5t178.5 135t232.5 47.5q129 0 234 -47.5t179.5 -135t114.5 -211.5t40 -277v-156q0 -153 -40 -276.5t-113.5 -210.5t-178.5 -134.5t-234 -47.5q-128 0 -232.5 47.5t-179.5 134.5t-116 210.5t-41 276.5zM248 649q0 -130 31 -234t89 -177 t140.5 -112t185.5 -39q106 0 188.5 39t139 112t86 177t29.5 234v158q0 129 -30 233t-87 176.5t-140 112t-188 39.5q-103 0 -185.5 -39.5t-140 -112t-88 -176.5t-30.5 -233v-158z" />
<glyph unicode="P" horiz-adv-x="1261" d="M184 0v1456h496q120 0 211.5 -32t153.5 -89.5t93.5 -137.5t31.5 -176q0 -101 -31.5 -180.5t-93 -134.5t-153.5 -84t-212 -29h-373v-593h-123zM307 697h373q97 0 167 24.5t114 68t65 102.5t21 127q0 67 -21 127.5t-65 106t-114 72t-167 26.5h-373v-654z" />
<glyph unicode="Q" horiz-adv-x="1386" d="M121 649v156q0 153 41 277t115 211.5t178.5 135t231.5 47.5q130 0 235 -47.5t179 -135t114.5 -211.5t40.5 -277v-156q0 -105 -19 -196.5t-55.5 -167.5t-89 -134.5t-119.5 -97.5l265 -231l-85 -76l-297 257q-39 -11 -80.5 -17t-86.5 -6q-127 0 -231.5 47.5t-179.5 134.5 t-116 210.5t-41 276.5zM244 649q0 -130 31 -234t88.5 -177t140 -112t185.5 -39q106 0 188.5 39t139.5 112t86.5 177t29.5 234v158q0 129 -30 233t-87 176.5t-140 112t-189 39.5q-103 0 -185 -39.5t-139.5 -112t-88 -176.5t-30.5 -233v-158z" />
<glyph unicode="R" horiz-adv-x="1300" d="M181 0v1456h473q114 0 205.5 -28t156 -82.5t99 -134.5t34.5 -184q0 -72 -22 -135.5t-62 -114.5t-95.5 -88t-122.5 -57l364 -619v-13h-131l-352 606h-423v-606h-124zM305 711h377q85 0 149.5 26t107.5 69.5t64.5 101t21.5 119.5q0 75 -24 135t-71.5 102t-116.5 64.5 t-159 22.5h-349v-640z" />
<glyph unicode="S" horiz-adv-x="1213" d="M88 416h123q0 -92 38 -155.5t98 -102.5t135 -56.5t150 -17.5q85 0 154.5 19.5t119 55.5t76 86.5t26.5 112.5q0 60 -19.5 106.5t-66 85t-122.5 70.5t-190 64q-110 31 -198 67.5t-149.5 85.5t-95 113t-33.5 150q0 84 36 153t101 118.5t155 77t197 27.5q115 0 207.5 -34 t157.5 -93t100 -138t35 -170h-124q0 71 -25 131.5t-73 104.5t-118 69t-160 25t-158.5 -21.5t-114 -58t-69 -85.5t-23.5 -104q0 -52 19.5 -96t65.5 -81.5t121 -70t185 -61.5q115 -32 205 -70t152 -89.5t94 -118.5t32 -155q0 -89 -37.5 -159.5t-104 -119.5t-158.5 -75 t-200 -26q-65 0 -130.5 11t-126 33.5t-113 57.5t-91 83.5t-61 111t-22.5 139.5z" />
<glyph unicode="T" horiz-adv-x="1223" d="M52 1351v105h1120v-105h-499v-1351h-123v1351h-498z" />
<glyph unicode="U" horiz-adv-x="1346" d="M162 469v987h122v-987q0 -96 29 -168t81 -120t123.5 -72.5t156.5 -24.5t156.5 24.5t123 72.5t80.5 120t29 168v987h124v-987q0 -123 -40.5 -214.5t-110 -152.5t-163 -91.5t-199.5 -30.5q-109 0 -202.5 30.5t-162.5 91.5t-108 152.5t-39 214.5z" />
<glyph unicode="V" horiz-adv-x="1263" d="M31 1456h134l458 -1276l8 -31l9 31l458 1276h135l-542 -1456h-118z" />
<glyph unicode="W" horiz-adv-x="1836" d="M61 1456h126l266 -1063l45 -226l55 216l316 1073h111l312 -1073l54 -218l48 228l263 1063h126l-373 -1456h-118l-330 1139l-37 144l-36 -144l-338 -1139h-118z" />
<glyph unicode="X" horiz-adv-x="1253" d="M55 0l498 738l-483 718h147l410 -616l410 616h147l-482 -718l497 -738h-148l-424 636l-426 -636h-146z" />
<glyph unicode="Y" horiz-adv-x="1226" d="M24 1456h146l441 -794l445 794h142l-526 -908v-548h-123v548z" />
<glyph unicode="Z" horiz-adv-x="1225" d="M90 0v93l864 1258h-838v105h990v-88l-867 -1264h899v-104h-1048z" />
<glyph unicode="[" horiz-adv-x="491" d="M163 -312v1976h330v-102h-210v-1772h210v-102h-330z" />
<glyph unicode="\" horiz-adv-x="807" d="M48 1456h117l608 -1581h-117z" />
<glyph unicode="]" horiz-adv-x="491" d="M0 -210h211v1772h-211v102h331v-1976h-331v102z" />
<glyph unicode="^" horiz-adv-x="852" d="M77 729l299 727h90l298 -727h-116l-227 569l-228 -569h-116z" />
<glyph unicode="_" horiz-adv-x="884" d="M1 0h881v-101h-881v101z" />
<glyph unicode="`" horiz-adv-x="585" d="M103 1524h144l191 -279h-109z" />
<glyph unicode="a" horiz-adv-x="1097" d="M100 287q0 79 34 142.5t98 108t155.5 68t205.5 23.5h222v123q0 116 -71.5 182.5t-208.5 66.5q-63 0 -116 -17t-91.5 -47t-60 -69.5t-21.5 -84.5l-120 1q0 61 30 118t84.5 101.5t131 71.5t169.5 27q86 0 158.5 -22t124.5 -66t81 -110t29 -154v-524q0 -28 2 -58t6.5 -58 t10.5 -53.5t14 -44.5v-12h-128q-10 28 -15.5 68.5t-7.5 82.5q-27 -35 -64 -66t-83 -54t-101 -37t-119 -14q-79 0 -143.5 23t-110 64.5t-70.5 97.5t-25 122zM220 297q0 -44 17 -82.5t48.5 -67t76.5 -45t101 -16.5q65 0 120.5 16.5t100.5 45.5t78 67.5t53 83.5v238h-205 q-92 0 -164.5 -16.5t-122.5 -47.5t-76.5 -75.5t-26.5 -100.5z" />
<glyph unicode="b" d="M155 0v1536h119v-611q54 84 137 130.5t201 46.5q99 0 176 -39t130.5 -111t81 -173.5t27.5 -227.5v-21q0 -122 -27.5 -223t-80.5 -173.5t-130 -113t-175 -40.5q-119 0 -203.5 45t-138.5 123l-5 -148h-112zM274 288q19 -43 47.5 -80.5t67.5 -65t89.5 -43t113.5 -15.5 q81 0 140.5 34t98.5 94t57.5 141.5t18.5 176.5v21q0 94 -18 176t-56.5 142t-98.5 94.5t-144 34.5q-68 0 -120 -18.5t-90 -49.5t-64 -71t-42 -83v-488z" />
<glyph unicode="c" horiz-adv-x="1055" d="M94 520v42q0 114 29.5 212.5t87.5 171t144.5 114.5t199.5 42q87 0 161.5 -27t130 -77t88.5 -121.5t37 -159.5h-115q-4 66 -28.5 118t-65 89t-94 56.5t-114.5 19.5q-93 0 -157.5 -36t-105.5 -97t-59.5 -140t-18.5 -165v-42q0 -87 18.5 -166.5t59 -140t106 -96.5t158.5 -36 q57 0 109.5 16.5t93.5 48.5t67.5 79t30.5 109h115q-4 -77 -38.5 -142t-91 -112t-130.5 -73.5t-156 -26.5q-114 0 -200 41.5t-144.5 114.5t-88 171.5t-29.5 212.5z" />
<glyph unicode="d" horiz-adv-x="1138" d="M108 530v21q0 126 29 227.5t83 173.5t131.5 111t174.5 39q115 0 197.5 -46t136.5 -127v607h119v-1536h-112l-5 144q-54 -77 -137.5 -120.5t-200.5 -43.5q-96 0 -173 40.5t-131 113t-83 173.5t-29 223zM229 530q0 -95 19 -176.5t58 -141.5t98.5 -94t141.5 -34 q61 0 110.5 14.5t88 40.5t67 62t48.5 78v508q-18 41 -44 79t-64 67.5t-88 47t-116 17.5q-83 0 -143 -34.5t-99 -94.5t-58 -142t-19 -176v-21z" />
<glyph unicode="e" horiz-adv-x="1058" d="M90 510v43q0 125 37.5 226.5t101.5 173t147.5 110.5t176.5 39q103 0 183 -37t134.5 -103t82.5 -157t28 -199v-73h-772v-23q0 -89 27 -167.5t76 -136.5t117 -91.5t151 -33.5q96 0 169.5 35t133.5 112l75 -57q-27 -39 -62.5 -74t-82.5 -61t-106 -41t-132 -15 q-106 0 -195 39.5t-153.5 110t-100.5 167.5t-36 213zM213 635h649v13q-2 68 -22 131.5t-58.5 112.5t-95.5 78.5t-133 29.5q-68 0 -126 -26t-102.5 -74t-73 -115.5t-38.5 -149.5z" />
<glyph unicode="f" horiz-adv-x="678" d="M63 984v98h179v134q0 82 22 146t63.5 107t100.5 65.5t134 22.5q31 0 63.5 -4t63.5 -13l-9 -100q-25 6 -50.5 9t-58.5 3q-99 0 -154 -61.5t-55 -174.5v-134h258v-98h-258v-984h-120v984h-179z" />
<glyph unicode="g" horiz-adv-x="1136" d="M108 530v21q0 126 28.5 227.5t82.5 173.5t131.5 111t175.5 39q116 0 199 -46.5t137 -129.5l6 156h112v-1063q0 -105 -31 -188.5t-87.5 -141.5t-136.5 -89t-179 -31q-51 0 -104 11.5t-102.5 34.5t-93.5 57.5t-77 81.5l67 72q66 -81 140 -118.5t162 -37.5q77 0 136.5 23.5 t100.5 68t62.5 108t21.5 144.5v126q-54 -75 -137 -117.5t-198 -42.5q-97 0 -174 40.5t-131 113t-82.5 173.5t-28.5 223zM229 530q0 -95 19 -176.5t58 -141.5t98.5 -94t141.5 -34q62 0 111.5 15t87.5 41.5t66 62.5t48 79v503q-17 42 -43.5 80.5t-64 68t-87.5 47t-116 17.5 q-83 0 -143 -34.5t-99 -94.5t-58 -142t-19 -176v-21z" />
<glyph unicode="h" horiz-adv-x="1124" d="M156 0v1536h119v-637q28 46 65 83.5t81.5 64t96 41t109.5 14.5q81 0 145 -22t108.5 -70t68 -123.5t23.5 -182.5v-704h-119v705q0 84 -18 140t-51 90t-80.5 48.5t-105.5 14.5q-64 0 -116 -21.5t-92 -57.5t-69 -82.5t-46 -95.5v-741h-119z" />
<glyph unicode="i" horiz-adv-x="459" d="M149 1395q0 34 22 57.5t60 23.5t60.5 -23.5t22.5 -57.5t-22.5 -57t-60.5 -23t-60 23t-22 57zM170 0v1082h120v-1082h-120z" />
<glyph unicode="j" horiz-adv-x="467" d="M-104 -418l2 99q17 -5 42 -9t48 -4q86 0 132 50t46 153v1211h119v-1211q0 -150 -72 -229t-212 -79q-25 0 -53 5t-52 14zM145 1395q0 34 21.5 57.5t59.5 23.5q39 0 61 -23.5t22 -57.5t-22 -57t-61 -23q-38 0 -59.5 23t-21.5 57z" />
<glyph unicode="k" horiz-adv-x="1003" d="M156 0v1536h120v-983l113 122l414 407h151l-459 -456l499 -626h-143l-438 545l-137 -132v-413h-120z" />
<glyph unicode="l" horiz-adv-x="459" d="M170 0v1536h120v-1536h-120z" />
<glyph unicode="m" horiz-adv-x="1815" d="M150 0v1082h115l4 -176q27 44 62.5 80.5t79.5 62t96 39.5t112 14q119 0 204 -50t121 -160q26 45 62.5 83.5t83 66.5t102.5 44t121 16q84 0 150 -22.5t111.5 -71t69.5 -123.5t24 -180v-705h-120v706q0 86 -19 142.5t-54 90t-83.5 46.5t-106.5 13q-76 -1 -133 -27.5 t-96.5 -67t-61.5 -90.5t-26 -97v-716h-120v715q0 81 -19 135t-54 87t-83.5 47t-107.5 14q-68 0 -120 -21.5t-90.5 -57.5t-63.5 -82t-40 -95v-742h-120z" />
<glyph unicode="n" horiz-adv-x="1125" d="M156 0v1082h114l4 -185q28 46 64.5 84t81.5 65t97 41.5t110 14.5q81 0 145 -22t108.5 -70t68 -123.5t23.5 -182.5v-704h-119v705q0 84 -18 140t-51 90t-80.5 48.5t-105.5 14.5q-64 0 -116 -21.5t-92 -57.5t-69 -82.5t-46 -95.5v-741h-119z" />
<glyph unicode="o" horiz-adv-x="1147" d="M90 524v33q0 118 34.5 218t97.5 172.5t152 113.5t198 41q111 0 200.5 -41t152.5 -113.5t97 -172.5t34 -218v-33q0 -118 -34 -218t-97 -172.5t-152 -113t-199 -40.5t-199 40.5t-152.5 113t-98 172.5t-34.5 218zM210 524q0 -89 24 -169.5t70 -141t114 -96.5t156 -36 t155.5 36t113.5 96.5t70 141t24 169.5v33q0 87 -24 167.5t-70 141.5t-114.5 97.5t-156.5 36.5q-87 0 -154.5 -36.5t-113.5 -97.5t-70 -141.5t-24 -167.5v-33z" />
<glyph unicode="p" d="M155 -416v1498h111l6 -153q55 81 139 127t200 46q99 0 176.5 -39t130.5 -111t80.5 -173.5t27.5 -227.5v-21q0 -122 -27.5 -223t-80.5 -173.5t-129.5 -113t-174.5 -40.5q-116 0 -200.5 41.5t-139.5 114.5v-552h-119zM274 272q19 -41 47.5 -76t67 -60.5t87.5 -40t110 -14.5 q82 0 142 34.5t99.5 95t59 142.5t19.5 177v21q0 94 -19.5 176t-59 142t-100.5 94.5t-143 34.5q-65 0 -115 -17t-87.5 -45.5t-64 -66t-43.5 -78.5v-519z" />
<glyph unicode="q" horiz-adv-x="1142" d="M108 530v21q0 126 28.5 227.5t82.5 173.5t132 111t177 39q114 0 196.5 -44t136.5 -123l6 147h112v-1498h-120v550q-55 -72 -138 -113t-195 -41q-98 0 -175.5 40.5t-131.5 113t-82.5 173.5t-28.5 223zM229 530q0 -95 19 -177t58.5 -142.5t99.5 -95t142 -34.5 q59 0 107.5 14t86.5 39t67 59t50 75v530q-18 39 -45.5 75.5t-65 64.5t-86.5 45t-112 17q-83 0 -143 -34.5t-100 -95.5t-59 -143t-19 -176v-21z" />
<glyph unicode="r" horiz-adv-x="689" d="M156 0v1082h117l2 -172q44 89 119.5 140.5t185.5 51.5q22 0 45 -4t34 -9l-3 -109q-38 7 -81 7q-61 0 -110 -18t-86.5 -50.5t-63 -77t-40.5 -98.5v-743h-119z" />
<glyph unicode="s" horiz-adv-x="1037" d="M101 303h120q4 -64 33 -106.5t72 -68t95.5 -36.5t103.5 -11q68 0 120 16t87.5 43t53.5 62t18 73q0 33 -11.5 66t-43 62.5t-88 55t-146.5 44.5t-160.5 44t-119 60.5t-73.5 84.5t-25 115q0 60 26.5 114t76 94t120 63.5t158.5 23.5q94 0 168.5 -24.5t126 -68t78.5 -102.5 t27 -128h-120q0 42 -18.5 82t-54 70.5t-88 49.5t-119.5 19q-70 0 -119.5 -17t-81 -44t-46 -60.5t-14.5 -67.5q0 -36 11 -65.5t42.5 -55t88 -47t147.5 -42.5q98 -23 169 -51t117.5 -66.5t69 -88t22.5 -114.5q0 -67 -28 -122.5t-80 -95t-126 -61.5t-165 -22q-103 0 -182 26.5 t-133 71.5t-81.5 103.5t-27.5 121.5z" />
<glyph unicode="t" horiz-adv-x="658" d="M23 984v98h199v277h120v-277h224v-98h-224v-721q0 -57 11.5 -91.5t31 -54t45 -26t53.5 -6.5q27 0 52 3.5t45 6.5l5 -98q-22 -8 -57.5 -12.5t-70.5 -4.5q-51 0 -94.5 13.5t-74.5 46.5t-48.5 87.5t-17.5 135.5v721h-199z" />
<glyph unicode="u" horiz-adv-x="1125" d="M152 389v693h119v-695q0 -87 20 -145t54 -93t79.5 -50t96.5 -15q72 0 127 16t95 45t66 68t41 86v783h120v-1082h-116l-2 137q-51 -74 -135.5 -115.5t-209.5 -41.5q-80 0 -145 22.5t-112 71.5t-72.5 126.5t-25.5 188.5z" />
<glyph unicode="v" horiz-adv-x="985" d="M38 1082h123l332 -917l329 917h123l-404 -1082h-97z" />
<glyph unicode="w" horiz-adv-x="1544" d="M63 1082h123l229 -833l18 -93l24 98l260 828h102l257 -821l28 -114l23 105l222 830h124l-315 -1082h-102l-278 858l-13 59l-13 -60l-273 -857h-102z" />
<glyph unicode="x" horiz-adv-x="996" d="M48 0l382 551l-367 531h141l292 -439l292 439h142l-367 -531l383 -551h-141l-308 458l-308 -458h-141z" />
<glyph unicode="y" horiz-adv-x="973" d="M32 1082h131l336 -910l316 910h129l-458 -1255q-14 -37 -35.5 -83t-56 -86t-86 -67.5t-125.5 -27.5q-10 0 -23 1.5t-26 3.5t-24.5 4.5t-18.5 4.5l-1 99q12 -2 32.5 -4t29.5 -2q48 0 85 12.5t64.5 37t48.5 61.5t38 85l52 143z" />
<glyph unicode="z" horiz-adv-x="996" d="M87 0v88l656 891h-636v103h787v-89l-659 -892h703v-101h-851z" />
<glyph unicode="{" horiz-adv-x="676" d="M68 543v104q61 0 105 18t72 52t41 81t13 106v228q0 79 16.5 150.5t55.5 132t104 107t162 75.5l26 -79q-66 -21 -112.5 -58.5t-76 -88t-42.5 -111t-13 -128.5v-228q0 -53 -10.5 -100.5t-33 -87t-57.5 -71t-83 -50.5q48 -20 83 -51.5t57.5 -71.5t33 -88t10.5 -100v-226 q0 -68 13.5 -128t43.5 -109.5t77 -86t113 -58.5l-29 -80q-97 29 -162 75.5t-104 106t-55.5 131t-16.5 149.5v226q0 59 -13 107t-41 81.5t-72 52t-105 18.5z" />
<glyph unicode="|" horiz-adv-x="452" d="M178 -270v1726h101v-1726h-101z" />
<glyph unicode="}" horiz-adv-x="676" d="M9 -324q66 22 113 58.5t77 86t43.5 109.5t13.5 128v226q0 54 11 102t34.5 88t60 71t87.5 49q-51 18 -87.5 48.5t-60 70.5t-34.5 88.5t-11 102.5v228q0 68 -13 128.5t-42 111t-75.5 88t-113.5 58.5l26 79q97 -29 162 -75.5t104 -107t55.5 -132t16.5 -150.5v-228 q0 -59 13 -106t41 -81t72 -52t105 -18v-104q-61 0 -105 -18.5t-72 -52t-41 -81.5t-13 -107v-226q0 -78 -16.5 -149.5t-55.5 -131t-104 -106t-162 -75.5z" />
<glyph unicode="~" horiz-adv-x="1402" d="M145 449q0 70 20 132t57.5 107.5t92.5 72t126 26.5q44 0 82 -10t73.5 -28.5t70.5 -45t73 -60.5q32 -30 59.5 -51.5t53 -35.5t51 -20.5t54.5 -6.5q45 0 81 17t60.5 47.5t37.5 74t13 96.5h104q0 -69 -20 -131t-58.5 -108.5t-93.5 -74t-124 -27.5q-45 0 -82 9.5t-72 27.5 t-70 45t-74 62q-32 28 -58.5 49.5t-52 35.5t-52 21t-56.5 7q-89 0 -138.5 -59t-49.5 -171z" />
<glyph unicode="&#xa1;" horiz-adv-x="452" d="M140 1022q0 34 22.5 57t60.5 23t60 -23t22 -57t-22 -57t-60 -23t-60.5 23t-22.5 57zM168 -359l6 1049h111l7 -1049h-124z" />
<glyph unicode="&#xa2;" horiz-adv-x="1115" d="M119 520v42q0 105 25.5 197.5t75.5 164t124.5 117t172.5 57.5v220h120v-219q76 -9 140.5 -39t112 -79.5t76 -116t31.5 -147.5h-115q-4 66 -28.5 118t-65 89t-94 56.5t-114.5 19.5q-93 0 -157.5 -36t-105.5 -97t-59.5 -140t-18.5 -165v-42q0 -87 18.5 -166.5t59 -140 t106 -96.5t158.5 -36q57 0 109.5 16.5t93.5 48.5t67.5 79t30.5 109h115q-4 -71 -33.5 -131.5t-77.5 -106t-112 -75t-137 -37.5v-229h-120v229q-98 12 -172.5 57.5t-124.5 116.5t-75.5 163.5t-25.5 198.5z" />
<glyph unicode="&#xa3;" horiz-adv-x="1170" d="M93 645v104h184l-9 290q0 103 30 184.5t83.5 137.5t128 85.5t164.5 29.5q94 0 167 -28.5t123 -79.5t76.5 -122.5t26.5 -157.5h-123q0 76 -22.5 129.5t-61 87.5t-89 50t-106.5 16q-60 0 -110.5 -22t-86.5 -64t-56 -104t-20 -142l9 -290h344v-104h-341l9 -277 q1 -84 -15 -151.5t-49 -112.5h745v-104h-997v104h98q27 7 45.5 34.5t29.5 65t16 81t4 82.5l-9 278h-188z" />
<glyph unicode="&#xa4;" horiz-adv-x="1481" d="M109 60l159 161q-59 80 -91.5 177.5t-32.5 209.5q0 115 35 216t98 182l-168 171l85 87l167 -170q78 66 174 103t205 37t205 -37.5t174 -104.5l170 173l86 -88l-171 -175q61 -80 95.5 -180t34.5 -214q0 -110 -32.5 -207.5t-89.5 -176.5l163 -164l-86 -87l-158 160 q-78 -72 -178 -112.5t-213 -40.5t-213 40t-178 112l-155 -158zM257 608q0 -107 38 -201.5t104 -164.5t154 -110.5t187 -40.5t186.5 40.5t153 110.5t103.5 164.5t38 201.5t-38 200.5t-103.5 163.5t-153 110t-186.5 40t-187 -40t-154 -110t-104 -163.5t-38 -200.5z" />
<glyph unicode="&#xa5;" horiz-adv-x="1223" d="M44 1456h143l420 -722l421 722h143l-453 -751h367v-89h-418v-204h418v-88h-418v-324h-123v324h-414v88h414v204h-414v89h366z" />
<glyph unicode="&#xa6;" horiz-adv-x="444" d="M159 -270v771h120v-771h-120zM159 698v758h120v-758h-120z" />
<glyph unicode="&#xa7;" horiz-adv-x="1239" d="M102 -64l120 2q0 -95 35 -158.5t90 -101.5t123.5 -54.5t135.5 -16.5q84 0 148.5 19t109 53t67.5 80t23 100q0 52 -16.5 92t-58.5 73t-113.5 62.5t-180.5 59.5q-110 28 -198 61t-150 80t-95.5 111t-33.5 153q0 100 58.5 170.5t164.5 103.5q-86 47 -132 117t-46 178 q0 81 33.5 146.5t95 112t148.5 72t194 25.5q110 0 198 -28.5t149 -83t93.5 -135t32.5 -184.5h-120q0 68 -23 128t-67.5 104.5t-110.5 70.5t-152 26q-91 0 -157 -20t-109 -54.5t-64 -80t-21 -97.5q0 -56 16 -97t57.5 -74t114 -62t185.5 -61q112 -29 199.5 -61.5t148.5 -77.5 t93 -107.5t32 -150.5q0 -100 -61.5 -169.5t-170.5 -102.5q91 -48 139.5 -118t48.5 -180q0 -84 -33.5 -150t-95 -112t-148 -70t-192.5 -24q-93 0 -183.5 22t-161.5 72t-115 132.5t-44 204.5zM228 553q0 -58 17.5 -99.5t62.5 -75.5t123 -63.5t199 -63.5q34 -9 65 -18t60 -19 q59 7 104.5 26t76.5 47t47 64t16 77q0 54 -19.5 95.5t-66 76t-124 65.5t-193.5 64q-38 10 -74 20.5t-68 21.5q-58 -7 -100.5 -26.5t-70.5 -48.5t-41.5 -65.5t-13.5 -77.5z" />
<glyph unicode="&#xa8;" horiz-adv-x="881" d="M143 1396q0 34 21.5 57.5t60.5 23.5q38 0 60.5 -23.5t22.5 -57.5q0 -33 -22.5 -56t-60.5 -23q-39 0 -60.5 23t-21.5 56zM580 1395q0 34 22 57.5t60 23.5q39 0 61 -23.5t22 -57.5q0 -33 -22 -56t-61 -23q-38 0 -60 23t-22 56z" />
<glyph unicode="&#xa9;" horiz-adv-x="1637" d="M107 729q0 106 25.5 202.5t71.5 179.5t111 150.5t144 115t169.5 73.5t188.5 26t188.5 -26t169 -73.5t143.5 -115t111 -150.5t71.5 -179.5t25.5 -202.5t-25.5 -202.5t-71.5 -180t-111 -151t-143.5 -116t-169 -74.5t-188.5 -26t-188.5 26t-169.5 74.5t-144 116t-111 151 t-71.5 180t-25.5 202.5zM192 729q0 -93 22.5 -178.5t63 -159.5t98 -134t127 -102.5t149 -66t165.5 -23.5q128 0 241.5 51.5t198.5 141t134.5 210.5t49.5 261q0 139 -49.5 260t-134.5 209.5t-198.5 139.5t-241.5 51q-86 0 -165.5 -23t-149 -65.5t-127 -102t-98 -133 t-63 -158.5t-22.5 -178zM474 680v96q0 86 23.5 157t67 122t105 79.5t137.5 28.5q72 0 130 -19.5t99.5 -58.5t63.5 -98t22 -137h-99q0 116 -55 170t-161 54q-57 0 -100.5 -23t-73 -62.5t-45 -94t-15.5 -117.5v-97q0 -64 15.5 -118.5t45 -94t73 -62t100.5 -22.5 q106 0 160.5 53t54.5 171h99q0 -79 -22 -138t-63 -98t-99 -58.5t-130 -19.5q-76 0 -137.5 28t-105 79t-67 122.5t-23.5 157.5z" />
<glyph unicode="&#xaa;" horiz-adv-x="906" d="M157 908q0 110 83.5 171t245.5 61h139v61q0 85 -40 132t-121 47q-90 0 -141.5 -35.5t-51.5 -107.5l-107 6q0 51 21.5 93.5t60.5 73.5t94.5 48.5t123.5 17.5q60 0 109.5 -17.5t85.5 -52t55.5 -86t19.5 -120.5v-314q0 -49 6.5 -93t19.5 -88h-111q-15 43 -21 94 q-17 -21 -39.5 -40.5t-50.5 -34.5t-61 -24t-71 -9q-60 0 -106.5 15.5t-78 44t-48 68.5t-16.5 89zM266 912q0 -57 37.5 -91.5t122.5 -34.5q29 0 59 9t56.5 23.5t48 33t35.5 38.5v168h-138q-109 0 -165 -38t-56 -108z" />
<glyph unicode="&#xab;" horiz-adv-x="933" d="M123 527v19l295 379h105l-276 -389l276 -388h-105zM432 527v19l295 379h105l-276 -389l276 -388h-105z" />
<glyph unicode="&#xac;" horiz-adv-x="1117" d="M124 670v106h812v-390h-120v284h-692z" />
<glyph unicode="&#xad;" horiz-adv-x="586" d="M49 592v101h479v-101h-479z" />
<glyph unicode="&#xae;" horiz-adv-x="1642" d="M102 729q0 106 25.5 202.5t71.5 179.5t111 150.5t144 115t169.5 73.5t188.5 26t188.5 -26t169.5 -73.5t144 -115t111 -150.5t71.5 -179.5t25.5 -202.5t-25.5 -202.5t-71.5 -180t-111 -151t-144 -116t-169.5 -74.5t-188.5 -26t-188.5 26t-169.5 74.5t-144 116t-111 151 t-71.5 180t-25.5 202.5zM187 729q0 -93 22.5 -178.5t63.5 -159.5t98 -134t126.5 -102.5t149 -66t165.5 -23.5t165.5 23.5t149 66t126.5 102.5t97.5 134t63 159.5t22.5 178.5t-22.5 178t-63 158.5t-97.5 133t-126.5 102t-149 65.5t-165.5 23q-129 0 -242.5 -51t-198.5 -139.5 t-134.5 -209.5t-49.5 -260zM552 321v839h258q147 0 226 -61.5t79 -186.5q0 -68 -36.5 -117t-104.5 -80q72 -26 100 -80.5t28 -125.5v-45q0 -38 4 -71t13 -56v-16h-102q-5 13 -8 33t-4.5 41t-1.5 40v30v43q0 83 -37 120.5t-128 37.5h-188v-345h-98zM650 757h181q37 0 71 10 t59.5 29.5t40.5 47.5t15 66q0 42 -10.5 72.5t-34.5 50t-64 28.5t-98 9h-160v-313z" />
<glyph unicode="&#xaf;" horiz-adv-x="874" d="M106 1359v97h670v-97h-670z" />
<glyph unicode="&#xb0;" horiz-adv-x="774" d="M143 1226q0 51 19.5 96.5t53 79.5t78 54t94.5 20t94 -20t77 -54t52 -79.5t19 -96.5q0 -52 -19 -97t-52 -78t-77 -52t-94 -19t-94.5 19t-78 52t-53 78t-19.5 97zM233 1226q0 -34 12 -62.5t33 -49t49 -32t61 -11.5t61 11.5t48 32t31.5 49t11.5 62.5t-11.5 63.5t-31.5 50.5 t-48 33t-61 12t-61 -12t-49 -33t-33 -50.5t-12 -63.5z" />
<glyph unicode="&#xb1;" horiz-adv-x="1086" d="M85 728v101h414v438h110v-438h392v-101h-392v-439h-110v439h-414zM128 -1v102h835v-102h-835z" />
<glyph unicode="&#xb2;" horiz-adv-x="740" d="M76 1215q0 51 19.5 96.5t56 79.5t89.5 54t119 20q61 0 111 -15.5t84.5 -45t53.5 -71.5t19 -94q0 -38 -14.5 -74t-39 -71.5t-58.5 -71t-73 -72.5l-214 -198h438v-87h-571v75l289 283q74 72 105.5 122.5t31.5 91.5q0 63 -40.5 101.5t-119.5 38.5q-45 0 -79 -12t-56.5 -34 t-34 -51.5t-11.5 -64.5h-105z" />
<glyph unicode="&#xb3;" horiz-adv-x="740" d="M71 884h106q0 -31 14 -57.5t39 -45.5t59.5 -29.5t76.5 -10.5q87 0 133.5 38t46.5 104q0 38 -14.5 65t-41 44t-63.5 25t-82 8h-78v82h78q46 0 80.5 10.5t57.5 28.5t34.5 42.5t11.5 52.5t-10 53t-30 43.5t-52 29t-75 10.5q-36 0 -67.5 -9t-55 -26.5t-36.5 -42t-13 -54.5 h-105q0 50 21.5 90.5t59 69.5t87.5 44.5t108 15.5q61 0 111.5 -14.5t86.5 -43t56 -70t20 -94.5q0 -56 -38 -103t-108 -71q81 -21 121.5 -69.5t40.5 -119.5q0 -54 -22 -96t-60.5 -71t-91 -44t-114.5 -15q-54 0 -106.5 13.5t-93.5 42t-66.5 71.5t-25.5 103z" />
<glyph unicode="&#xb4;" horiz-adv-x="576" d="M124 1245l191 279h145l-231 -279h-105z" />
<glyph unicode="&#xb5;" horiz-adv-x="1140" d="M162 -416v1498h119v-633q0 -112 21.5 -183.5t57.5 -112.5t83.5 -56.5t100.5 -15.5q72 0 125.5 16.5t91 47t61.5 73t37 94.5v770h120v-1082h-103l-11 157q-46 -83 -122.5 -130t-190.5 -47q-83 0 -153 28t-118 97v-521h-119z" />
<glyph unicode="&#xb6;" horiz-adv-x="973" d="M83 988q0 100 32 186t94.5 148.5t154 98t211.5 35.5h226v-1456h-120v520h-106q-120 0 -211.5 35t-154 97.5t-94.5 148.5t-32 187z" />
<glyph unicode="&#xb7;" horiz-adv-x="503" d="M163 717q0 35 22 59t62 24t63 -24t23 -59t-23 -58.5t-63 -23.5t-62 23.5t-22 58.5z" />
<glyph unicode="&#xb8;" horiz-adv-x="498" d="M98 -357q37 0 73.5 7t65 21.5t46 37t17.5 54.5q0 58 -43.5 80t-132.5 30l29 127h93l-12 -64q31 -4 60.5 -14.5t53 -30.5t37.5 -51t14 -75q0 -45 -19.5 -81.5t-57 -63t-92.5 -41t-125 -14.5z" />
<glyph unicode="&#xb9;" horiz-adv-x="674" d="M126 1262v90l324 107h14v-790h-106v663z" />
<glyph unicode="&#xba;" horiz-adv-x="922" d="M135 1033v99q0 75 22.5 138t64.5 109t101.5 71.5t134.5 25.5t135 -25.5t102 -71.5t64.5 -109t22.5 -138v-99q0 -75 -22.5 -138t-64 -108.5t-101 -71t-134.5 -25.5t-135.5 25.5t-102.5 71t-64.5 108.5t-22.5 138zM243 1033q0 -52 13 -97.5t39.5 -79t67.5 -52.5t97 -19 q54 0 94 19t67 52.5t40 79t13 97.5v99q0 51 -13 96.5t-40 79t-67.5 53t-95.5 19.5q-54 0 -94.5 -19.5t-67 -53t-40 -79t-13.5 -96.5v-99z" />
<glyph unicode="&#xbb;" horiz-adv-x="928" d="M115 162l276 388l-276 394h106l295 -384v-19l-295 -379h-106zM434 162l276 388l-276 394h106l295 -384v-19l-295 -379h-106z" />
<glyph unicode="&#xbc;" horiz-adv-x="1484" d="M115 1257v90l324 107h14v-790h-106v663zM340 177l711 1138l74 -48l-711 -1138zM764 253l397 536h111v-514h127v-88h-127v-187h-105v187h-399zM878 275h289v384l-31 -50z" />
<glyph unicode="&#xbd;" horiz-adv-x="1548" d="M100 1257v90l324 107h14v-790h-106v663zM296 177l711 1138l74 -48l-711 -1138zM845 550q0 51 19.5 96.5t56 79.5t89.5 54t119 20q61 0 111 -15.5t84.5 -45t53.5 -71.5t19 -94q0 -38 -14.5 -74t-39 -71.5t-58.5 -71t-73 -72.5l-214 -198h438v-87h-571v75l289 283 q74 72 105.5 122.5t31.5 91.5q0 63 -40.5 101.5t-119.5 38.5q-45 0 -79 -12t-56.5 -34t-34 -51.5t-11.5 -64.5h-105z" />
<glyph unicode="&#xbe;" horiz-adv-x="1590" d="M118 884h106q0 -31 14 -57.5t39 -45.5t59.5 -29.5t76.5 -10.5q87 0 133.5 38t46.5 104q0 38 -14.5 65t-41 44t-63.5 25t-82 8h-78v82h78q46 0 80.5 10.5t57.5 28.5t34.5 42.5t11.5 52.5t-10 53t-30 43.5t-52 29t-75 10.5q-36 0 -67.5 -9t-55 -26.5t-36.5 -42t-13 -54.5 h-105q0 50 21.5 90.5t59 69.5t87.5 44.5t108 15.5q61 0 111.5 -14.5t86.5 -43t56 -70t20 -94.5q0 -56 -38 -103t-108 -71q81 -21 121.5 -69.5t40.5 -119.5q0 -54 -22 -96t-60.5 -71t-91 -44t-114.5 -15q-54 0 -106.5 13.5t-93.5 42t-66.5 71.5t-25.5 103zM484 177l711 1138 l74 -48l-711 -1138zM879 253l397 536h111v-514h127v-88h-127v-187h-105v187h-399zM993 275h289v384l-31 -50z" />
<glyph unicode="&#xbf;" horiz-adv-x="940" d="M88 -10q0 72 20 133t54 115t79 103t96 97q32 27 50.5 54.5t28.5 57.5t12.5 63.5t2.5 73.5h120q-1 -63 -7 -106.5t-22 -79.5t-44.5 -70.5t-73.5 -79.5q-39 -39 -74.5 -75.5t-63 -78t-43.5 -91t-16 -114.5q0 -129 67 -199t195 -70q58 0 106 17.5t82.5 51t54 81t20.5 107.5 h120q-1 -88 -31 -156t-81.5 -114t-121 -69.5t-149.5 -23.5q-90 0 -161 26t-120 75t-74.5 117.5t-25.5 154.5zM402 1022q0 33 22.5 56t60.5 23t60 -23t22 -56q0 -34 -22 -57.5t-60 -23.5t-60.5 23.5t-22.5 57.5z" />
<glyph unicode="&#xc0;" horiz-adv-x="1279" d="M30 0l551 1456h117l551 -1456h-128l-151 408h-661l-150 -408h-129zM347 513h584l-292 793zM381 1839h144l191 -279h-109z" />
<glyph unicode="&#xc1;" horiz-adv-x="1279" d="M30 0l551 1456h117l551 -1456h-128l-151 408h-661l-150 -408h-129zM347 513h584l-292 793zM571 1560l191 279h145l-231 -279h-105z" />
<glyph unicode="&#xc2;" horiz-adv-x="1279" d="M30 0l551 1456h117l551 -1456h-128l-151 408h-661l-150 -408h-129zM347 513h584l-292 793zM366 1573v13l238 255h76l241 -258v-10h-111l-168 183l-167 -183h-109z" />
<glyph unicode="&#xc3;" horiz-adv-x="1279" d="M30 0l551 1456h117l551 -1456h-128l-151 408h-661l-150 -408h-129zM310 1591q0 48 15 87t41 67t62 43t77 15q48 0 82 -17t64 -38t60.5 -38t71.5 -17q46 0 78.5 33t32.5 89l89 -6q0 -48 -15 -87.5t-41.5 -67t-62 -43t-76.5 -15.5q-35 0 -61.5 8t-47.5 20.5t-39.5 26.5 t-38 26.5t-41.5 20.5t-50 8q-47 0 -78.5 -31t-31.5 -87zM347 513h584l-292 793z" />
<glyph unicode="&#xc4;" horiz-adv-x="1279" d="M30 0l551 1456h117l551 -1456h-128l-151 408h-661l-150 -408h-129zM347 513h584l-292 793zM349 1711q0 34 21.5 57.5t60.5 23.5q38 0 60.5 -23.5t22.5 -57.5q0 -33 -22.5 -56t-60.5 -23q-39 0 -60.5 23t-21.5 56zM786 1710q0 34 22 57.5t60 23.5q39 0 61 -23.5t22 -57.5 q0 -33 -22 -56t-61 -23q-38 0 -60 23t-22 56z" />
<glyph unicode="&#xc5;" horiz-adv-x="1279" d="M30 0l551 1456h117l551 -1456h-128l-151 408h-661l-150 -408h-129zM347 513h584l-292 793zM450 1715q0 40 15 74.5t41 60t61 40.5t76 15q40 0 75.5 -15t61.5 -40.5t41 -60t15 -74.5t-15 -74.5t-41 -59.5t-61.5 -39t-75.5 -14q-41 0 -76 14t-61 39t-41 59.5t-15 74.5z M527 1715q0 -24 8.5 -45.5t24 -37t36.5 -24.5t47 -9q25 0 46.5 9t37.5 24.5t24.5 37t8.5 45.5q0 25 -8.5 46.5t-24.5 37.5t-37.5 25.5t-46.5 9.5q-26 0 -47 -9.5t-36.5 -25.5t-24 -37.5t-8.5 -46.5z" />
<glyph unicode="&#xc6;" horiz-adv-x="1865" d="M17 0l881 1456h864v-102h-694l23 -545h589v-102h-585l26 -606h702v-101h-817l-17 389h-596l-230 -389h-146zM460 502h525l-35 829z" />
<glyph unicode="&#xc7;" horiz-adv-x="1330" d="M131 636v183q0 147 39 268.5t111.5 207.5t175.5 133.5t231 47.5q116 0 209 -32t159.5 -93.5t107 -150t51.5 -200.5h-124q-11 88 -40 157.5t-78.5 116.5t-120 72t-164.5 25q-102 0 -182 -39.5t-136 -111.5t-85.5 -173.5t-29.5 -225.5v-185q0 -120 28 -221.5t82 -175 t133 -114.5t181 -41q193 0 291 92.5t121 277.5h124q-12 -111 -52 -199t-107.5 -149t-162 -93.5t-214.5 -32.5q-124 0 -225 47t-173 133.5t-111 207.5t-39 268zM580 -366q37 0 73.5 7t65 21.5t46 37t17.5 54.5q0 58 -43.5 80t-132.5 30l29 127h93l-12 -64q31 -4 60.5 -14.5 t53 -30.5t37.5 -51t14 -75q0 -45 -19.5 -81.5t-57 -63t-92.5 -41t-125 -14.5z" />
<glyph unicode="&#xc8;" horiz-adv-x="1165" d="M184 0v1456h901v-105h-778v-549h681v-104h-681v-594h783v-104h-906zM358 1845h144l191 -279h-109z" />
<glyph unicode="&#xc9;" horiz-adv-x="1165" d="M184 0v1456h901v-105h-778v-549h681v-104h-681v-594h783v-104h-906zM548 1566l191 279h145l-231 -279h-105z" />
<glyph unicode="&#xca;" horiz-adv-x="1165" d="M184 0v1456h901v-105h-778v-549h681v-104h-681v-594h783v-104h-906zM343 1579v13l238 255h76l241 -258v-10h-111l-168 183l-167 -183h-109z" />
<glyph unicode="&#xcb;" horiz-adv-x="1165" d="M184 0v1456h901v-105h-778v-549h681v-104h-681v-594h783v-104h-906zM326 1717q0 34 21.5 57.5t60.5 23.5q38 0 60.5 -23.5t22.5 -57.5q0 -33 -22.5 -56t-60.5 -23q-39 0 -60.5 23t-21.5 56zM763 1716q0 34 22 57.5t60 23.5q39 0 61 -23.5t22 -57.5q0 -33 -22 -56t-61 -23 q-38 0 -60 23t-22 56z" />
<glyph unicode="&#xcc;" horiz-adv-x="545" d="M13 1845h144l191 -279h-109zM211 0v1456h123v-1456h-123z" />
<glyph unicode="&#xcd;" horiz-adv-x="545" d="M202 1566l191 279h145l-231 -279h-105zM211 0v1456h123v-1456h-123z" />
<glyph unicode="&#xce;" horiz-adv-x="545" d="M-2 1579v13l238 255h76l241 -258v-10h-111l-168 183l-167 -183h-109zM211 0v1456h123v-1456h-123z" />
<glyph unicode="&#xcf;" horiz-adv-x="545" d="M-19 1717q0 34 21.5 57.5t60.5 23.5q38 0 60.5 -23.5t22.5 -57.5q0 -33 -22.5 -56t-60.5 -23q-39 0 -60.5 23t-21.5 56zM211 0v1456h123v-1456h-123zM418 1716q0 34 22 57.5t60 23.5q39 0 61 -23.5t22 -57.5q0 -33 -22 -56t-61 -23q-38 0 -60 23t-22 56z" />
<glyph unicode="&#xd0;" horiz-adv-x="1371" d="M63 689v102h151v665h407q136 0 250.5 -47t197 -134t128.5 -209t46 -272v-133q0 -150 -46 -272t-129 -208.5t-199 -133.5t-256 -47h-399v689h-151zM337 104h276q117 0 211 40.5t160 114t101.5 176t35.5 226.5v136q0 126 -36 228.5t-101.5 174.5t-157.5 111.5t-205 39.5 h-284v-560h338v-102h-338v-585z" />
<glyph unicode="&#xd1;" horiz-adv-x="1454" d="M184 0v1456h124l838 -1247v1247h122v-1456h-123l-837 1246v-1246h-124zM394 1591q0 48 15 87t41 67t62 43t77 15q48 0 82 -17t64 -38t60.5 -38t71.5 -17q46 0 78.5 33t32.5 89l89 -6q0 -48 -15 -87.5t-41.5 -67t-62 -43t-76.5 -15.5q-35 0 -61.5 8t-47.5 20.5t-39.5 26.5 t-38 26.5t-41.5 20.5t-50 8q-47 0 -78.5 -31t-31.5 -87z" />
<glyph unicode="&#xd2;" horiz-adv-x="1386" d="M125 649v156q0 153 41 277t115 211.5t178.5 135t232.5 47.5q129 0 234 -47.5t179.5 -135t114.5 -211.5t40 -277v-156q0 -153 -40 -276.5t-113.5 -210.5t-178.5 -134.5t-234 -47.5q-128 0 -232.5 47.5t-179.5 134.5t-116 210.5t-41 276.5zM248 649q0 -130 31 -234t89 -177 t140.5 -112t185.5 -39q106 0 188.5 39t139 112t86 177t29.5 234v158q0 129 -30 233t-87 176.5t-140 112t-188 39.5q-103 0 -185.5 -39.5t-140 -112t-88 -176.5t-30.5 -233v-158zM430 1851h144l191 -279h-109z" />
<glyph unicode="&#xd3;" horiz-adv-x="1386" d="M125 649v156q0 153 41 277t115 211.5t178.5 135t232.5 47.5q129 0 234 -47.5t179.5 -135t114.5 -211.5t40 -277v-156q0 -153 -40 -276.5t-113.5 -210.5t-178.5 -134.5t-234 -47.5q-128 0 -232.5 47.5t-179.5 134.5t-116 210.5t-41 276.5zM248 649q0 -130 31 -234t89 -177 t140.5 -112t185.5 -39q106 0 188.5 39t139 112t86 177t29.5 234v158q0 129 -30 233t-87 176.5t-140 112t-188 39.5q-103 0 -185.5 -39.5t-140 -112t-88 -176.5t-30.5 -233v-158zM620 1572l191 279h145l-231 -279h-105z" />
<glyph unicode="&#xd4;" horiz-adv-x="1386" d="M125 649v156q0 153 41 277t115 211.5t178.5 135t232.5 47.5q129 0 234 -47.5t179.5 -135t114.5 -211.5t40 -277v-156q0 -153 -40 -276.5t-113.5 -210.5t-178.5 -134.5t-234 -47.5q-128 0 -232.5 47.5t-179.5 134.5t-116 210.5t-41 276.5zM248 649q0 -130 31 -234t89 -177 t140.5 -112t185.5 -39q106 0 188.5 39t139 112t86 177t29.5 234v158q0 129 -30 233t-87 176.5t-140 112t-188 39.5q-103 0 -185.5 -39.5t-140 -112t-88 -176.5t-30.5 -233v-158zM415 1585v13l238 255h76l241 -258v-10h-111l-168 183l-167 -183h-109z" />
<glyph unicode="&#xd5;" horiz-adv-x="1386" d="M125 649v156q0 153 41 277t115 211.5t178.5 135t232.5 47.5q129 0 234 -47.5t179.5 -135t114.5 -211.5t40 -277v-156q0 -153 -40 -276.5t-113.5 -210.5t-178.5 -134.5t-234 -47.5q-128 0 -232.5 47.5t-179.5 134.5t-116 210.5t-41 276.5zM248 649q0 -130 31 -234t89 -177 t140.5 -112t185.5 -39q106 0 188.5 39t139 112t86 177t29.5 234v158q0 129 -30 233t-87 176.5t-140 112t-188 39.5q-103 0 -185.5 -39.5t-140 -112t-88 -176.5t-30.5 -233v-158zM359 1603q0 48 15 87t41 67t62 43t77 15q48 0 82 -17t64 -38t60.5 -38t71.5 -17q46 0 78.5 33 t32.5 89l89 -6q0 -48 -15 -87.5t-41.5 -67t-62 -43t-76.5 -15.5q-35 0 -61.5 8t-47.5 20.5t-39.5 26.5t-38 26.5t-41.5 20.5t-50 8q-47 0 -78.5 -31t-31.5 -87z" />
<glyph unicode="&#xd6;" horiz-adv-x="1386" d="M125 649v156q0 153 41 277t115 211.5t178.5 135t232.5 47.5q129 0 234 -47.5t179.5 -135t114.5 -211.5t40 -277v-156q0 -153 -40 -276.5t-113.5 -210.5t-178.5 -134.5t-234 -47.5q-128 0 -232.5 47.5t-179.5 134.5t-116 210.5t-41 276.5zM248 649q0 -130 31 -234t89 -177 t140.5 -112t185.5 -39q106 0 188.5 39t139 112t86 177t29.5 234v158q0 129 -30 233t-87 176.5t-140 112t-188 39.5q-103 0 -185.5 -39.5t-140 -112t-88 -176.5t-30.5 -233v-158zM398 1723q0 34 21.5 57.5t60.5 23.5q38 0 60.5 -23.5t22.5 -57.5q0 -33 -22.5 -56t-60.5 -23 q-39 0 -60.5 23t-21.5 56zM835 1722q0 34 22 57.5t60 23.5q39 0 61 -23.5t22 -57.5q0 -33 -22 -56t-61 -23q-38 0 -60 23t-22 56z" />
<glyph unicode="&#xd7;" horiz-adv-x="1072" d="M93 179l358 365l-343 350l79 80l342 -350l343 350l79 -80l-343 -350l358 -365l-79 -79l-358 364l-357 -364z" />
<glyph unicode="&#xd8;" horiz-adv-x="1386" d="M125 649v156q0 153 41 277t115 211.5t178.5 135t232.5 47.5q113 0 206.5 -36t165.5 -104l107 169h104l-150 -237q65 -87 100 -203.5t35 -259.5v-156q0 -153 -40 -276.5t-113.5 -210.5t-178.5 -134.5t-234 -47.5q-92 0 -172 24.5t-146 71.5l-101 -160h-104l137 218 q-88 88 -135.5 218t-47.5 297zM248 649q0 -133 31.5 -237t91.5 -178l631 1003q-57 63 -134.5 97t-175.5 34q-103 0 -185.5 -39.5t-140 -112t-88 -176.5t-30.5 -233v-158zM435 171q107 -84 259 -84q106 0 188.5 39t139 112t86 177t29.5 234v158q0 106 -20.5 194.5 t-59.5 157.5z" />
<glyph unicode="&#xd9;" horiz-adv-x="1346" d="M162 469v987h122v-987q0 -96 29 -168t81 -120t123.5 -72.5t156.5 -24.5t156.5 24.5t123 72.5t80.5 120t29 168v987h124v-987q0 -123 -40.5 -214.5t-110 -152.5t-163 -91.5t-199.5 -30.5q-109 0 -202.5 30.5t-162.5 91.5t-108 152.5t-39 214.5zM421 1839h144l191 -279 h-109z" />
<glyph unicode="&#xda;" horiz-adv-x="1346" d="M162 469v987h122v-987q0 -96 29 -168t81 -120t123.5 -72.5t156.5 -24.5t156.5 24.5t123 72.5t80.5 120t29 168v987h124v-987q0 -123 -40.5 -214.5t-110 -152.5t-163 -91.5t-199.5 -30.5q-109 0 -202.5 30.5t-162.5 91.5t-108 152.5t-39 214.5zM611 1560l191 279h145 l-231 -279h-105z" />
<glyph unicode="&#xdb;" horiz-adv-x="1346" d="M162 469v987h122v-987q0 -96 29 -168t81 -120t123.5 -72.5t156.5 -24.5t156.5 24.5t123 72.5t80.5 120t29 168v987h124v-987q0 -123 -40.5 -214.5t-110 -152.5t-163 -91.5t-199.5 -30.5q-109 0 -202.5 30.5t-162.5 91.5t-108 152.5t-39 214.5zM406 1573v13l238 255h76 l241 -258v-10h-111l-168 183l-167 -183h-109z" />
<glyph unicode="&#xdc;" horiz-adv-x="1346" d="M162 469v987h122v-987q0 -96 29 -168t81 -120t123.5 -72.5t156.5 -24.5t156.5 24.5t123 72.5t80.5 120t29 168v987h124v-987q0 -123 -40.5 -214.5t-110 -152.5t-163 -91.5t-199.5 -30.5q-109 0 -202.5 30.5t-162.5 91.5t-108 152.5t-39 214.5zM389 1711q0 34 21.5 57.5 t60.5 23.5q38 0 60.5 -23.5t22.5 -57.5q0 -33 -22.5 -56t-60.5 -23q-39 0 -60.5 23t-21.5 56zM826 1710q0 34 22 57.5t60 23.5q39 0 61 -23.5t22 -57.5q0 -33 -22 -56t-61 -23q-38 0 -60 23t-22 56z" />
<glyph unicode="&#xdd;" horiz-adv-x="1226" d="M24 1456h146l441 -794l445 794h142l-526 -908v-548h-123v548zM541 1554l191 279h145l-231 -279h-105z" />
<glyph unicode="&#xde;" horiz-adv-x="1214" d="M183 0v1456h120v-304h324q114 0 201.5 -31t147 -86.5t90 -131.5t30.5 -165q0 -90 -30.5 -165.5t-90 -131t-147 -86.5t-201.5 -31h-324v-324h-120zM303 425h324q93 0 159 27.5t108.5 71.5t62 99.5t19.5 112.5q0 58 -19.5 115t-62 101t-108.5 71.5t-159 27.5h-324v-626z " />
<glyph unicode="&#xdf;" horiz-adv-x="1200" d="M151 0v1127q0 102 25 180t72 130.5t113.5 79.5t150.5 27q70 0 133 -20t109.5 -59t74 -96t27.5 -132q0 -50 -9 -88t-23 -69.5t-29.5 -59.5t-29.5 -57t-23 -62.5t-9 -76.5q0 -49 27 -88t67 -74.5t87.5 -70.5t87.5 -76t67 -92t27 -117q0 -81 -31.5 -142t-84 -102 t-120.5 -61.5t-140 -20.5q-42 0 -88 6.5t-87.5 17.5t-76 25.5t-54.5 30.5l34 101q18 -14 47 -28t63.5 -26t72.5 -19.5t75 -7.5q64 0 114.5 18t85 49t52.5 72t18 87q0 53 -27 94t-67 77.5t-87.5 71t-87.5 75t-67 89t-27 113.5q0 46 9.5 82t23.5 67t30 59.5t30 58t23.5 62.5 t9.5 75q0 48 -17.5 87.5t-47.5 67t-69.5 42.5t-82.5 15q-58 0 -104.5 -17.5t-79 -56t-50 -98t-17.5 -143.5v-1127h-120z" />
<glyph unicode="&#xe0;" horiz-adv-x="1097" d="M100 287q0 79 34 142.5t98 108t155.5 68t205.5 23.5h222v123q0 116 -71.5 182.5t-208.5 66.5q-63 0 -116 -17t-91.5 -47t-60 -69.5t-21.5 -84.5l-120 1q0 61 30 118t84.5 101.5t131 71.5t169.5 27q86 0 158.5 -22t124.5 -66t81 -110t29 -154v-524q0 -28 2 -58t6.5 -58 t10.5 -53.5t14 -44.5v-12h-128q-10 28 -15.5 68.5t-7.5 82.5q-27 -35 -64 -66t-83 -54t-101 -37t-119 -14q-79 0 -143.5 23t-110 64.5t-70.5 97.5t-25 122zM220 297q0 -44 17 -82.5t48.5 -67t76.5 -45t101 -16.5q65 0 120.5 16.5t100.5 45.5t78 67.5t53 83.5v238h-205 q-92 0 -164.5 -16.5t-122.5 -47.5t-76.5 -75.5t-26.5 -100.5zM318 1524h144l191 -279h-109z" />
<glyph unicode="&#xe1;" horiz-adv-x="1097" d="M100 287q0 79 34 142.5t98 108t155.5 68t205.5 23.5h222v123q0 116 -71.5 182.5t-208.5 66.5q-63 0 -116 -17t-91.5 -47t-60 -69.5t-21.5 -84.5l-120 1q0 61 30 118t84.5 101.5t131 71.5t169.5 27q86 0 158.5 -22t124.5 -66t81 -110t29 -154v-524q0 -28 2 -58t6.5 -58 t10.5 -53.5t14 -44.5v-12h-128q-10 28 -15.5 68.5t-7.5 82.5q-27 -35 -64 -66t-83 -54t-101 -37t-119 -14q-79 0 -143.5 23t-110 64.5t-70.5 97.5t-25 122zM220 297q0 -44 17 -82.5t48.5 -67t76.5 -45t101 -16.5q65 0 120.5 16.5t100.5 45.5t78 67.5t53 83.5v238h-205 q-92 0 -164.5 -16.5t-122.5 -47.5t-76.5 -75.5t-26.5 -100.5zM508 1245l191 279h145l-231 -279h-105z" />
<glyph unicode="&#xe2;" horiz-adv-x="1097" d="M100 287q0 79 34 142.5t98 108t155.5 68t205.5 23.5h222v123q0 116 -71.5 182.5t-208.5 66.5q-63 0 -116 -17t-91.5 -47t-60 -69.5t-21.5 -84.5l-120 1q0 61 30 118t84.5 101.5t131 71.5t169.5 27q86 0 158.5 -22t124.5 -66t81 -110t29 -154v-524q0 -28 2 -58t6.5 -58 t10.5 -53.5t14 -44.5v-12h-128q-10 28 -15.5 68.5t-7.5 82.5q-27 -35 -64 -66t-83 -54t-101 -37t-119 -14q-79 0 -143.5 23t-110 64.5t-70.5 97.5t-25 122zM220 297q0 -44 17 -82.5t48.5 -67t76.5 -45t101 -16.5q65 0 120.5 16.5t100.5 45.5t78 67.5t53 83.5v238h-205 q-92 0 -164.5 -16.5t-122.5 -47.5t-76.5 -75.5t-26.5 -100.5zM303 1258v13l238 255h76l241 -258v-10h-111l-168 183l-167 -183h-109z" />
<glyph unicode="&#xe3;" horiz-adv-x="1097" d="M100 287q0 79 34 142.5t98 108t155.5 68t205.5 23.5h222v123q0 116 -71.5 182.5t-208.5 66.5q-63 0 -116 -17t-91.5 -47t-60 -69.5t-21.5 -84.5l-120 1q0 61 30 118t84.5 101.5t131 71.5t169.5 27q86 0 158.5 -22t124.5 -66t81 -110t29 -154v-524q0 -28 2 -58t6.5 -58 t10.5 -53.5t14 -44.5v-12h-128q-10 28 -15.5 68.5t-7.5 82.5q-27 -35 -64 -66t-83 -54t-101 -37t-119 -14q-79 0 -143.5 23t-110 64.5t-70.5 97.5t-25 122zM220 297q0 -44 17 -82.5t48.5 -67t76.5 -45t101 -16.5q65 0 120.5 16.5t100.5 45.5t78 67.5t53 83.5v238h-205 q-92 0 -164.5 -16.5t-122.5 -47.5t-76.5 -75.5t-26.5 -100.5zM247 1276q0 48 15 87t41 67t62 43t77 15q48 0 82 -17t64 -38t60.5 -38t71.5 -17q46 0 78.5 33t32.5 89l89 -6q0 -48 -15 -87.5t-41.5 -67t-62 -43t-76.5 -15.5q-35 0 -61.5 8t-47.5 20.5t-39.5 26.5t-38 26.5 t-41.5 20.5t-50 8q-47 0 -78.5 -31t-31.5 -87z" />
<glyph unicode="&#xe4;" horiz-adv-x="1097" d="M100 287q0 79 34 142.5t98 108t155.5 68t205.5 23.5h222v123q0 116 -71.5 182.5t-208.5 66.5q-63 0 -116 -17t-91.5 -47t-60 -69.5t-21.5 -84.5l-120 1q0 61 30 118t84.5 101.5t131 71.5t169.5 27q86 0 158.5 -22t124.5 -66t81 -110t29 -154v-524q0 -28 2 -58t6.5 -58 t10.5 -53.5t14 -44.5v-12h-128q-10 28 -15.5 68.5t-7.5 82.5q-27 -35 -64 -66t-83 -54t-101 -37t-119 -14q-79 0 -143.5 23t-110 64.5t-70.5 97.5t-25 122zM220 297q0 -44 17 -82.5t48.5 -67t76.5 -45t101 -16.5q65 0 120.5 16.5t100.5 45.5t78 67.5t53 83.5v238h-205 q-92 0 -164.5 -16.5t-122.5 -47.5t-76.5 -75.5t-26.5 -100.5zM286 1396q0 34 21.5 57.5t60.5 23.5q38 0 60.5 -23.5t22.5 -57.5q0 -33 -22.5 -56t-60.5 -23q-39 0 -60.5 23t-21.5 56zM723 1395q0 34 22 57.5t60 23.5q39 0 61 -23.5t22 -57.5q0 -33 -22 -56t-61 -23 q-38 0 -60 23t-22 56z" />
<glyph unicode="&#xe5;" horiz-adv-x="1097" d="M100 287q0 79 34 142.5t98 108t155.5 68t205.5 23.5h222v123q0 116 -71.5 182.5t-208.5 66.5q-63 0 -116 -17t-91.5 -47t-60 -69.5t-21.5 -84.5l-120 1q0 61 30 118t84.5 101.5t131 71.5t169.5 27q86 0 158.5 -22t124.5 -66t81 -110t29 -154v-524q0 -28 2 -58t6.5 -58 t10.5 -53.5t14 -44.5v-12h-128q-10 28 -15.5 68.5t-7.5 82.5q-27 -35 -64 -66t-83 -54t-101 -37t-119 -14q-79 0 -143.5 23t-110 64.5t-70.5 97.5t-25 122zM220 297q0 -44 17 -82.5t48.5 -67t76.5 -45t101 -16.5q65 0 120.5 16.5t100.5 45.5t78 67.5t53 83.5v238h-205 q-92 0 -164.5 -16.5t-122.5 -47.5t-76.5 -75.5t-26.5 -100.5zM387 1400q0 40 15 74.5t41 60t61 40.5t76 15q40 0 75.5 -15t61.5 -40.5t41 -60t15 -74.5t-15 -74.5t-41 -59.5t-61.5 -39t-75.5 -14q-41 0 -76 14t-61 39t-41 59.5t-15 74.5zM464 1400q0 -24 8.5 -45.5t24 -37 t36.5 -24.5t47 -9q25 0 46.5 9t37.5 24.5t24.5 37t8.5 45.5q0 25 -8.5 46.5t-24.5 37.5t-37.5 25.5t-46.5 9.5q-26 0 -47 -9.5t-36.5 -25.5t-24 -37.5t-8.5 -46.5z" />
<glyph unicode="&#xe6;" horiz-adv-x="1732" d="M85 293q0 78 28 140.5t83.5 107t137.5 68t190 23.5h257v88q0 132 -63.5 206t-189.5 74q-69 0 -124 -18.5t-93.5 -50t-58.5 -74.5t-20 -92l-119 13q0 70 29.5 129.5t84 102.5t131 67.5t170.5 24.5q125 0 213.5 -53.5t128.5 -159.5q60 100 154.5 156.5t210.5 56.5 q101 0 180 -32.5t133 -92.5t82 -146t28 -193v-100h-757v-29q0 -89 21 -167t65.5 -136t113 -91.5t164.5 -33.5q56 0 103.5 10t87.5 26.5t73 37.5t60 44l47 -87q-22 -20 -54 -43.5t-77 -43t-104.5 -32.5t-135.5 -13q-139 0 -238.5 54.5t-159.5 151.5q-22 -36 -59 -73 t-90.5 -66.5t-122.5 -48t-155 -18.5t-152 22t-111 63t-68.5 99t-23.5 129zM206 289q0 -47 16 -85.5t47.5 -66t78.5 -42.5t110 -15q52 0 101.5 14t92.5 36.5t76.5 50.5t52.5 55v300h-255q-81 0 -141 -20t-100 -54t-59.5 -79t-19.5 -94zM904 636h635v31q0 69 -18 129.5 t-55.5 106t-95 71.5t-135.5 26q-71 0 -128.5 -28t-99.5 -76.5t-68 -115t-35 -144.5z" />
<glyph unicode="&#xe7;" horiz-adv-x="1055" d="M94 520v42q0 114 29.5 212.5t87.5 171t144.5 114.5t199.5 42q87 0 161.5 -27t130 -77t88.5 -121.5t37 -159.5h-115q-4 66 -28.5 118t-65 89t-94 56.5t-114.5 19.5q-93 0 -157.5 -36t-105.5 -97t-59.5 -140t-18.5 -165v-42q0 -87 18.5 -166.5t59 -140t106 -96.5t158.5 -36 q57 0 109.5 16.5t93.5 48.5t67.5 79t30.5 109h115q-4 -77 -38.5 -142t-91 -112t-130.5 -73.5t-156 -26.5q-114 0 -200 41.5t-144.5 114.5t-88 171.5t-29.5 212.5zM441 -366q37 0 73.5 7t65 21.5t46 37t17.5 54.5q0 58 -43.5 80t-132.5 30l29 127h93l-12 -64 q31 -4 60.5 -14.5t53 -30.5t37.5 -51t14 -75q0 -45 -19.5 -81.5t-57 -63t-92.5 -41t-125 -14.5z" />
<glyph unicode="&#xe8;" horiz-adv-x="1058" d="M90 510v43q0 125 37.5 226.5t101.5 173t147.5 110.5t176.5 39q103 0 183 -37t134.5 -103t82.5 -157t28 -199v-73h-772v-23q0 -89 27 -167.5t76 -136.5t117 -91.5t151 -33.5q96 0 169.5 35t133.5 112l75 -57q-27 -39 -62.5 -74t-82.5 -61t-106 -41t-132 -15 q-106 0 -195 39.5t-153.5 110t-100.5 167.5t-36 213zM213 635h649v13q-2 68 -22 131.5t-58.5 112.5t-95.5 78.5t-133 29.5q-68 0 -126 -26t-102.5 -74t-73 -115.5t-38.5 -149.5zM305 1524h144l191 -279h-109z" />
<glyph unicode="&#xe9;" horiz-adv-x="1058" d="M90 510v43q0 125 37.5 226.5t101.5 173t147.5 110.5t176.5 39q103 0 183 -37t134.5 -103t82.5 -157t28 -199v-73h-772v-23q0 -89 27 -167.5t76 -136.5t117 -91.5t151 -33.5q96 0 169.5 35t133.5 112l75 -57q-27 -39 -62.5 -74t-82.5 -61t-106 -41t-132 -15 q-106 0 -195 39.5t-153.5 110t-100.5 167.5t-36 213zM213 635h649v13q-2 68 -22 131.5t-58.5 112.5t-95.5 78.5t-133 29.5q-68 0 -126 -26t-102.5 -74t-73 -115.5t-38.5 -149.5zM495 1245l191 279h145l-231 -279h-105z" />
<glyph unicode="&#xea;" horiz-adv-x="1058" d="M90 510v43q0 125 37.5 226.5t101.5 173t147.5 110.5t176.5 39q103 0 183 -37t134.5 -103t82.5 -157t28 -199v-73h-772v-23q0 -89 27 -167.5t76 -136.5t117 -91.5t151 -33.5q96 0 169.5 35t133.5 112l75 -57q-27 -39 -62.5 -74t-82.5 -61t-106 -41t-132 -15 q-106 0 -195 39.5t-153.5 110t-100.5 167.5t-36 213zM213 635h649v13q-2 68 -22 131.5t-58.5 112.5t-95.5 78.5t-133 29.5q-68 0 -126 -26t-102.5 -74t-73 -115.5t-38.5 -149.5zM290 1258v13l238 255h76l241 -258v-10h-111l-168 183l-167 -183h-109z" />
<glyph unicode="&#xeb;" horiz-adv-x="1058" d="M90 510v43q0 125 37.5 226.5t101.5 173t147.5 110.5t176.5 39q103 0 183 -37t134.5 -103t82.5 -157t28 -199v-73h-772v-23q0 -89 27 -167.5t76 -136.5t117 -91.5t151 -33.5q96 0 169.5 35t133.5 112l75 -57q-27 -39 -62.5 -74t-82.5 -61t-106 -41t-132 -15 q-106 0 -195 39.5t-153.5 110t-100.5 167.5t-36 213zM213 635h649v13q-2 68 -22 131.5t-58.5 112.5t-95.5 78.5t-133 29.5q-68 0 -126 -26t-102.5 -74t-73 -115.5t-38.5 -149.5zM273 1396q0 34 21.5 57.5t60.5 23.5q38 0 60.5 -23.5t22.5 -57.5q0 -33 -22.5 -56t-60.5 -23 q-39 0 -60.5 23t-21.5 56zM710 1395q0 34 22 57.5t60 23.5q39 0 61 -23.5t22 -57.5q0 -33 -22 -56t-61 -23q-38 0 -60 23t-22 56z" />
<glyph unicode="&#xec;" horiz-adv-x="456" d="M-30 1512h144l191 -279h-109zM168 0v1082h120v-1082h-120z" />
<glyph unicode="&#xed;" horiz-adv-x="456" d="M159 1233l191 279h145l-231 -279h-105zM168 0v1082h120v-1082h-120z" />
<glyph unicode="&#xee;" horiz-adv-x="456" d="M-45 1246v13l238 255h76l241 -258v-10h-111l-168 183l-167 -183h-109zM168 0v1082h120v-1082h-120z" />
<glyph unicode="&#xef;" horiz-adv-x="456" d="M-62 1384q0 34 21.5 57.5t60.5 23.5q38 0 60.5 -23.5t22.5 -57.5q0 -33 -22.5 -56t-60.5 -23q-39 0 -60.5 23t-21.5 56zM168 0v1082h120v-1082h-120zM375 1383q0 34 22 57.5t60 23.5q39 0 61 -23.5t22 -57.5q0 -33 -22 -56t-61 -23q-38 0 -60 23t-22 56z" />
<glyph unicode="&#xf0;" horiz-adv-x="1191" d="M149 466q0 116 31.5 208.5t89 157t138 99t179.5 34.5q100 0 186.5 -38.5t145.5 -105.5q-23 137 -77.5 239t-132.5 180l-225 -139l-51 73l206 128q-75 58 -161.5 100t-181.5 73l39 103q242 -72 409 -212l194 121l51 -73l-178 -111q119 -125 181.5 -293.5t62.5 -386.5v-88 q0 -123 -33 -225.5t-91.5 -175.5t-139 -113.5t-176.5 -40.5q-103 0 -188.5 37.5t-147 103.5t-96 154.5t-34.5 190.5zM269 466q0 -71 23 -140t67.5 -123t110 -87t149.5 -33q73 0 131.5 34t99.5 94t63 143t22 181v90q0 14 -0.5 28.5t-1.5 28.5q-16 34 -44 66t-68 57t-93 40.5 t-119 15.5q-86 0 -150 -29.5t-106 -82t-63 -125t-21 -158.5z" />
<glyph unicode="&#xf1;" horiz-adv-x="1125" d="M156 0v1082h114l4 -185q28 46 64.5 84t81.5 65t97 41.5t110 14.5q81 0 145 -22t108.5 -70t68 -123.5t23.5 -182.5v-704h-119v705q0 84 -18 140t-51 90t-80.5 48.5t-105.5 14.5q-64 0 -116 -21.5t-92 -57.5t-69 -82.5t-46 -95.5v-741h-119zM243 1275q0 48 15 87t41 67 t62 43t77 15q48 0 82 -17t64 -38t60.5 -38t71.5 -17q46 0 78.5 33t32.5 89l89 -6q0 -48 -15 -87.5t-41.5 -67t-62 -43t-76.5 -15.5q-35 0 -61.5 8t-47.5 20.5t-39.5 26.5t-38 26.5t-41.5 20.5t-50 8q-47 0 -78.5 -31t-31.5 -87z" />
<glyph unicode="&#xf2;" horiz-adv-x="1147" d="M90 524v33q0 118 34.5 218t97.5 172.5t152 113.5t198 41q111 0 200.5 -41t152.5 -113.5t97 -172.5t34 -218v-33q0 -118 -34 -218t-97 -172.5t-152 -113t-199 -40.5t-199 40.5t-152.5 113t-98 172.5t-34.5 218zM210 524q0 -89 24 -169.5t70 -141t114 -96.5t156 -36 t155.5 36t113.5 96.5t70 141t24 169.5v33q0 87 -24 167.5t-70 141.5t-114.5 97.5t-156.5 36.5q-87 0 -154.5 -36.5t-113.5 -97.5t-70 -141.5t-24 -167.5v-33zM319 1524h144l191 -279h-109z" />
<glyph unicode="&#xf3;" horiz-adv-x="1147" d="M90 524v33q0 118 34.5 218t97.5 172.5t152 113.5t198 41q111 0 200.5 -41t152.5 -113.5t97 -172.5t34 -218v-33q0 -118 -34 -218t-97 -172.5t-152 -113t-199 -40.5t-199 40.5t-152.5 113t-98 172.5t-34.5 218zM210 524q0 -89 24 -169.5t70 -141t114 -96.5t156 -36 t155.5 36t113.5 96.5t70 141t24 169.5v33q0 87 -24 167.5t-70 141.5t-114.5 97.5t-156.5 36.5q-87 0 -154.5 -36.5t-113.5 -97.5t-70 -141.5t-24 -167.5v-33zM509 1245l191 279h145l-231 -279h-105z" />
<glyph unicode="&#xf4;" horiz-adv-x="1147" d="M90 524v33q0 118 34.5 218t97.5 172.5t152 113.5t198 41q111 0 200.5 -41t152.5 -113.5t97 -172.5t34 -218v-33q0 -118 -34 -218t-97 -172.5t-152 -113t-199 -40.5t-199 40.5t-152.5 113t-98 172.5t-34.5 218zM210 524q0 -89 24 -169.5t70 -141t114 -96.5t156 -36 t155.5 36t113.5 96.5t70 141t24 169.5v33q0 87 -24 167.5t-70 141.5t-114.5 97.5t-156.5 36.5q-87 0 -154.5 -36.5t-113.5 -97.5t-70 -141.5t-24 -167.5v-33zM304 1258v13l238 255h76l241 -258v-10h-111l-168 183l-167 -183h-109z" />
<glyph unicode="&#xf5;" horiz-adv-x="1147" d="M90 524v33q0 118 34.5 218t97.5 172.5t152 113.5t198 41q111 0 200.5 -41t152.5 -113.5t97 -172.5t34 -218v-33q0 -118 -34 -218t-97 -172.5t-152 -113t-199 -40.5t-199 40.5t-152.5 113t-98 172.5t-34.5 218zM210 524q0 -89 24 -169.5t70 -141t114 -96.5t156 -36 t155.5 36t113.5 96.5t70 141t24 169.5v33q0 87 -24 167.5t-70 141.5t-114.5 97.5t-156.5 36.5q-87 0 -154.5 -36.5t-113.5 -97.5t-70 -141.5t-24 -167.5v-33zM248 1275q0 48 15 87t41 67t62 43t77 15q48 0 82 -17t64 -38t60.5 -38t71.5 -17q46 0 78.5 33t32.5 89l89 -6 q0 -48 -15 -87.5t-41.5 -67t-62 -43t-76.5 -15.5q-35 0 -61.5 8t-47.5 20.5t-39.5 26.5t-38 26.5t-41.5 20.5t-50 8q-47 0 -78.5 -31t-31.5 -87z" />
<glyph unicode="&#xf6;" horiz-adv-x="1147" d="M90 524v33q0 118 34.5 218t97.5 172.5t152 113.5t198 41q111 0 200.5 -41t152.5 -113.5t97 -172.5t34 -218v-33q0 -118 -34 -218t-97 -172.5t-152 -113t-199 -40.5t-199 40.5t-152.5 113t-98 172.5t-34.5 218zM210 524q0 -89 24 -169.5t70 -141t114 -96.5t156 -36 t155.5 36t113.5 96.5t70 141t24 169.5v33q0 87 -24 167.5t-70 141.5t-114.5 97.5t-156.5 36.5q-87 0 -154.5 -36.5t-113.5 -97.5t-70 -141.5t-24 -167.5v-33zM287 1396q0 34 21.5 57.5t60.5 23.5q38 0 60.5 -23.5t22.5 -57.5q0 -33 -22.5 -56t-60.5 -23q-39 0 -60.5 23 t-21.5 56zM724 1395q0 34 22 57.5t60 23.5q39 0 61 -23.5t22 -57.5q0 -33 -22 -56t-61 -23q-38 0 -60 23t-22 56z" />
<glyph unicode="&#xf7;" horiz-adv-x="1164" d="M72 644v116h998v-116h-998zM495 291q0 35 22 59t62 24t63 -24t23 -59t-23 -58t-63 -23t-62 23t-22 58zM495 1088q0 35 22 59t62 24t63 -24t23 -59t-23 -58.5t-63 -23.5t-62 23.5t-22 58.5z" />
<glyph unicode="&#xf8;" horiz-adv-x="1141" d="M88 524v33q0 118 34.5 218t97.5 172.5t152 113.5t198 41q60 0 113.5 -12.5t101.5 -35.5l79 160h93l-100 -205q94 -72 145.5 -188.5t51.5 -263.5v-33q0 -118 -34 -218t-97 -172.5t-152 -113t-199 -40.5q-109 0 -200 40l-78 -160h-93l99 202q-101 70 -156.5 190t-55.5 272z M208 524q0 -110 36 -205t105 -157l389 795q-36 20 -78 31.5t-90 11.5q-87 0 -154.5 -36.5t-113.5 -97.5t-70 -141.5t-24 -167.5v-33zM419 115q68 -34 153 -34q88 0 155.5 36t113.5 96.5t70 141t24 169.5v33q0 103 -33 194t-96 154z" />
<glyph unicode="&#xf9;" horiz-adv-x="1125" d="M152 389v693h119v-695q0 -87 20 -145t54 -93t79.5 -50t96.5 -15q72 0 127 16t95 45t66 68t41 86v783h120v-1082h-116l-2 137q-51 -74 -135.5 -115.5t-209.5 -41.5q-80 0 -145 22.5t-112 71.5t-72.5 126.5t-25.5 188.5zM312 1524h144l191 -279h-109z" />
<glyph unicode="&#xfa;" horiz-adv-x="1125" d="M152 389v693h119v-695q0 -87 20 -145t54 -93t79.5 -50t96.5 -15q72 0 127 16t95 45t66 68t41 86v783h120v-1082h-116l-2 137q-51 -74 -135.5 -115.5t-209.5 -41.5q-80 0 -145 22.5t-112 71.5t-72.5 126.5t-25.5 188.5zM502 1245l191 279h145l-231 -279h-105z" />
<glyph unicode="&#xfb;" horiz-adv-x="1125" d="M152 389v693h119v-695q0 -87 20 -145t54 -93t79.5 -50t96.5 -15q72 0 127 16t95 45t66 68t41 86v783h120v-1082h-116l-2 137q-51 -74 -135.5 -115.5t-209.5 -41.5q-80 0 -145 22.5t-112 71.5t-72.5 126.5t-25.5 188.5zM297 1258v13l238 255h76l241 -258v-10h-111 l-168 183l-167 -183h-109z" />
<glyph unicode="&#xfc;" horiz-adv-x="1125" d="M152 389v693h119v-695q0 -87 20 -145t54 -93t79.5 -50t96.5 -15q72 0 127 16t95 45t66 68t41 86v783h120v-1082h-116l-2 137q-51 -74 -135.5 -115.5t-209.5 -41.5q-80 0 -145 22.5t-112 71.5t-72.5 126.5t-25.5 188.5zM280 1396q0 34 21.5 57.5t60.5 23.5 q38 0 60.5 -23.5t22.5 -57.5q0 -33 -22.5 -56t-60.5 -23q-39 0 -60.5 23t-21.5 56zM717 1395q0 34 22 57.5t60 23.5q39 0 61 -23.5t22 -57.5q0 -33 -22 -56t-61 -23q-38 0 -60 23t-22 56z" />
<glyph unicode="&#xfd;" horiz-adv-x="973" d="M32 1082h131l336 -910l316 910h129l-458 -1255q-14 -37 -35.5 -83t-56 -86t-86 -67.5t-125.5 -27.5q-10 0 -23 1.5t-26 3.5t-24.5 4.5t-18.5 4.5l-1 99q12 -2 32.5 -4t29.5 -2q48 0 85 12.5t64.5 37t48.5 61.5t38 85l52 143zM442 1245l191 279h145l-231 -279h-105z" />
<glyph unicode="&#xfe;" horiz-adv-x="1151" d="M159 -416v1952h120v-603q55 80 138 124.5t198 44.5q99 0 176.5 -39t130.5 -111t80.5 -173.5t27.5 -227.5v-21q0 -122 -27.5 -223t-80.5 -173.5t-129.5 -113t-174.5 -40.5q-115 0 -199.5 41t-139.5 113v-134h-1v-416h-119zM279 270q20 -41 48.5 -75.5t66.5 -60t87 -39.5 t109 -14q82 0 142 34.5t99.5 95t59 142.5t19.5 177v21q0 94 -19.5 176t-59 142t-100.5 94.5t-143 34.5q-64 0 -114 -17t-87.5 -45t-63.5 -65.5t-44 -77.5v-523z" />
<glyph unicode="&#xff;" horiz-adv-x="973" d="M32 1082h131l336 -910l316 910h129l-458 -1255q-14 -37 -35.5 -83t-56 -86t-86 -67.5t-125.5 -27.5q-10 0 -23 1.5t-26 3.5t-24.5 4.5t-18.5 4.5l-1 99q12 -2 32.5 -4t29.5 -2q48 0 85 12.5t64.5 37t48.5 61.5t38 85l52 143zM220 1396q0 34 21.5 57.5t60.5 23.5 q38 0 60.5 -23.5t22.5 -57.5q0 -33 -22.5 -56t-60.5 -23q-39 0 -60.5 23t-21.5 56zM657 1395q0 34 22 57.5t60 23.5q39 0 61 -23.5t22 -57.5q0 -33 -22 -56t-61 -23q-38 0 -60 23t-22 56z" />
<glyph unicode="&#x152;" horiz-adv-x="1913" d="M108 576v304q0 132 39 242t109.5 188.5t169.5 122t218 43.5q83 0 162 -6t151 -14h839v-105h-778v-549h681v-104h-681v-594h783v-104h-844q-72 -8 -150 -14.5t-161 -6.5q-119 0 -218 43.5t-170 122.5t-110.5 189t-39.5 242zM228 576q0 -114 29.5 -205.5t84 -156t132 -99 t172.5 -34.5q63 0 127 3t122 11v1266q-59 7 -122 10.5t-129 3.5q-95 0 -172 -34t-131 -97.5t-83.5 -155t-29.5 -206.5v-306z" />
<glyph unicode="&#x153;" horiz-adv-x="1892" d="M94 524v33q0 118 34 218t96 172.5t150.5 113.5t197.5 41q75 0 139.5 -19t118.5 -54.5t95.5 -86t70.5 -112.5q30 63 72 113t94 85.5t111 54.5t123 19q100 0 179.5 -33t134.5 -93.5t84 -146t29 -189.5v-102h-764v-29q0 -89 25 -167t71 -136t111 -91.5t145 -33.5 q118 0 195.5 32.5t129.5 86.5l52 -82q-28 -29 -64.5 -54.5t-83 -44t-103.5 -29t-126 -10.5t-132 19t-116 53.5t-96 84t-72 111.5q-29 -62 -70.5 -111.5t-94.5 -84t-117.5 -53.5t-138.5 -19q-110 0 -198.5 40.5t-151 113t-96.5 172.5t-34 218zM214 524q0 -89 23 -169.5 t68.5 -141t112.5 -96.5t156 -36q87 0 154 36t112 96.5t68 141t23 169.5v33q0 87 -23 167.5t-68.5 141.5t-112.5 97.5t-155 36.5t-155 -36.5t-112 -97.5t-68 -141.5t-23 -167.5v-33zM1063 639h640v30q0 68 -20.5 128.5t-59.5 105.5t-96.5 71t-130.5 26q-68 0 -124.5 -27.5 t-100 -76t-71.5 -114.5t-37 -143z" />
<glyph unicode="&#x178;" horiz-adv-x="1226" d="M24 1456h146l441 -794l445 794h142l-526 -908v-548h-123v548zM319 1705q0 34 21.5 57.5t60.5 23.5q38 0 60.5 -23.5t22.5 -57.5q0 -33 -22.5 -56t-60.5 -23q-39 0 -60.5 23t-21.5 56zM756 1704q0 34 22 57.5t60 23.5q39 0 61 -23.5t22 -57.5q0 -33 -22 -56t-61 -23 q-38 0 -60 23t-22 56z" />
<glyph unicode="&#x2c6;" horiz-adv-x="880" d="M160 1258v13l238 255h76l241 -258v-10h-111l-168 183l-167 -183h-109z" />
<glyph unicode="&#x2dc;" horiz-adv-x="891" d="M106 1267q0 48 15 87t41 67t62 43t77 15q48 0 82 -17t64 -38t60.5 -38t71.5 -17q46 0 78.5 33t32.5 89l89 -6q0 -48 -15 -87.5t-41.5 -67t-62 -43t-76.5 -15.5q-35 0 -61.5 8t-47.5 20.5t-39.5 26.5t-38 26.5t-41.5 20.5t-50 8q-47 0 -78.5 -31t-31.5 -87z" />
<glyph unicode="&#x2000;" horiz-adv-x="952" />
<glyph unicode="&#x2001;" horiz-adv-x="1905" />
<glyph unicode="&#x2002;" horiz-adv-x="952" />
<glyph unicode="&#x2003;" horiz-adv-x="1905" />
<glyph unicode="&#x2004;" horiz-adv-x="635" />
<glyph unicode="&#x2005;" horiz-adv-x="476" />
<glyph unicode="&#x2006;" horiz-adv-x="317" />
<glyph unicode="&#x2007;" horiz-adv-x="317" />
<glyph unicode="&#x2008;" horiz-adv-x="238" />
<glyph unicode="&#x2009;" horiz-adv-x="381" />
<glyph unicode="&#x200a;" horiz-adv-x="105" />
<glyph unicode="&#x2010;" horiz-adv-x="586" d="M49 592v101h479v-101h-479z" />
<glyph unicode="&#x2011;" horiz-adv-x="586" d="M49 592v101h479v-101h-479z" />
<glyph unicode="&#x2012;" horiz-adv-x="586" d="M49 592v101h479v-101h-479z" />
<glyph unicode="&#x2013;" horiz-adv-x="1334" d="M151 686v102h1002v-102h-1002z" />
<glyph unicode="&#x2014;" horiz-adv-x="1580" d="M43 686v102h1336v-102h-1336z" />
<glyph unicode="&#x2018;" horiz-adv-x="364" d="M98 1121v112q0 92 37.5 177t102.5 144l72 -51q-47 -62 -70 -125t-23 -142v-115h-119z" />
<glyph unicode="&#x2019;" horiz-adv-x="364" d="M62 1151q23 31 40.5 62t29 63t17.5 67t6 75v118h118v-116q0 -92 -37 -176.5t-103 -144.5z" />
<glyph unicode="&#x201a;" horiz-adv-x="353" d="M41 -179q46 62 69 124.5t23 141.5v118h119v-116q0 -45 -9.5 -90t-27.5 -86t-44 -77.5t-59 -66.5z" />
<glyph unicode="&#x201c;" horiz-adv-x="612" d="M99 1121v112q0 92 37.5 177t102.5 144l72 -51q-47 -62 -70 -125t-23 -142v-115h-119zM350 1121v112q0 92 37.5 177t102.5 144l72 -51q-47 -62 -70 -125t-23 -142v-115h-119z" />
<glyph unicode="&#x201d;" horiz-adv-x="617" d="M68 1151q23 31 40.5 62t29 63t17.5 67t6 75v118h118v-116q0 -92 -37 -176.5t-103 -144.5zM312 1151q23 31 40.5 62t29 63t17.5 67t6 75v118h118v-116q0 -92 -37 -176.5t-103 -144.5z" />
<glyph unicode="&#x201e;" horiz-adv-x="593" d="M41 -188q46 64 69 129t23 146v149h119v-147q0 -94 -37 -181t-103 -148zM275 -188q46 64 68.5 129t22.5 146v149h120v-147q0 -94 -37 -181t-103 -148z" />
<glyph unicode="&#x2022;" horiz-adv-x="662" d="M146 717v65q0 39 13 72t37 56.5t58.5 37t76.5 13.5q43 0 77.5 -13.5t58.5 -37.5t37 -56.5t13 -71.5v-65q0 -39 -12.5 -71.5t-36.5 -56t-58.5 -36.5t-77.5 -13t-77.5 13t-58.5 36.5t-37 56t-13 71.5z" />
<glyph unicode="&#x2026;" horiz-adv-x="1313" d="M166 72q0 35 22.5 59.5t62.5 24.5t63 -24.5t23 -59.5t-23 -57.5t-63 -22.5t-62.5 22.5t-22.5 57.5zM576 72q0 35 22.5 59.5t62.5 24.5t63 -24.5t23 -59.5t-23 -57.5t-63 -22.5t-62.5 22.5t-22.5 57.5zM968 72q0 35 22.5 59.5t62.5 24.5t63 -24.5t23 -59.5t-23 -57.5 t-63 -22.5t-62.5 22.5t-22.5 57.5z" />
<glyph unicode="&#x202f;" horiz-adv-x="381" />
<glyph unicode="&#x2039;" horiz-adv-x="609" d="M108 546v19l295 379h105l-276 -389l276 -388h-105z" />
<glyph unicode="&#x203a;" horiz-adv-x="609" d="M97 162l276 388l-276 394h106l295 -384v-19l-295 -379h-106z" />
<glyph unicode="&#x205f;" horiz-adv-x="476" />
<glyph unicode="&#x20ac;" d="M83 563v89h192v164h-192v90h192v2q0 141 39 247t110 177.5t169 107.5t217 36q61 0 116.5 -8.5t115.5 -22.5l-10 -109q-51 16 -106.5 25.5t-114.5 9.5q-95 0 -171.5 -28.5t-130 -85.5t-82.5 -143.5t-29 -203.5v-4h419v-90h-419v-164h419v-89h-419v-17q0 -116 29.5 -202.5 t83.5 -144.5t130.5 -87t171.5 -29q58 0 113 8.5t106 25.5l10 -107q-54 -14 -112 -22t-118 -8q-119 0 -217.5 35.5t-169.5 106.5t-110.5 177t-39.5 247v17h-192z" />
<glyph unicode="&#x2122;" horiz-adv-x="1264" d="M107 1387v69h391v-69h-159v-468h-73v468h-159zM580 919v537h91l160 -430l160 430h90v-537h-72v416l-152 -416h-52l-152 423v-423h-73z" />
<glyph unicode="&#x25fc;" horiz-adv-x="1080" d="M0 0v1080h1080v-1080h-1080z" />
<glyph unicode="&#xfb02;" horiz-adv-x="1137" d="M63 984v98h179v134q0 82 22 146t63.5 107t100.5 65.5t134 22.5q31 0 63.5 -4t63.5 -13l-9 -100q-25 6 -50.5 9t-58.5 3q-99 0 -154 -61.5t-55 -174.5v-134h258v-98h-258v-984h-120v984h-179zM848 0v1536h120v-1536h-120z" />
<glyph unicode="&#xfb03;" horiz-adv-x="1778" d="M63 984v98h179v134q0 82 22 146t63.5 107t100.5 65.5t134 22.5q31 0 63.5 -4t63.5 -13l-9 -100q-25 6 -50.5 9t-58.5 3q-99 0 -154 -61.5t-55 -174.5v-134h258v-98h-258v-984h-120v984h-179zM726 984v98h180v114q0 87 25 154.5t71.5 113.5t113 69.5t149.5 23.5 q134 0 276 -59l-20 -103q-53 23 -110.5 38t-137.5 15q-123 0 -185 -64.5t-62 -187.5v-114h253v-98h-253v-984h-120v984h-180zM1486 0v1082h120v-1082h-120z" />
<glyph unicode="&#xfb04;" horiz-adv-x="1815" d="M63 984v98h179v134q0 82 22 146t63.5 107t100.5 65.5t134 22.5q31 0 63.5 -4t63.5 -13l-9 -100q-25 6 -50.5 9t-58.5 3q-99 0 -154 -61.5t-55 -174.5v-134h258v-98h-258v-984h-120v984h-179zM741 984v98h179v134q0 82 22 146t63.5 107t100.5 65.5t134 22.5q31 0 63.5 -4 t63.5 -13l-9 -100q-25 6 -50.5 9t-58.5 3q-99 0 -154 -61.5t-55 -174.5v-134h258v-98h-258v-984h-120v984h-179zM1526 0v1536h120v-1536h-120z" />
<hkern u1="&#x20;" u2="T" k="40" />
<hkern u1="&#x22;" u2="w" k="-11" />
<hkern u1="&#x27;" u2="w" k="-11" />
<hkern u1="&#x28;" u2="&#x178;" k="-22" />
<hkern u1="&#x28;" u2="&#xdd;" k="-22" />
<hkern u1="&#x28;" u2="Y" k="-22" />
<hkern u1="&#x28;" u2="W" k="-18" />
<hkern u1="&#x28;" u2="V" k="-20" />
<hkern u1="&#x2f;" u2="&#x2f;" k="224" />
<hkern u1="A" u2="w" k="33" />
<hkern u1="A" u2="t" k="17" />
<hkern u1="A" u2="&#x3f;" k="61" />
<hkern u1="C" u2="&#x7d;" k="17" />
<hkern u1="C" u2="]" k="12" />
<hkern u1="C" u2="&#x29;" k="26" />
<hkern u1="D" u2="&#xc6;" k="33" />
<hkern u1="E" u2="w" k="22" />
<hkern u1="E" u2="f" k="18" />
<hkern u1="F" u2="&#x2026;" k="234" />
<hkern u1="F" u2="&#x201e;" k="234" />
<hkern u1="F" u2="&#x201a;" k="234" />
<hkern u1="F" u2="&#x153;" k="21" />
<hkern u1="F" u2="&#xff;" k="24" />
<hkern u1="F" u2="&#xfd;" k="24" />
<hkern u1="F" u2="&#xfc;" k="22" />
<hkern u1="F" u2="&#xfb;" k="22" />
<hkern u1="F" u2="&#xfa;" k="22" />
<hkern u1="F" u2="&#xf9;" k="22" />
<hkern u1="F" u2="&#xf6;" k="21" />
<hkern u1="F" u2="&#xf5;" k="21" />
<hkern u1="F" u2="&#xf4;" k="21" />
<hkern u1="F" u2="&#xf3;" k="21" />
<hkern u1="F" u2="&#xf2;" k="21" />
<hkern u1="F" u2="&#xeb;" k="21" />
<hkern u1="F" u2="&#xea;" k="21" />
<hkern u1="F" u2="&#xe9;" k="21" />
<hkern u1="F" u2="&#xe8;" k="21" />
<hkern u1="F" u2="&#xe7;" k="21" />
<hkern u1="F" u2="&#xe5;" k="34" />
<hkern u1="F" u2="&#xe4;" k="34" />
<hkern u1="F" u2="&#xe3;" k="34" />
<hkern u1="F" u2="&#xe2;" k="34" />
<hkern u1="F" u2="&#xe1;" k="34" />
<hkern u1="F" u2="&#xe0;" k="34" />
<hkern u1="F" u2="&#xc5;" k="170" />
<hkern u1="F" u2="&#xc4;" k="170" />
<hkern u1="F" u2="&#xc3;" k="170" />
<hkern u1="F" u2="&#xc2;" k="170" />
<hkern u1="F" u2="&#xc1;" k="170" />
<hkern u1="F" u2="&#xc0;" k="170" />
<hkern u1="F" u2="y" k="24" />
<hkern u1="F" u2="v" k="24" />
<hkern u1="F" u2="u" k="22" />
<hkern u1="F" u2="r" k="26" />
<hkern u1="F" u2="q" k="21" />
<hkern u1="F" u2="o" k="21" />
<hkern u1="F" u2="g" k="21" />
<hkern u1="F" u2="e" k="21" />
<hkern u1="F" u2="d" k="21" />
<hkern u1="F" u2="c" k="21" />
<hkern u1="F" u2="a" k="34" />
<hkern u1="F" u2="T" k="-20" />
<hkern u1="F" u2="J" k="264" />
<hkern u1="F" u2="A" k="170" />
<hkern u1="F" u2="&#x2e;" k="234" />
<hkern u1="F" u2="&#x2c;" k="234" />
<hkern u1="K" u2="w" k="63" />
<hkern u1="L" u2="w" k="92" />
<hkern u1="O" u2="&#xc6;" k="33" />
<hkern u1="P" u2="&#xc6;" k="97" />
<hkern u1="P" u2="t" k="-14" />
<hkern u1="Q" u2="&#x178;" k="35" />
<hkern u1="Q" u2="&#xdd;" k="35" />
<hkern u1="Q" u2="Y" k="35" />
<hkern u1="Q" u2="W" k="20" />
<hkern u1="Q" u2="V" k="28" />
<hkern u1="Q" u2="T" k="43" />
<hkern u1="R" u2="&#x178;" k="48" />
<hkern u1="R" u2="&#xdd;" k="48" />
<hkern u1="R" u2="Y" k="48" />
<hkern u1="R" u2="V" k="19" />
<hkern u1="R" u2="T" k="80" />
<hkern u1="T" u2="&#xf8;" k="95" />
<hkern u1="T" u2="&#xe6;" k="114" />
<hkern u1="T" u2="&#xc6;" k="179" />
<hkern u1="T" u2="&#xbb;" k="216" />
<hkern u1="T" u2="&#xab;" k="328" />
<hkern u1="T" u2="w" k="57" />
<hkern u1="T" u2="r" k="75" />
<hkern u1="T" u2="&#x20;" k="40" />
<hkern u1="V" u2="&#x7d;" k="-19" />
<hkern u1="V" u2="r" k="30" />
<hkern u1="V" u2="]" k="-17" />
<hkern u1="V" u2="&#x29;" k="-20" />
<hkern u1="W" u2="&#x7d;" k="-14" />
<hkern u1="W" u2="r" k="21" />
<hkern u1="W" u2="]" k="-12" />
<hkern u1="W" u2="&#x29;" k="-15" />
<hkern u1="Y" u2="&#x2022;" k="45" />
<hkern u1="Y" u2="&#xf8;" k="64" />
<hkern u1="Y" u2="&#xe6;" k="63" />
<hkern u1="Y" u2="&#xc6;" k="96" />
<hkern u1="Y" u2="&#xbb;" k="51" />
<hkern u1="Y" u2="&#xab;" k="82" />
<hkern u1="Y" u2="&#x7d;" k="-19" />
<hkern u1="Y" u2="t" k="22" />
<hkern u1="Y" u2="r" k="40" />
<hkern u1="Y" u2="f" k="22" />
<hkern u1="Y" u2="]" k="-18" />
<hkern u1="Y" u2="&#x2a;" k="49" />
<hkern u1="Y" u2="&#x29;" k="-20" />
<hkern u1="Y" u2="&#x26;" k="30" />
<hkern u1="Z" u2="w" k="27" />
<hkern u1="[" u2="&#xdc;" k="18" />
<hkern u1="[" u2="&#xdb;" k="18" />
<hkern u1="[" u2="&#xda;" k="18" />
<hkern u1="[" u2="&#xd9;" k="18" />
<hkern u1="[" u2="U" k="18" />
<hkern u1="[" u2="J" k="18" />
<hkern u1="e" u2="&#x2019;" k="80" />
<hkern u1="f" u2="&#x201d;" k="-16" />
<hkern u1="f" u2="&#x201c;" k="-16" />
<hkern u1="f" u2="&#x2019;" k="-16" />
<hkern u1="f" u2="&#x2018;" k="-16" />
<hkern u1="f" u2="&#x153;" k="24" />
<hkern u1="f" u2="&#xeb;" k="24" />
<hkern u1="f" u2="&#xea;" k="24" />
<hkern u1="f" u2="&#xe9;" k="24" />
<hkern u1="f" u2="&#xe8;" k="24" />
<hkern u1="f" u2="&#xe7;" k="24" />
<hkern u1="f" u2="&#x7d;" k="-19" />
<hkern u1="f" u2="q" k="24" />
<hkern u1="f" u2="g" k="24" />
<hkern u1="f" u2="e" k="24" />
<hkern u1="f" u2="d" k="24" />
<hkern u1="f" u2="c" k="24" />
<hkern u1="f" u2="]" k="-18" />
<hkern u1="f" u2="&#x29;" k="-20" />
<hkern u1="f" u2="&#x27;" k="-16" />
<hkern u1="f" u2="&#x22;" k="-16" />
<hkern u1="h" u2="&#x2019;" k="80" />
<hkern u1="k" u2="&#x153;" k="20" />
<hkern u1="k" u2="&#xeb;" k="20" />
<hkern u1="k" u2="&#xea;" k="20" />
<hkern u1="k" u2="&#xe9;" k="20" />
<hkern u1="k" u2="&#xe8;" k="20" />
<hkern u1="k" u2="&#xe7;" k="20" />
<hkern u1="k" u2="q" k="20" />
<hkern u1="k" u2="g" k="20" />
<hkern u1="k" u2="e" k="20" />
<hkern u1="k" u2="d" k="20" />
<hkern u1="k" u2="c" k="20" />
<hkern u1="m" u2="&#x2019;" k="80" />
<hkern u1="n" u2="&#x2019;" k="80" />
<hkern u1="o" u2="&#x2019;" k="80" />
<hkern u1="r" u2="w" k="-17" />
<hkern u1="r" u2="t" k="-50" />
<hkern u1="r" u2="f" k="-15" />
<hkern u1="t" u2="&#xf6;" k="20" />
<hkern u1="t" u2="&#xf5;" k="20" />
<hkern u1="t" u2="&#xf4;" k="20" />
<hkern u1="t" u2="&#xf3;" k="20" />
<hkern u1="t" u2="&#xf2;" k="20" />
<hkern u1="t" u2="o" k="20" />
<hkern u1="v" u2="f" k="-13" />
<hkern u1="w" u2="&#x2026;" k="124" />
<hkern u1="w" u2="&#x201e;" k="124" />
<hkern u1="w" u2="&#x201a;" k="124" />
<hkern u1="w" u2="&#x2e;" k="124" />
<hkern u1="w" u2="&#x2c;" k="124" />
<hkern u1="y" u2="f" k="-13" />
<hkern u1="&#x7b;" u2="&#xdc;" k="20" />
<hkern u1="&#x7b;" u2="&#xdb;" k="20" />
<hkern u1="&#x7b;" u2="&#xda;" k="20" />
<hkern u1="&#x7b;" u2="&#xd9;" k="20" />
<hkern u1="&#x7b;" u2="U" k="20" />
<hkern u1="&#x7b;" u2="J" k="20" />
<hkern u1="&#xc0;" u2="w" k="33" />
<hkern u1="&#xc0;" u2="t" k="17" />
<hkern u1="&#xc0;" u2="&#x3f;" k="61" />
<hkern u1="&#xc1;" u2="w" k="33" />
<hkern u1="&#xc1;" u2="t" k="17" />
<hkern u1="&#xc1;" u2="&#x3f;" k="61" />
<hkern u1="&#xc2;" u2="w" k="33" />
<hkern u1="&#xc2;" u2="t" k="17" />
<hkern u1="&#xc2;" u2="&#x3f;" k="61" />
<hkern u1="&#xc3;" u2="w" k="33" />
<hkern u1="&#xc3;" u2="t" k="17" />
<hkern u1="&#xc3;" u2="&#x3f;" k="61" />
<hkern u1="&#xc4;" u2="w" k="33" />
<hkern u1="&#xc4;" u2="t" k="17" />
<hkern u1="&#xc4;" u2="&#x3f;" k="61" />
<hkern u1="&#xc5;" u2="w" k="33" />
<hkern u1="&#xc5;" u2="t" k="17" />
<hkern u1="&#xc5;" u2="&#x3f;" k="61" />
<hkern u1="&#xc7;" u2="&#x7d;" k="17" />
<hkern u1="&#xc7;" u2="]" k="12" />
<hkern u1="&#xc7;" u2="&#x29;" k="26" />
<hkern u1="&#xc8;" u2="w" k="22" />
<hkern u1="&#xc8;" u2="f" k="18" />
<hkern u1="&#xc9;" u2="w" k="22" />
<hkern u1="&#xc9;" u2="f" k="18" />
<hkern u1="&#xca;" u2="w" k="22" />
<hkern u1="&#xca;" u2="f" k="18" />
<hkern u1="&#xcb;" u2="w" k="22" />
<hkern u1="&#xcb;" u2="f" k="18" />
<hkern u1="&#xd0;" u2="&#xc6;" k="33" />
<hkern u1="&#xd2;" u2="&#xc6;" k="33" />
<hkern u1="&#xd3;" u2="&#xc6;" k="33" />
<hkern u1="&#xd4;" u2="&#xc6;" k="33" />
<hkern u1="&#xd5;" u2="&#xc6;" k="33" />
<hkern u1="&#xd6;" u2="&#xc6;" k="33" />
<hkern u1="&#xdd;" u2="&#x2022;" k="45" />
<hkern u1="&#xdd;" u2="&#xf8;" k="64" />
<hkern u1="&#xdd;" u2="&#xe6;" k="63" />
<hkern u1="&#xdd;" u2="&#xc6;" k="96" />
<hkern u1="&#xdd;" u2="&#xbb;" k="51" />
<hkern u1="&#xdd;" u2="&#xab;" k="82" />
<hkern u1="&#xdd;" u2="&#x7d;" k="-19" />
<hkern u1="&#xdd;" u2="t" k="22" />
<hkern u1="&#xdd;" u2="r" k="40" />
<hkern u1="&#xdd;" u2="f" k="22" />
<hkern u1="&#xdd;" u2="]" k="-18" />
<hkern u1="&#xdd;" u2="&#x2a;" k="49" />
<hkern u1="&#xdd;" u2="&#x29;" k="-20" />
<hkern u1="&#xdd;" u2="&#x26;" k="30" />
<hkern u1="&#xe8;" u2="&#x2019;" k="80" />
<hkern u1="&#xe9;" u2="&#x2019;" k="80" />
<hkern u1="&#xea;" u2="&#x2019;" k="80" />
<hkern u1="&#xeb;" u2="&#x2019;" k="80" />
<hkern u1="&#xf1;" u2="&#x2019;" k="80" />
<hkern u1="&#xf2;" u2="&#x2019;" k="80" />
<hkern u1="&#xf3;" u2="&#x2019;" k="80" />
<hkern u1="&#xf4;" u2="&#x2019;" k="80" />
<hkern u1="&#xf5;" u2="&#x2019;" k="80" />
<hkern u1="&#xf6;" u2="&#x2019;" k="80" />
<hkern u1="&#xfd;" u2="f" k="-13" />
<hkern u1="&#xff;" u2="f" k="-13" />
<hkern u1="&#x178;" u2="&#x2022;" k="45" />
<hkern u1="&#x178;" u2="&#xf8;" k="64" />
<hkern u1="&#x178;" u2="&#xe6;" k="63" />
<hkern u1="&#x178;" u2="&#xc6;" k="96" />
<hkern u1="&#x178;" u2="&#xbb;" k="51" />
<hkern u1="&#x178;" u2="&#xab;" k="82" />
<hkern u1="&#x178;" u2="&#x7d;" k="-19" />
<hkern u1="&#x178;" u2="t" k="22" />
<hkern u1="&#x178;" u2="r" k="40" />
<hkern u1="&#x178;" u2="f" k="22" />
<hkern u1="&#x178;" u2="]" k="-18" />
<hkern u1="&#x178;" u2="&#x2a;" k="49" />
<hkern u1="&#x178;" u2="&#x29;" k="-20" />
<hkern u1="&#x178;" u2="&#x26;" k="30" />
<hkern u1="&#x2018;" u2="w" k="-11" />
<hkern u1="&#x2019;" u2="&#xf6;" k="128" />
<hkern u1="&#x2019;" u2="&#xf5;" k="128" />
<hkern u1="&#x2019;" u2="&#xf4;" k="128" />
<hkern u1="&#x2019;" u2="&#xf3;" k="128" />
<hkern u1="&#x2019;" u2="&#xf2;" k="128" />
<hkern u1="&#x2019;" u2="w" k="-11" />
<hkern u1="&#x2019;" u2="s" k="112" />
<hkern u1="&#x2019;" u2="o" k="128" />
<hkern u1="&#x2019;" u2="l" k="-32" />
<hkern u1="&#x2019;" u2="k" k="-32" />
<hkern u1="&#x2019;" u2="h" k="-32" />
<hkern u1="&#x201c;" u2="w" k="-11" />
<hkern u1="&#x201d;" u2="w" k="-11" />
<hkern g1="A,Agrave,Aacute,Acircumflex,Atilde,Adieresis,Aring" 	g2="v,y,yacute,ydieresis" 	k="50" />
<hkern g1="A,Agrave,Aacute,Acircumflex,Atilde,Adieresis,Aring" 	g2="C,G,O,Q,Ccedilla,Ograve,Oacute,Ocircumflex,Otilde,Odieresis,Oslash,OE" 	k="11" />
<hkern g1="A,Agrave,Aacute,Acircumflex,Atilde,Adieresis,Aring" 	g2="U,Ugrave,Uacute,Ucircumflex,Udieresis" 	k="17" />
<hkern g1="A,Agrave,Aacute,Acircumflex,Atilde,Adieresis,Aring" 	g2="quotedbl,quotesingle,quoteleft,quoteright,quotedblleft,quotedblright" 	k="120" />
<hkern g1="A,Agrave,Aacute,Acircumflex,Atilde,Adieresis,Aring" 	g2="o,ograve,oacute,ocircumflex,otilde,odieresis" 	k="12" />
<hkern g1="A,Agrave,Aacute,Acircumflex,Atilde,Adieresis,Aring" 	g2="W" 	k="69" />
<hkern g1="A,Agrave,Aacute,Acircumflex,Atilde,Adieresis,Aring" 	g2="T" 	k="129" />
<hkern g1="A,Agrave,Aacute,Acircumflex,Atilde,Adieresis,Aring" 	g2="u,ugrave,uacute,ucircumflex,udieresis" 	k="11" />
<hkern g1="A,Agrave,Aacute,Acircumflex,Atilde,Adieresis,Aring" 	g2="z" 	k="-12" />
<hkern g1="A,Agrave,Aacute,Acircumflex,Atilde,Adieresis,Aring" 	g2="V" 	k="87" />
<hkern g1="A,Agrave,Aacute,Acircumflex,Atilde,Adieresis,Aring" 	g2="Y,Yacute,Ydieresis" 	k="94" />
<hkern g1="B" 	g2="T" 	k="27" />
<hkern g1="B" 	g2="V" 	k="24" />
<hkern g1="B" 	g2="Y,Yacute,Ydieresis" 	k="55" />
<hkern g1="H,I,M,N,Igrave,Iacute,Icircumflex,Idieresis,Ntilde" 	g2="T" 	k="29" />
<hkern g1="H,I,M,N,Igrave,Iacute,Icircumflex,Idieresis,Ntilde" 	g2="Y,Yacute,Ydieresis" 	k="28" />
<hkern g1="H,I,M,N,Igrave,Iacute,Icircumflex,Idieresis,Ntilde" 	g2="A,Agrave,Aacute,Acircumflex,Atilde,Adieresis,Aring" 	k="-18" />
<hkern g1="H,I,M,N,Igrave,Iacute,Icircumflex,Idieresis,Ntilde" 	g2="X" 	k="-17" />
<hkern g1="D,O,Eth,Ograve,Oacute,Ocircumflex,Otilde,Odieresis" 	g2="T" 	k="27" />
<hkern g1="D,O,Eth,Ograve,Oacute,Ocircumflex,Otilde,Odieresis" 	g2="V" 	k="22" />
<hkern g1="D,O,Eth,Ograve,Oacute,Ocircumflex,Otilde,Odieresis" 	g2="Y,Yacute,Ydieresis" 	k="43" />
<hkern g1="D,O,Eth,Ograve,Oacute,Ocircumflex,Otilde,Odieresis" 	g2="A,Agrave,Aacute,Acircumflex,Atilde,Adieresis,Aring" 	k="21" />
<hkern g1="D,O,Eth,Ograve,Oacute,Ocircumflex,Otilde,Odieresis" 	g2="X" 	k="22" />
<hkern g1="D,O,Eth,Ograve,Oacute,Ocircumflex,Otilde,Odieresis" 	g2="comma,period,quotesinglbase,quotedblbase,ellipsis" 	k="102" />
<hkern g1="D,O,Eth,Ograve,Oacute,Ocircumflex,Otilde,Odieresis" 	g2="Z" 	k="23" />
<hkern g1="C,Ccedilla" 	g2="T" 	k="29" />
<hkern g1="E,Egrave,Eacute,Ecircumflex,Edieresis" 	g2="v,y,yacute,ydieresis" 	k="26" />
<hkern g1="E,Egrave,Eacute,Ecircumflex,Edieresis" 	g2="o,ograve,oacute,ocircumflex,otilde,odieresis" 	k="19" />
<hkern g1="E,Egrave,Eacute,Ecircumflex,Edieresis" 	g2="T" 	k="-20" />
<hkern g1="E,Egrave,Eacute,Ecircumflex,Edieresis" 	g2="u,ugrave,uacute,ucircumflex,udieresis" 	k="17" />
<hkern g1="E,Egrave,Eacute,Ecircumflex,Edieresis" 	g2="c,d,e,g,q,ccedilla,egrave,eacute,ecircumflex,edieresis,oe" 	k="19" />
<hkern g1="T" 	g2="v,y,yacute,ydieresis" 	k="72" />
<hkern g1="T" 	g2="C,G,O,Q,Ccedilla,Ograve,Oacute,Ocircumflex,Otilde,Odieresis,Oslash,OE" 	k="28" />
<hkern g1="T" 	g2="o,ograve,oacute,ocircumflex,otilde,odieresis" 	k="99" />
<hkern g1="T" 	g2="W" 	k="-15" />
<hkern g1="T" 	g2="T" 	k="-16" />
<hkern g1="T" 	g2="u,ugrave,uacute,ucircumflex,udieresis" 	k="95" />
<hkern g1="T" 	g2="z" 	k="60" />
<hkern g1="T" 	g2="V" 	k="-16" />
<hkern g1="T" 	g2="Y,Yacute,Ydieresis" 	k="-16" />
<hkern g1="T" 	g2="A,Agrave,Aacute,Acircumflex,Atilde,Adieresis,Aring" 	k="79" />
<hkern g1="T" 	g2="comma,period,quotesinglbase,quotedblbase,ellipsis" 	k="218" />
<hkern g1="T" 	g2="c,d,e,g,q,ccedilla,egrave,eacute,ecircumflex,edieresis,oe" 	k="99" />
<hkern g1="T" 	g2="x" 	k="77" />
<hkern g1="T" 	g2="hyphen,uni00AD,endash,emdash" 	k="232" />
<hkern g1="T" 	g2="m,n,p,ntilde" 	k="109" />
<hkern g1="T" 	g2="S" 	k="16" />
<hkern g1="T" 	g2="a,agrave,aacute,acircumflex,atilde,adieresis,aring" 	k="113" />
<hkern g1="T" 	g2="s" 	k="116" />
<hkern g1="T" 	g2="J" 	k="240" />
<hkern g1="K" 	g2="v,y,yacute,ydieresis" 	k="40" />
<hkern g1="K" 	g2="C,G,O,Q,Ccedilla,Ograve,Oacute,Ocircumflex,Otilde,Odieresis,Oslash,OE" 	k="31" />
<hkern g1="K" 	g2="o,ograve,oacute,ocircumflex,otilde,odieresis" 	k="27" />
<hkern g1="K" 	g2="u,ugrave,uacute,ucircumflex,udieresis" 	k="23" />
<hkern g1="K" 	g2="c,d,e,g,q,ccedilla,egrave,eacute,ecircumflex,edieresis,oe" 	k="26" />
<hkern g1="K" 	g2="hyphen,uni00AD,endash,emdash" 	k="64" />
<hkern g1="K" 	g2="m,n,p,ntilde" 	k="23" />
<hkern g1="L" 	g2="v,y,yacute,ydieresis" 	k="133" />
<hkern g1="L" 	g2="C,G,O,Q,Ccedilla,Ograve,Oacute,Ocircumflex,Otilde,Odieresis,Oslash,OE" 	k="65" />
<hkern g1="L" 	g2="U,Ugrave,Uacute,Ucircumflex,Udieresis" 	k="54" />
<hkern g1="L" 	g2="quotedbl,quotesingle,quoteleft,quoteright,quotedblleft,quotedblright" 	k="336" />
<hkern g1="L" 	g2="W" 	k="143" />
<hkern g1="L" 	g2="T" 	k="275" />
<hkern g1="L" 	g2="u,ugrave,uacute,ucircumflex,udieresis" 	k="44" />
<hkern g1="L" 	g2="V" 	k="175" />
<hkern g1="L" 	g2="Y,Yacute,Ydieresis" 	k="239" />
<hkern g1="L" 	g2="A,Agrave,Aacute,Acircumflex,Atilde,Adieresis,Aring" 	k="-19" />
<hkern g1="P" 	g2="v,y,yacute,ydieresis" 	k="-15" />
<hkern g1="P" 	g2="o,ograve,oacute,ocircumflex,otilde,odieresis" 	k="13" />
<hkern g1="P" 	g2="A,Agrave,Aacute,Acircumflex,Atilde,Adieresis,Aring" 	k="138" />
<hkern g1="P" 	g2="X" 	k="31" />
<hkern g1="P" 	g2="comma,period,quotesinglbase,quotedblbase,ellipsis" 	k="324" />
<hkern g1="P" 	g2="Z" 	k="26" />
<hkern g1="P" 	g2="c,d,e,g,q,ccedilla,egrave,eacute,ecircumflex,edieresis,oe" 	k="13" />
<hkern g1="P" 	g2="a,agrave,aacute,acircumflex,atilde,adieresis,aring" 	k="11" />
<hkern g1="P" 	g2="J" 	k="200" />
<hkern g1="J,U,Ugrave,Uacute,Ucircumflex,Udieresis" 	g2="A,Agrave,Aacute,Acircumflex,Atilde,Adieresis,Aring" 	k="22" />
<hkern g1="V" 	g2="v,y,yacute,ydieresis" 	k="11" />
<hkern g1="V" 	g2="C,G,O,Q,Ccedilla,Ograve,Oacute,Ocircumflex,Otilde,Odieresis,Oslash,OE" 	k="13" />
<hkern g1="V" 	g2="o,ograve,oacute,ocircumflex,otilde,odieresis" 	k="46" />
<hkern g1="V" 	g2="u,ugrave,uacute,ucircumflex,udieresis" 	k="28" />
<hkern g1="V" 	g2="A,Agrave,Aacute,Acircumflex,Atilde,Adieresis,Aring" 	k="75" />
<hkern g1="V" 	g2="comma,period,quotesinglbase,quotedblbase,ellipsis" 	k="225" />
<hkern g1="V" 	g2="c,d,e,g,q,ccedilla,egrave,eacute,ecircumflex,edieresis,oe" 	k="44" />
<hkern g1="V" 	g2="hyphen,uni00AD,endash,emdash" 	k="37" />
<hkern g1="V" 	g2="a,agrave,aacute,acircumflex,atilde,adieresis,aring" 	k="46" />
<hkern g1="X" 	g2="v,y,yacute,ydieresis" 	k="31" />
<hkern g1="X" 	g2="C,G,O,Q,Ccedilla,Ograve,Oacute,Ocircumflex,Otilde,Odieresis,Oslash,OE" 	k="25" />
<hkern g1="X" 	g2="o,ograve,oacute,ocircumflex,otilde,odieresis" 	k="21" />
<hkern g1="X" 	g2="u,ugrave,uacute,ucircumflex,udieresis" 	k="21" />
<hkern g1="X" 	g2="V" 	k="-14" />
<hkern g1="X" 	g2="c,d,e,g,q,ccedilla,egrave,eacute,ecircumflex,edieresis,oe" 	k="26" />
<hkern g1="X" 	g2="hyphen,uni00AD,endash,emdash" 	k="46" />
<hkern g1="Y,Yacute,Ydieresis" 	g2="v,y,yacute,ydieresis" 	k="20" />
<hkern g1="Y,Yacute,Ydieresis" 	g2="C,G,O,Q,Ccedilla,Ograve,Oacute,Ocircumflex,Otilde,Odieresis,Oslash,OE" 	k="29" />
<hkern g1="Y,Yacute,Ydieresis" 	g2="U,Ugrave,Uacute,Ucircumflex,Udieresis" 	k="96" />
<hkern g1="Y,Yacute,Ydieresis" 	g2="o,ograve,oacute,ocircumflex,otilde,odieresis" 	k="65" />
<hkern g1="Y,Yacute,Ydieresis" 	g2="W" 	k="-17" />
<hkern g1="Y,Yacute,Ydieresis" 	g2="T" 	k="-17" />
<hkern g1="Y,Yacute,Ydieresis" 	g2="u,ugrave,uacute,ucircumflex,udieresis" 	k="39" />
<hkern g1="Y,Yacute,Ydieresis" 	g2="z" 	k="30" />
<hkern g1="Y,Yacute,Ydieresis" 	g2="V" 	k="-18" />
<hkern g1="Y,Yacute,Ydieresis" 	g2="Y,Yacute,Ydieresis" 	k="-18" />
<hkern g1="Y,Yacute,Ydieresis" 	g2="A,Agrave,Aacute,Acircumflex,Atilde,Adieresis,Aring" 	k="94" />
<hkern g1="Y,Yacute,Ydieresis" 	g2="X" 	k="-13" />
<hkern g1="Y,Yacute,Ydieresis" 	g2="comma,period,quotesinglbase,quotedblbase,ellipsis" 	k="211" />
<hkern g1="Y,Yacute,Ydieresis" 	g2="c,d,e,g,q,ccedilla,egrave,eacute,ecircumflex,edieresis,oe" 	k="65" />
<hkern g1="Y,Yacute,Ydieresis" 	g2="x" 	k="23" />
<hkern g1="Y,Yacute,Ydieresis" 	g2="hyphen,uni00AD,endash,emdash" 	k="52" />
<hkern g1="Y,Yacute,Ydieresis" 	g2="m,n,p,ntilde" 	k="40" />
<hkern g1="Y,Yacute,Ydieresis" 	g2="S" 	k="16" />
<hkern g1="Y,Yacute,Ydieresis" 	g2="a,agrave,aacute,acircumflex,atilde,adieresis,aring" 	k="73" />
<hkern g1="Y,Yacute,Ydieresis" 	g2="s" 	k="58" />
<hkern g1="Y,Yacute,Ydieresis" 	g2="J" 	k="96" />
<hkern g1="W" 	g2="o,ograve,oacute,ocircumflex,otilde,odieresis" 	k="31" />
<hkern g1="W" 	g2="T" 	k="-14" />
<hkern g1="W" 	g2="u,ugrave,uacute,ucircumflex,udieresis" 	k="19" />
<hkern g1="W" 	g2="A,Agrave,Aacute,Acircumflex,Atilde,Adieresis,Aring" 	k="43" />
<hkern g1="W" 	g2="comma,period,quotesinglbase,quotedblbase,ellipsis" 	k="123" />
<hkern g1="W" 	g2="c,d,e,g,q,ccedilla,egrave,eacute,ecircumflex,edieresis,oe" 	k="31" />
<hkern g1="W" 	g2="hyphen,uni00AD,endash,emdash" 	k="60" />
<hkern g1="W" 	g2="a,agrave,aacute,acircumflex,atilde,adieresis,aring" 	k="33" />
<hkern g1="Z" 	g2="v,y,yacute,ydieresis" 	k="27" />
<hkern g1="Z" 	g2="C,G,O,Q,Ccedilla,Ograve,Oacute,Ocircumflex,Otilde,Odieresis,Oslash,OE" 	k="26" />
<hkern g1="Z" 	g2="o,ograve,oacute,ocircumflex,otilde,odieresis" 	k="21" />
<hkern g1="Z" 	g2="u,ugrave,uacute,ucircumflex,udieresis" 	k="19" />
<hkern g1="Z" 	g2="A,Agrave,Aacute,Acircumflex,Atilde,Adieresis,Aring" 	k="-13" />
<hkern g1="Z" 	g2="c,d,e,g,q,ccedilla,egrave,eacute,ecircumflex,edieresis,oe" 	k="21" />
<hkern g1="a,agrave,aacute,acircumflex,atilde,adieresis,aring" 	g2="v,y,yacute,ydieresis" 	k="15" />
<hkern g1="a,agrave,aacute,acircumflex,atilde,adieresis,aring" 	g2="quotedbl,quotesingle,quoteleft,quoteright,quotedblleft,quotedblright" 	k="67" />
<hkern g1="c,ccedilla" 	g2="quotedbl,quotesingle,quoteleft,quoteright,quotedblleft,quotedblright" 	k="11" />
<hkern g1="b,p,thorn" 	g2="v,y,yacute,ydieresis" 	k="11" />
<hkern g1="b,p,thorn" 	g2="quotedbl,quotesingle,quoteleft,quoteright,quotedblleft,quotedblright" 	k="29" />
<hkern g1="b,p,thorn" 	g2="z" 	k="15" />
<hkern g1="b,p,thorn" 	g2="x" 	k="15" />
<hkern g1="e,egrave,eacute,ecircumflex,edieresis" 	g2="v,y,yacute,ydieresis" 	k="13" />
<hkern g1="e,egrave,eacute,ecircumflex,edieresis" 	g2="quotedbl,quotesingle,quoteleft,quoteright,quotedblleft,quotedblright" 	k="14" />
<hkern g1="h,m,n,ntilde" 	g2="quotedbl,quotesingle,quoteleft,quoteright,quotedblleft,quotedblright" 	k="104" />
<hkern g1="o,ograve,oacute,ocircumflex,otilde,odieresis" 	g2="v,y,yacute,ydieresis" 	k="15" />
<hkern g1="o,ograve,oacute,ocircumflex,otilde,odieresis" 	g2="quotedbl,quotesingle,quoteleft,quoteright,quotedblleft,quotedblright" 	k="136" />
<hkern g1="o,ograve,oacute,ocircumflex,otilde,odieresis" 	g2="z" 	k="16" />
<hkern g1="o,ograve,oacute,ocircumflex,otilde,odieresis" 	g2="x" 	k="21" />
<hkern g1="v,y,yacute,ydieresis" 	g2="quotedbl,quotesingle,quoteleft,quoteright,quotedblleft,quotedblright" 	k="-15" />
<hkern g1="v,y,yacute,ydieresis" 	g2="o,ograve,oacute,ocircumflex,otilde,odieresis" 	k="15" />
<hkern g1="v,y,yacute,ydieresis" 	g2="comma,period,quotesinglbase,quotedblbase,ellipsis" 	k="107" />
<hkern g1="v,y,yacute,ydieresis" 	g2="c,d,e,g,q,ccedilla,egrave,eacute,ecircumflex,edieresis,oe" 	k="13" />
<hkern g1="v,y,yacute,ydieresis" 	g2="a,agrave,aacute,acircumflex,atilde,adieresis,aring" 	k="15" />
<hkern g1="r" 	g2="v,y,yacute,ydieresis" 	k="-18" />
<hkern g1="r" 	g2="quotedbl,quotesingle,quoteleft,quoteright,quotedblleft,quotedblright" 	k="-16" />
<hkern g1="r" 	g2="o,ograve,oacute,ocircumflex,otilde,odieresis" 	k="20" />
<hkern g1="r" 	g2="comma,period,quotesinglbase,quotedblbase,ellipsis" 	k="123" />
<hkern g1="r" 	g2="c,d,e,g,q,ccedilla,egrave,eacute,ecircumflex,edieresis,oe" 	k="19" />
<hkern g1="r" 	g2="a,agrave,aacute,acircumflex,atilde,adieresis,aring" 	k="40" />
<hkern g1="x" 	g2="o,ograve,oacute,ocircumflex,otilde,odieresis" 	k="20" />
<hkern g1="x" 	g2="c,d,e,g,q,ccedilla,egrave,eacute,ecircumflex,edieresis,oe" 	k="20" />
<hkern g1="z" 	g2="o,ograve,oacute,ocircumflex,otilde,odieresis" 	k="16" />
<hkern g1="z" 	g2="c,d,e,g,q,ccedilla,egrave,eacute,ecircumflex,edieresis,oe" 	k="16" />
<hkern g1="quotedbl,quotesingle,quoteleft,quoteright,quotedblleft,quotedblright" 	g2="quotedbl,quotesingle,quoteleft,quoteright,quotedblleft,quotedblright" 	k="107" />
<hkern g1="quotedbl,quotesingle,quoteleft,quoteright,quotedblleft,quotedblright" 	g2="o,ograve,oacute,ocircumflex,otilde,odieresis" 	k="61" />
<hkern g1="quotedbl,quotesingle,quoteleft,quoteright,quotedblleft,quotedblright" 	g2="A,Agrave,Aacute,Acircumflex,Atilde,Adieresis,Aring" 	k="120" />
<hkern g1="quotedbl,quotesingle,quoteleft,quoteright,quotedblleft,quotedblright" 	g2="c,d,e,g,q,ccedilla,egrave,eacute,ecircumflex,edieresis,oe" 	k="59" />
<hkern g1="quotedbl,quotesingle,quoteleft,quoteright,quotedblleft,quotedblright" 	g2="m,n,p,ntilde" 	k="20" />
<hkern g1="quotedbl,quotesingle,quoteleft,quoteright,quotedblleft,quotedblright" 	g2="a,agrave,aacute,acircumflex,atilde,adieresis,aring" 	k="50" />
<hkern g1="quotedbl,quotesingle,quoteleft,quoteright,quotedblleft,quotedblright" 	g2="s" 	k="80" />
<hkern g1="comma,period,quotesinglbase,quotedblbase,ellipsis" 	g2="quotedbl,quotesingle,quoteleft,quoteright,quotedblleft,quotedblright" 	k="170" />
</font>
</defs></svg> 