2011.04.18 14:56 B D:\SIM_MMRS\source\xampp\htdocs\~mmos_v1\public_html\filemanager\filemanager\jscripts\edit_area\reg_syntax\php.js --> 10.1.3.12 /usr/home/mmos/public_html/filemanager/filemanager/jscripts/edit_area/reg_syntax php.js
2011.04.18 14:56 B D:\SIM_MMRS\source\xampp\htdocs\~mmos_v1\public_html\filemanager\filemanager\jscripts\edit_area\reg_syntax\brainfuck.js --> 10.1.3.12 /usr/home/mmos/public_html/filemanager/filemanager/jscripts/edit_area/reg_syntax brainfuck.js
2011.04.18 14:56 B D:\SIM_MMRS\source\xampp\htdocs\~mmos_v1\public_html\filemanager\filemanager\jscripts\edit_area\reg_syntax\basic.js --> 10.1.3.12 /usr/home/mmos/public_html/filemanager/filemanager/jscripts/edit_area/reg_syntax basic.js
2011.04.18 14:56 B D:\SIM_MMRS\source\xampp\htdocs\~mmos_v1\public_html\filemanager\filemanager\jscripts\edit_area\reg_syntax\pas.js --> 10.1.3.12 /usr/home/mmos/public_html/filemanager/filemanager/jscripts/edit_area/reg_syntax pas.js
2011.04.18 14:56 B D:\SIM_MMRS\source\xampp\htdocs\~mmos_v1\public_html\filemanager\filemanager\jscripts\edit_area\reg_syntax\cpp.js --> 10.1.3.12 /usr/home/mmos/public_html/filemanager/filemanager/jscripts/edit_area/reg_syntax cpp.js
2011.04.18 14:56 B D:\SIM_MMRS\source\xampp\htdocs\~mmos_v1\public_html\filemanager\filemanager\jscripts\edit_area\reg_syntax\c.js --> 10.1.3.12 /usr/home/mmos/public_html/filemanager/filemanager/jscripts/edit_area/reg_syntax c.js
2011.04.18 14:56 B D:\SIM_MMRS\source\xampp\htdocs\~mmos_v1\public_html\filemanager\filemanager\jscripts\edit_area\reg_syntax\html.js --> 10.1.3.12 /usr/home/mmos/public_html/filemanager/filemanager/jscripts/edit_area/reg_syntax html.js
2011.04.18 14:56 B D:\SIM_MMRS\source\xampp\htdocs\~mmos_v1\public_html\filemanager\filemanager\jscripts\edit_area\reg_syntax\python.js --> 10.1.3.12 /usr/home/mmos/public_html/filemanager/filemanager/jscripts/edit_area/reg_syntax python.js
2011.04.18 14:56 B D:\SIM_MMRS\source\xampp\htdocs\~mmos_v1\public_html\filemanager\filemanager\jscripts\edit_area\reg_syntax\xml.js --> 10.1.3.12 /usr/home/mmos/public_html/filemanager/filemanager/jscripts/edit_area/reg_syntax xml.js
2011.04.18 14:56 B D:\SIM_MMRS\source\xampp\htdocs\~mmos_v1\public_html\filemanager\filemanager\jscripts\edit_area\reg_syntax\vb.js --> 10.1.3.12 /usr/home/mmos/public_html/filemanager/filemanager/jscripts/edit_area/reg_syntax vb.js
2011.04.18 14:56 B D:\SIM_MMRS\source\xampp\htdocs\~mmos_v1\public_html\filemanager\filemanager\jscripts\edit_area\reg_syntax\js.js --> 10.1.3.12 /usr/home/mmos/public_html/filemanager/filemanager/jscripts/edit_area/reg_syntax js.js
2011.04.18 14:56 B D:\SIM_MMRS\source\xampp\htdocs\~mmos_v1\public_html\filemanager\filemanager\jscripts\edit_area\reg_syntax\css.js --> 10.1.3.12 /usr/home/mmos/public_html/filemanager/filemanager/jscripts/edit_area/reg_syntax css.js
2011.04.18 15:10 B D:\SIM_MMRS\source\xampp\htdocs\~mmos_v1\public_html\filemanager\filemanager\jscripts\edit_area\reg_syntax\basic.js --> 10.1.3.12 /usr/home/mmos/public_html/file/filemanager/jscripts/edit_area/reg_syntax basic.js
2011.04.18 15:10 B D:\SIM_MMRS\source\xampp\htdocs\~mmos_v1\public_html\filemanager\filemanager\jscripts\edit_area\reg_syntax\brainfuck.js --> 10.1.3.12 /usr/home/mmos/public_html/file/filemanager/jscripts/edit_area/reg_syntax brainfuck.js
2011.04.18 15:10 B D:\SIM_MMRS\source\xampp\htdocs\~mmos_v1\public_html\filemanager\filemanager\jscripts\edit_area\reg_syntax\c.js --> 10.1.3.12 /usr/home/mmos/public_html/file/filemanager/jscripts/edit_area/reg_syntax c.js
2011.04.18 15:10 B D:\SIM_MMRS\source\xampp\htdocs\~mmos_v1\public_html\filemanager\filemanager\jscripts\edit_area\reg_syntax\cpp.js --> 10.1.3.12 /usr/home/mmos/public_html/file/filemanager/jscripts/edit_area/reg_syntax cpp.js
2011.04.18 15:10 B D:\SIM_MMRS\source\xampp\htdocs\~mmos_v1\public_html\filemanager\filemanager\jscripts\edit_area\reg_syntax\css.js --> 10.1.3.12 /usr/home/mmos/public_html/file/filemanager/jscripts/edit_area/reg_syntax css.js
2011.04.18 15:10 B D:\SIM_MMRS\source\xampp\htdocs\~mmos_v1\public_html\filemanager\filemanager\jscripts\edit_area\reg_syntax\html.js --> 10.1.3.12 /usr/home/mmos/public_html/file/filemanager/jscripts/edit_area/reg_syntax html.js
2011.04.18 15:10 B D:\SIM_MMRS\source\xampp\htdocs\~mmos_v1\public_html\filemanager\filemanager\jscripts\edit_area\reg_syntax\js.js --> 10.1.3.12 /usr/home/mmos/public_html/file/filemanager/jscripts/edit_area/reg_syntax js.js
2011.04.18 15:10 B D:\SIM_MMRS\source\xampp\htdocs\~mmos_v1\public_html\filemanager\filemanager\jscripts\edit_area\reg_syntax\pas.js --> 10.1.3.12 /usr/home/mmos/public_html/file/filemanager/jscripts/edit_area/reg_syntax pas.js
2011.04.18 15:10 B D:\SIM_MMRS\source\xampp\htdocs\~mmos_v1\public_html\filemanager\filemanager\jscripts\edit_area\reg_syntax\php.js --> 10.1.3.12 /usr/home/mmos/public_html/file/filemanager/jscripts/edit_area/reg_syntax php.js
2011.04.18 15:10 B D:\SIM_MMRS\source\xampp\htdocs\~mmos_v1\public_html\filemanager\filemanager\jscripts\edit_area\reg_syntax\python.js --> 10.1.3.12 /usr/home/mmos/public_html/file/filemanager/jscripts/edit_area/reg_syntax python.js
2011.04.18 15:10 B D:\SIM_MMRS\source\xampp\htdocs\~mmos_v1\public_html\filemanager\filemanager\jscripts\edit_area\reg_syntax\vb.js --> 10.1.3.12 /usr/home/mmos/public_html/file/filemanager/jscripts/edit_area/reg_syntax vb.js
2011.04.19 12:25 B D:\SIM_MMRS\source\xampp\htdocs\mmos\public_html\file\filemanager\jscripts\edit_area\reg_syntax\WS_FTP.LOG <-- mmos /usr/home/mmos/public_html/file/filemanager/jscripts/edit_area/reg_syntax WS_FTP.LOG
2011.04.19 12:25 B D:\SIM_MMRS\source\xampp\htdocs\mmos\public_html\file\filemanager\jscripts\edit_area\reg_syntax\xml.js <-- mmos /usr/home/mmos/public_html/file/filemanager/jscripts/edit_area/reg_syntax xml.js
