<?xml version="1.0" encoding="UTF-8" standalone="no"?>
<!DOCTYPE svg PUBLIC "-//W3C//DTD SVG 1.1//EN" "http://www.w3.org/Graphics/SVG/1.1/DTD/svg11.dtd" >
<svg xmlns="http://www.w3.org/2000/svg"
><metadata
></metadata
><defs
><font horiz-adv-x="1160"
><font-face font-family="Lato" units-per-em="2000" ascent="1974" descent="-426"
></font-face
><missing-glyph horiz-adv-x="1025" d="M262 1134q21 20 46.5 38t55.5 32t65.5 22.5T507 1235q54 0 100.5 -15.5t81 -45t54 -71T762 1010q0 -55 -16.5 -94.5t-41 -69T651 794.5T596.5 752t-44 -39.5T532 668L522 554H457l-6 122q-2 31 14 54.5T505.5 775t54 42T614 864.5t42 60t17 80.5q0 36 -14 64t-37.5 47.5t-55 30T500 1157q-46 0 -79 -11.5t-56 -26t-36.5 -26T308 1082q-14 0 -21 11l-25 41ZM410 265q0 32 22 55t55 23q32 0 54 -23t22 -55q0 -32 -22 -55T487 187q-33 0 -55 23t-22 55ZM47 1415H978V0H47V1415ZM82 36H941V1379H82V36Z"
></missing-glyph
><glyph unicode="&#xd;" horiz-adv-x="0" d=""
></glyph
><glyph unicode=" " horiz-adv-x="386" d=""
></glyph
><glyph unicode="!" horiz-adv-x="645" d="M372 1415V843q0 -45 -1 -85t-2.5 -81.5T364 589T358 487H293q-3 56 -6 102t-4.5 87.5T280 758t-1 85v572h93ZM230 77q0 19 7 36t19.5 29.5t29 20T322 170q19 0 36 -7.5t29.5 -20t20 -29.5T415 77q0 -20 -7.5 -36.5t-20 -29T358 -8t-36 -7q-39 0 -65.5 26.5T230 77Z"
></glyph
><glyph unicode="&quot;" horiz-adv-x="734" d="M263 1415V1123L254 970q-2 -17 -9 -26.5T221 934q-14 0 -22 9.5T189 970l-9 153v292h83ZM553 1415V1123L544 970q-2 -17 -9 -26.5T511 934q-14 0 -22 9.5T479 970l-9 153v292h83Z"
></glyph
><glyph unicode="#" d="M757 443L663 0H622Q608 0 599 8.5T590 33q0 7 1 11l86 399H379L293 40Q288 18 276 9T247 0H205l94 443H116q-14 0 -22 6.5T86 473q0 5 0 9.5T88 497l3 16H309l82 389H138l6 38q4 33 44 33H401l87 404q4 19 16.5 28.5T534 1415h42L481 973H779l95 442h42q31 0 31 -30q0 -8 -1 -12L859 973h225l-6 -38q-5 -33 -45 -33H849L767 513H992q30 0 30 -26l-4 -44H757ZM389 513H687l82 389H471L389 513Z"
></glyph
><glyph unicode="$" d="M542 -15Q414 -9 319 40T152 169l27 39q12 15 28 15q9 0 22.5 -11T262 184.5t45 -36t60.5 -37T446 81T546 65l32 636q-68 21 -132.5 47t-115 66.5T249 914.5T218 1064q0 69 26 133.5t76.5 115T445 1394t169 34l9 168q1 14 8.5 23t21.5 9h36L678 1427q101 -7 177 -44.5T994 1282l-22 -34q-10 -17 -26 -17q-12 0 -31.5 16.5t-51 36.5t-78 38.5T674 1346L645 774q47 -15 94.5 -31t91 -36T911 661t64.5 -61.5t43 -81T1034 413q0 -86 -29 -162T921.5 117.5T787.5 25T606 -15L595 -226q-1 -13 -8.5 -22T566 -257H530l12 242ZM944 398q0 66 -25 112t-67 78t-96.5 53.5T641 682L610 65q80 5 142.5 32.5t105 72t64.5 103T944 398ZM307 1072q0 -62 22 -106t60 -75.5t87.5 -54T582 795l28 552q-76 -4 -132.5 -28T383 1257.5T326 1172T307 1072Z"
></glyph
><glyph unicode="%" horiz-adv-x="1534" d="M682 1075q0 -87 -24 -153.5T593 811T498 744.5T384 722q-62 0 -116.5 22.5T173 811T110 921.5T87 1075q0 88 23 155t63 111.5t94.5 67T384 1431q62 0 116 -22.5t94.5 -67t64 -111.5T682 1075ZM606 1075q0 77 -17.5 132t-48 90.5t-71 52T384 1366q-45 0 -85 -16.5t-70 -52T181.5 1207T164 1075q0 -77 17.5 -131.5T229 854t70 -51.5T384 786q45 0 85.5 16.5t71 51.5t48 89.5T606 1075ZM1219 1397q6 8 14.5 13t22.5 5h67L307 18Q294 0 272 0H204L1219 1397ZM1446 336q0 -87 -24 -153.5T1357.5 72T1263 5.5T1149 -17q-62 0 -116.5 22.5T938 72T875 182.5T852 336q0 88 23 155t63 111.5t94.5 67T1149 692q62 0 116 -22.5t94.5 -67T1423 491t23 -155ZM1370 336q0 77 -17.5 132.5t-47.5 91t-70.5 52T1149 628q-45 0 -85.5 -16.5T993 559.5t-47.5 -91T928 336q0 -77 17.5 -131.5T993 115t70.5 -51T1149 48q45 0 85.5 16t70.5 51t47.5 89.5T1370 336Z"
></glyph
><glyph unicode="&amp;" horiz-adv-x="1383" d="M659 1431q67 0 127 -23t104.5 -62t71 -90.5T990 1148q-14 -3 -25 -6q-23 -5 -36 -5q-8 0 -15 6t-10 17q-7 26 -24 60t-46 64t-72.5 51T659 1356q-60 0 -109 -18.5t-84 -52T411.5 1206T392 1105q0 -82 42 -157T564 787L1010 347q45 72 71.5 150T1116 648q2 13 8 20.5t18 7.5h55q-2 -94 -35.5 -193.5T1066 292L1364 0h-89q-18 0 -29.5 4T1219 22L1014 223Q969 171 915 127T798 51.5T663.5 2T513 -16Q438 -16 365 9T234.5 82.5t-93 119T106 362q0 72 26 137.5t71 120T310 717t134 70Q373 867 337.5 942.5T302 1104q0 70 25.5 129.5T400 1337t112.5 69T659 1431ZM203 368q0 -77 29.5 -134T309 138.5T413.5 81T527 62q70 0 132.5 16t117 44.5t100 67.5T960 276L501 727q-6 5 -11 11Q424 710 370.5 671T280 584.5T223 482T203 368Z"
></glyph
><glyph unicode="&#39;" horiz-adv-x="443" d="M263 1415V1123L254 970q-2 -17 -9 -26.5T221 934q-14 0 -22 9.5T189 970l-9 153v292h83Z"
></glyph
><glyph unicode="(" horiz-adv-x="600" d="M253 630q0 -224 60.5 -429.5T494 -196q7 -11 7 -21q0 -15 -14 -22l-42 -26Q368 -147 315.5 -36.5T231 183.5T184.5 403T170 630q0 117 14.5 227.5t46.5 220t84.5 220T445 1526l42 -26q13 -7 13 -21q0 -10 -7 -21Q374 1266 313.5 1060.5T253 630Z"
></glyph
><glyph unicode=")" horiz-adv-x="600" d="M346 630q0 225 -60.5 430.5T106 1458q-7 11 -7 21q0 14 13 21l42 26q76 -118 129 -228.5t85 -220t46.5 -220T429 630Q429 513 414.5 403T368 183.5t-85 -220T154 -265l-42 26q-14 7 -14 22q0 10 7 21Q225 -5 285.5 200.5T346 630Z"
></glyph
><glyph unicode="*" horiz-adv-x="800" d="M372 897v213q0 17 2.5 30t10.5 30q-11 -15 -21.5 -23T338 1130L150 1021l-25 44l188 110q14 8 27 12t31 7q-19 3 -31.5 8T313 1215L123 1325l26 45L338 1260q16 -10 25.5 -19.5T387 1214q-8 19 -11.5 33.5T372 1279v214h52V1280q0 -18 -2.5 -32.5T411 1215q12 17 22 26.5t26 18.5l188 109l26 -45L485 1215q-15 -9 -28 -14t-30 -7q18 -3 30.5 -7T485 1175L674 1065l-25 -45L459 1130q-15 9 -25 17t-23 25q6 -18 9.5 -31t3.5 -30V897H372Z"
></glyph
><glyph unicode="+" d="M617 1158V707h431V634H617V181H539V634H109v73H539v451h78Z"
></glyph
><glyph unicode="," horiz-adv-x="395" d="M110 85q0 35 24 60t63 25q43 0 66.5 -29.5T287 63q0 -41 -10.5 -83.5T246 -104t-48 -79t-62 -70l-15 15q-8 8 -8 17q0 5 3 10t7 9q10 10 25.5 29.5t31 46t28 58.5T224 0q-6 -2 -13.5 -3T194 -4q-37 0 -60.5 25T110 85Z"
></glyph
><glyph unicode="-" horiz-adv-x="665" d="M100 634H565V553H100v81Z"
></glyph
><glyph unicode="." horiz-adv-x="395" d="M105 77q0 19 7 36t19.5 29.5t29 20T197 170q19 0 36 -7.5t29.5 -20t20 -29.5T290 77q0 -20 -7.5 -36.5t-20 -29T233 -8t-36 -7q-39 0 -65.5 26.5T105 77Z"
></glyph
><glyph unicode="/" horiz-adv-x="713" d="M91 -45Q83 -65 67 -74.5T34 -84H-5L617 1418q15 37 54 37h41L91 -45Z"
></glyph
><glyph unicode="0" d="M1087 708q0 -186 -40 -322T938 161T776.5 28.5T579 -15Q474 -15 382 28.5T221 161T112.5 386T73 708q0 186 39.5 322T221 1255t161 132.5T579 1431q105 0 197.5 -43.5T938 1255t109 -225t40 -322ZM987 708q0 172 -33 294t-88.5 199.5T735.5 1315T579 1351q-82 0 -156 -36T293 1201.5T204 1002T171 708q0 -173 33 -294.5t89 -199t130 -113T579 66q82 0 156.5 35.5t130 113t88.5 199T987 708Z"
></glyph
><glyph unicode="1" d="M309 74H634V1222q0 34 3 72L325 1017q-10 -9 -24 -9q-17 0 -26 12l-29 40l409 361h74V74h309V0H309V74Z"
></glyph
><glyph unicode="2" d="M602 1431q81 0 154.5 -23.5t129.5 -71t89 -119T1008 1050q0 -80 -24.5 -148.5T917 770T819.5 647.5T703 526L260 74q32 8 66.5 12T396 90h611q16 0 25.5 -9.5T1042 56V0H129V34q0 11 5.5 22.5T148 76L631 565q60 61 111 118t88.5 115t59 119T911 1047q0 78 -26 135.5T815.5 1277t-100 55T597 1350q-67 0 -123.5 -20.5t-100 -57t-72 -87T262 1075q-10 -35 -40 -35q-2 0 -5 0.5t-5 0.5l-48 8q12 91 49.5 162T308 1331t132 74.5T602 1431Z"
></glyph
><glyph unicode="3" d="M613 1431q81 0 153 -22.5T892.5 1341t86 -112T1010 1074q0 -69 -21.5 -124.5T929.5 852T841 781.5T730 738Q886 709 966 617.5T1046 389q0 -87 -35 -161.5T915 99T771 14.5T591 -16Q470 -16 389.5 16.5T257 101T176 217.5T129 346l38 16q12 5 23 5q11 0 21 -5t15 -19l7 -20q6 -18 17 -44.5t28.5 -55t43.5 -57t63.5 -51T473.5 79T590 65q90 0 157.5 30t113 76.5t68 104T951 387q0 65 -20.5 121T862 604.5t-126.5 64T542 692v69q92 2 162 24.5T821 847t71 93t24 119q0 75 -25 130t-67 91t-98 53t-117 17q-67 0 -123 -20t-99 -56t-72 -86.5T272 1075q-8 -35 -37 -35q-7 0 -11 1l-49 8q13 91 50 162t94 120t132 74.5T613 1431Z"
></glyph
><glyph unicode="4" d="M859 482h259V430q0 -11 -6.5 -17.5T1091 406H859V0H773V406H106q-15 0 -23 6.5T72 430l-9 47l711 940h85V482ZM773 1223q0 17 1 36t4 39L167 482H773v741Z"
></glyph
><glyph unicode="5" d="M966 1374q0 -20 -13.5 -33.5T910 1327H398L313 855q67 17 127 24.5T555 887q110 0 194 -31.5t140.5 -88T975 633t29 -170q0 -112 -39 -200.5T859.5 112T704 17T515 -16q-59 0 -112 10.5t-100 28T217 63t-69 47l28 39q10 15 29 15q13 0 37.5 -15t63 -33t91 -33T519 68q82 0 153 26.5T795.5 171t82 123.5T907 461q0 76 -22.5 140t-68 109.5t-115 71T538 807q-57 0 -121 -9T281 769l-62 19l111 627H966v-41Z"
></glyph
><glyph unicode="6" d="M628 846q91 0 168 -30T928.5 731.5t87 -132T1047 426q0 -96 -34.5 -177t-96 -140T769 17T580 -16q-99 0 -181 32T258.5 108T168 254.5T136 450q0 83 42 187.5T316 872l386 520q17 23 51 23h84L415 864Q384 823 358 787T311 716q59 61 140 95.5T628 846ZM229 427q0 -79 24.5 -146T323 165.5T433 90T579 63q86 0 155 27t117.5 74.5t74.5 113T952 420q0 81 -25.5 146.5t-72 111T744 747.5T602 772q-88 0 -157.5 -30.5T327 662.5T254 552T229 427Z"
></glyph
><glyph unicode="7" d="M1071 1415v-43q0 -17 -3.5 -29.5T1059 1321L410 36Q402 20 388.5 10T353 0H288L941 1280q13 26 31 47H156q-11 0 -18.5 8t-7.5 19v61h941Z"
></glyph
><glyph unicode="8" d="M580 -16Q478 -16 393.5 11t-145 78T154 212T120 374q0 78 22.5 139T206 619t97.5 75T428 739q-62 18 -110 49t-80.5 74T188 957.5T171 1070q0 75 28.5 141T281 1326t128.5 77T580 1431q94 0 169.5 -28t129 -77t82 -115T989 1070q0 -60 -17 -112.5T922 862T841 788T731 739q68 -15 124.5 -45T953 619t64 -106t23 -139q0 -90 -34 -162T911.5 89T766.5 11T580 -16ZM580 60q81 0 147.5 22.5t114.5 64T916 246t26 129q0 93 -34 155t-87 99T704 681.5T580 697q-60 0 -124 -15.5T339 629T252 530T218 375q0 -71 26 -129t73.5 -99.5T432 82.5T580 60ZM580 774q81 0 140.5 24.5t98.5 66T876.5 959T895 1069q0 61 -21 113.5T812.5 1274t-99 61T580 1357q-75 0 -134 -22t-99.5 -61T285 1182.5T264 1069q0 -57 18.5 -110T340 864.5t98.5 -66T580 774Z"
></glyph
><glyph unicode="9" d="M573 602q-87 0 -160.5 28.5T285.5 712T202 839.5T172 1006q0 91 33.5 168.5T299 1309t142.5 89.5T622 1431q94 0 172.5 -32t135 -90.5t88 -140T1049 987q0 -55 -11.5 -105t-34 -100T949 679.5T876 567L505 23Q490 0 456 0H370L788 584q30 42 55.5 79.5T890 736Q832 672 749.5 637T573 602ZM957 1005q0 77 -25 141t-70 109.5t-106.5 71T621 1352q-78 0 -143.5 -25t-112 -70T293 1149.5T267 1012q0 -78 24 -140.5t67.5 -106T463.5 699T600 676q85 0 151.5 29T864 781t69.5 105.5T957 1005Z"
></glyph
><glyph unicode=":" horiz-adv-x="475" d="M145 77q0 19 7 36t19.5 29.5t29 20T237 170q19 0 36 -7.5t29.5 -20t20 -29.5T330 77q0 -20 -7.5 -36.5t-20 -29T273 -8t-36 -7q-39 0 -65.5 26.5T145 77ZM145 874q0 19 7 36t19.5 29.5t29 20T237 967q19 0 36 -7.5t29.5 -20t20 -29.5T330 874q0 -20 -7.5 -36.5t-20 -29T273 789t-36 -7q-39 0 -65.5 26.5T145 874Z"
></glyph
><glyph unicode=";" horiz-adv-x="475" d="M145 874q0 19 7 36t19.5 29.5t29 20T237 967q19 0 36 -7.5t29.5 -20t20 -29.5T330 874q0 -20 -7.5 -36.5t-20 -29T273 789t-36 -7q-39 0 -65.5 26.5T145 874ZM150 85q0 35 24 60t63 25q43 0 66.5 -29.5T327 63q0 -41 -10.5 -83.5T286 -104t-48 -79t-62 -70l-15 15q-8 8 -8 17q0 5 3 10t7 9q10 10 25.5 29.5t31 46t28 58.5T264 0q-6 -2 -13.5 -3T234 -4q-37 0 -60.5 25T150 85Z"
></glyph
><glyph unicode="&lt;" d="M160 692l750 385v-65q0 -11 -6 -19T883 977L330 697Q297 680 258 671q42 -9 72 -25L883 365q15 -8 21 -16t6 -19V265L160 651v41Z"
></glyph
><glyph unicode="=" d="M166 556H993V482H166v74ZM166 869H993V795H166v74Z"
></glyph
><glyph unicode="&gt;" d="M251 265v65q0 11 6 19.5T277 365L831 646q31 16 71 25q-20 5 -37 11.5T831 697L277 977q-26 14 -26 35v65L1001 692V651L251 265Z"
></glyph
><glyph unicode="?" horiz-adv-x="741" d="M33 1292q27 27 61 52t74.5 44.5t88.5 31T361 1431q70 0 132 -21t108.5 -60t74 -95.5T703 1128q0 -76 -23.5 -131T620 900.5t-78 -73t-78.5 -59T401.5 713T374 651L362 487H297l-5 171v5q0 41 24 72t59.5 60t77 59t77 67.5T589 1008t24 116q0 54 -21 96.5t-57 72t-83 45T354 1353q-66 0 -114.5 -17.5t-81.5 -39t-52 -39T80 1240q-15 0 -22 12l-25 40ZM235 77q0 19 7 36t19.5 29.5t29 20T327 170q19 0 36 -7.5t29.5 -20t20 -29.5T420 77q0 -20 -7.5 -36.5t-20 -29T363 -8t-36 -7q-39 0 -65.5 26.5T235 77Z"
></glyph
><glyph unicode="@" horiz-adv-x="1643" d="M1167 188q-88 0 -132.5 46.5T988 368Q932 275 861.5 233.5T709 192q-56 0 -97 19.5T544 265t-40.5 80T490 444q0 85 32.5 170.5t95 154T771 880t207 43q53 0 99.5 -9T1161 888L1070 541q-12 -46 -17.5 -82.5T1047 393q0 -44 11 -71.5T1087.5 278T1130 256.5t50 -5.5q57 0 109 30t92 85.5T1444.5 501T1468 678q0 148 -48.5 258.5t-132 183.5T1093 1229t-236 36q-137 0 -259.5 -53t-215 -148T235.5 837.5T181 549q0 -177 56.5 -311.5T391 12.5t226.5 -137T893 -171q148 0 270.5 34T1386 -38q7 5 17 5q14 0 20 -14l15 -37q-112 -74 -246.5 -114T893 -238q-165 0 -308 52.5t-249 153t-167 247T108 549q0 167 59 310t161 248t238 164.5T857 1331q134 0 257 -41.5t217.5 -124T1482.5 961T1539 678q0 -109 -29 -199T1430.5 324.5T1312 224T1167 188ZM727 258q36 0 74.5 12t74 43.5t66.5 85T994 535l80 310q-24 7 -49.5 10.5T965 859q-90 0 -163.5 -36.5T676.5 727t-80 -132.5T568 446q0 -40 10 -74.5T608 312t49.5 -39.5T727 258Z"
></glyph
><glyph unicode="A" horiz-adv-x="1289" d="M1275 0h-79q-14 0 -23 7.5T1159 27L992 438H297L131 27Q127 16 117 8T93 0H15L594 1415H696L1275 0ZM328 514H962L673 1229q-7 17 -14 38.5T645 1313q-7 -24 -14 -45.5T617 1228L328 514Z"
></glyph
><glyph unicode="B" horiz-adv-x="1282" d="M210 0V1415H617q121 0 209.5 -24T973 1320.5T1059.5 1207T1088 1055q0 -56 -19.5 -108T1012 851T921.5 774.5T799 725Q966 700 1056 614t90 -227q0 -90 -32 -162T1021 103T871 26.5T669 0H210ZM312 678V82H667q187 0 282 80.5T1044 389q0 67 -25.5 120.5t-73.5 91T827 658T668 678H312ZM312 753H619q98 0 167.5 25t114 66T966 937t21 107q0 143 -90.5 216.5T617 1334H312V753Z"
></glyph
><glyph unicode="C" horiz-adv-x="1407" d="M1238 238q10 0 17 -7l40 -43q-44 -47 -96 -84.5t-113.5 -64t-135 -41T789 -16Q642 -16 519.5 35.5t-210 146T173 410T124 708q0 161 50.5 294t142 228.5t219 148T817 1431q77 0 141 -11.5t119.5 -33T1182 1333t96 -74l-31 -45q-8 -12 -25 -12q-9 0 -23 10.5t-35.5 26t-52 34t-72.5 34t-97 26T817 1343q-129 0 -237 -44.5t-186 -127T272.5 971.5T229 708q0 -150 43 -268T391 240.5t179.5 -125T795 72q76 0 135.5 10T1040 112t93 49t85 68q5 4 9.5 6.5T1238 238Z"
></glyph
><glyph unicode="D" horiz-adv-x="1520" d="M1401 708q0 -164 -49 -295T1214 190T1001 49T726 0H210V1415H726q151 0 275 -49t213 -141t138 -223t49 -294ZM1295 708q0 148 -41 264t-115.5 196T959 1290t-233 42H313V83H726q128 0 233 42t179.5 122T1254 443t41 265Z"
></glyph
><glyph unicode="E" horiz-adv-x="1182" d="M1058 1415v-85H313V758H933V675H313V85h745V0H210V1415h848Z"
></glyph
><glyph unicode="F" horiz-adv-x="1144" d="M1058 1415v-85H313V735H958V650H313V0H210V1415h848Z"
></glyph
><glyph unicode="G" horiz-adv-x="1497" d="M818 67q73 0 133 7.5T1062.5 97t98 36.5T1254 182V563H982q-11 0 -18.5 7T956 586v56h391V139Q1294 102 1237 73T1115 24.5T975 -5.5T811 -16Q658 -16 531.5 35.5t-217 146T174 410T124 708q0 164 50 297.5t142 228t223.5 146T834 1431q81 0 149.5 -11T1111 1387.5t110 -53t98 -72.5l-27 -44q-9 -15 -25 -15q-9 0 -17 4q-15 6 -43.5 28t-77 46T1008 1324t-177 19q-138 0 -249 -44T392.5 1173T271.5 973T229 708q0 -150 43 -269T392.5 237.5T578.5 111T818 67Z"
></glyph
><glyph unicode="H" horiz-adv-x="1512" d="M1302 0H1199V678H313V0H210V1415H313V755h886v660h103V0Z"
></glyph
><glyph unicode="I" horiz-adv-x="598" d="M350 0H247V1415H350V0Z"
></glyph
><glyph unicode="J" horiz-adv-x="908" d="M698 472Q698 353 668.5 262t-84 -153T451.5 15.5T275 -16q-45 0 -91 7T89 13q2 14 3.5 28T95 69q2 9 7.5 16T122 92q9 0 21.5 -3.5t30 -7.5t40 -7.5T266 70q76 0 137 24t104 73.5t65.5 125T595 470v945H698V472Z"
></glyph
><glyph unicode="K" horiz-adv-x="1320" d="M342 762h84q19 0 33 1.5t25.5 6T506 781t21 18l571 587q16 16 29.5 22.5t33.5 6.5h83L626 780Q607 760 592.5 749T560 731q21 -6 37.5 -18.5T631 680L1283 0h-83q-26 0 -37 7.5T1140 27L541 639q-11 11 -20 19t-20.5 13.5t-27.5 8T433 682H342V0H240V1417H342V762Z"
></glyph
><glyph unicode="L" horiz-adv-x="1023" d="M312 87H983V0H210V1415H312V87Z"
></glyph
><glyph unicode="M" horiz-adv-x="1818" d="M890 412q15 -28 26 -60q6 16 12.5 31.5T943 413l556 983q8 13 16 16t22 3h71V0h-90V1206q0 26 3 55L964 272Q950 246 924 246H908q-25 0 -40 26L296 1262q3 -29 3 -56V0H210V1415h70q14 0 22.5 -3T319 1396L890 412v0Z"
></glyph
><glyph unicode="N" horiz-adv-x="1512" d="M260 1415q14 0 22 -3.5T299 1396L1215 170q-3 30 -3 58V1415h90V0h-49q-23 0 -37 20L296 1248q3 -30 3 -57V0H210V1415h50v0Z"
></glyph
><glyph unicode="O" horiz-adv-x="1595" d="M1472 708q0 -164 -49 -297.5t-138 -228T1072 36.5T797 -15Q648 -15 524 36.5t-213 146t-138.5 228T123 708q0 163 49.5 296.5t138.5 228T524 1379t273 52q151 0 275 -51.5T1285 1233t138 -228.5T1472 708ZM1366 708q0 148 -41 266t-115.5 200T1030 1299.5T797 1343q-126 0 -230.5 -43.5T386.5 1174T269.5 974T228 708q0 -149 41.5 -266.5T386.5 242t180 -125T797 74q128 0 233 43t179.5 125T1325 441.5T1366 708Z"
></glyph
><glyph unicode="P" horiz-adv-x="1187" d="M342 570V0H240V1415H605q249 0 375.5 -109T1107 995q0 -93 -34.5 -171T973 689.5t-158 -88T605 570H342ZM342 652H605q94 0 168 26t125.5 72t79 108.5T1005 995q0 163 -100.5 251T605 1334H342V652Z"
></glyph
><glyph unicode="Q" horiz-adv-x="1595" d="M1472 708q0 -107 -21.5 -201.5T1389 332.5T1291.5 190T1162 82l368 -394h-86q-20 0 -36 5.5t-28 19.5L1078 39Q1015 13 945 -1T797 -15Q648 -15 524 36.5t-213 146t-138.5 228T123 708q0 163 49.5 296.5t138.5 228T524 1379t273 52q151 0 275 -51.5T1285 1233t138 -228.5T1472 708ZM1366 708q0 148 -41 266t-115.5 200T1030 1299.5T797 1343q-126 0 -230.5 -43.5T386.5 1174T269.5 974T228 708q0 -149 41.5 -266.5T386.5 242t180 -125T797 74q128 0 233 43t179.5 125T1325 441.5T1366 708Z"
></glyph
><glyph unicode="R" horiz-adv-x="1262" d="M342 640V0H240V1415H601q245 0 366 -94.5T1088 1043q0 -81 -28 -148T979.5 777.5T853 694.5T686 652q24 -15 43 -40L1216 0h-89q-16 0 -27.5 6T1077 26L624 600q-17 22 -36.5 31T527 640H342ZM342 716H588q94 0 168.5 22.5t126 64.5T961 904t27 133q0 151 -99 224t-288 73H342V716Z"
></glyph
><glyph unicode="S" horiz-adv-x="1045" d="M894 1243q-9 -17 -26 -17q-13 0 -33.5 18.5t-55.5 41T691.5 1327T562 1346q-77 0 -135.5 -22t-98 -60t-60 -88T248 1071q0 -72 30.5 -119T359 872T472.5 816.5T603 772T733.5 723.5T847 657t80.5 -98.5T958 413q0 -89 -30.5 -167.5T839 109T697 17.5T505 -16Q365 -16 264 33.5T87 169l28 44q12 15 28 15q9 0 23 -12t34 -29.5t48 -38t65 -38T398 81T507 69q84 0 150 25.5T768.5 164T838 268.5T862 398q0 75 -30.5 123.5t-80.5 81T637.5 657T507 700T376.5 747T263 813.5t-80.5 101T152 1066q0 71 27 137t79 116.5t128.5 81T561 1431q110 0 197.5 -35T918 1289l-24 -46Z"
></glyph
><glyph unicode="T" horiz-adv-x="1169" d="M1134 1415v-87H637V0H535V1328H35v87H1134Z"
></glyph
><glyph unicode="U" horiz-adv-x="1467" d="M733 73q102 0 182.5 35.5T1052 207t85.5 148.5T1167 540v875h102V540q0 -117 -37 -218.5t-106.5 -177T956.5 26T733 -17Q609 -17 509.5 26t-169 118.5T234 321.5T197 540v875H300V541q0 -99 29.5 -184.5T414.5 208t136 -99T733 73Z"
></glyph
><glyph unicode="V" horiz-adv-x="1289" d="M15 1415H96q14 0 23 -7.5T133 1388L615 214q19 -46 31 -98q11 54 29 98l481 1174q5 11 14.5 19t23.5 8h80L690 0H599L15 1415Z"
></glyph
><glyph unicode="W" horiz-adv-x="1974" d="M17 1415h85q29 0 37 -27L496 225q6 -20 10.5 -43T516 134q5 25 10 48t12 43L938 1388q4 11 14 19t24 8h28q14 0 23 -7.5t14 -19.5L1441 225q7 -20 12.5 -42T1464 136q5 24 9 46.5t10 42.5l357 1163q3 11 13.5 19t24.5 8h78L1511 0h-92L1001 1228q-8 24 -14 51q-6 -27 -14 -51L554 0H463L17 1415Z"
></glyph
><glyph unicode="X" horiz-adv-x="1199" d="M528 726L40 1415H141q14 0 20.5 -6T173 1395L603 775q3 8 6.5 15.5T618 806l415 588q6 8 13 14.5t17 6.5h98L672 731L1181 0H1080q-14 0 -22 8.5T1045 25L599 677q-4 -15 -14 -29L147 25Q140 16 131 8T110 0H17L528 726Z"
></glyph
><glyph unicode="Y" horiz-adv-x="1199" d="M651 584V0H548V584L25 1415h89q14 0 22.5 -6.5T153 1390L558 740q14 -23 24 -44.5T600 652q8 22 18 43.5T642 740l404 650q6 11 15 18t23 7h90L651 584Z"
></glyph
><glyph unicode="Z" horiz-adv-x="1266" d="M1163 1415v-35q0 -21 -14 -41L251 85h904V0H115V37q0 19 12 36l900 1257H141v85H1163Z"
></glyph
><glyph unicode="[" horiz-adv-x="600" d="M175 -264V1517H493v-36q0 -13 -8.5 -21T462 1452H256V-199H462q14 0 22.5 -8t8.5 -21v-36H175Z"
></glyph
><glyph unicode="\" horiz-adv-x="715" d="M-8 1455H33q39 0 54 -37L709 -84H670q-17 0 -33 9.5T613 -45L-8 1455Z"
></glyph
><glyph unicode="]" horiz-adv-x="600" d="M107 -228q0 13 8 21t22 8H343V1452H137q-14 0 -22 8t-8 21v36H424V-264H107v36Z"
></glyph
><glyph unicode="^" d="M544 1415h60L945 800H877q-11 0 -19.5 6.5T844 823L603 1259q-9 17 -16 32t-12 31q-5 -16 -11.5 -31.5T548 1259L308 823q-5 -8 -13 -15.5T274 800H203l341 615Z"
></glyph
><glyph unicode="_" horiz-adv-x="788" d="M788 -205v-68H0v68H788Z"
></glyph
><glyph unicode="`" horiz-adv-x="585" d="M178 1431q24 0 36 -7t23 -25L394 1161H340q-12 0 -20.5 3.5T303 1178L86 1431h92Z"
></glyph
><glyph unicode="a" horiz-adv-x="973" d="M797 0Q767 0 760 28L746 155Q705 115 664.5 83T580 29T485 -4.5T373 -16q-51 0 -99 15T189 45t-59.5 79.5T107 241q0 63 36 117t112.5 94t197 64T742 544V648q0 138 -59.5 212.5T506 935q-72 0 -122.5 -20T298 871T241 827T204 807q-20 0 -30 18l-17 29q78 78 164 118t195 40q80 0 140 -25.5t99.5 -73T815 798.5T835 648V0H797ZM397 53q58 0 106.5 12.5t90 35T671 154t71 67V480Q600 476 497.5 458.5T328.5 411t-98 -71.5T199 245q0 -50 16.5 -86.5T259 98.5T322 64T397 53Z"
></glyph
><glyph unicode="b" horiz-adv-x="1092" d="M172 0V1455h96V821q66 88 153 139t196 51q183 0 285.5 -126.5T1005 504q0 -109 -28.5 -203.5t-84 -164T756.5 27T571 -13Q467 -13 392 27.5T263 147L257 25Q254 0 230 0H172ZM590 935q-99 0 -179 -51T268 742V217Q325 131 394 96.5T553 62q88 0 154 32t110.5 90.5t67 140T907 504q0 222 -82 326.5T590 935Z"
></glyph
><glyph unicode="c" horiz-adv-x="910" d="M817 862q-5 -5 -9.5 -8.5T795 850q-10 0 -27.5 13.5T721 893t-72.5 29.5T543 936q-86 0 -152.5 -30.5T278.5 818T209 680T185 498q0 -105 24.5 -186T279 175.5T388 91T530 62q72 0 120.5 17t80 37t50 37T810 170q13 0 20 -10l26 -32Q833 98 798 72T719 27T623.5 -2.5T516 -13q-95 0 -173.5 34.5t-135 100T119.5 282T88 498q0 114 30 208t87.5 162t141 105.5T538 1011q97 0 172.5 -31T842 896L817 862Z"
></glyph
><glyph unicode="d" horiz-adv-x="1092" d="M867 0Q842 0 838 26L828 183Q762 93 673.5 40T475 -13Q292 -13 189.5 114T87 495q0 109 28.5 203.5t84 164T335.5 972T521 1012q101 0 175 -37.5T824 865v590h96V0H867ZM502 64q99 0 179 51T824 257V782Q766 867 696.5 902T539 937q-88 0 -154 -32T274.5 814.5t-67 -140T185 495q0 -222 82 -326.5T502 64Z"
></glyph
><glyph unicode="e" horiz-adv-x="1022" d="M537 1011q84 0 155.5 -29t124 -84.5T898.5 761T928 575q0 -22 -6.5 -30T901 537H182V518q0 -112 26 -197T282 178.5T398 92T550 63q75 0 130 16.5t92.5 37t59.5 37T864 170q13 0 20 -10l26 -32Q886 98 846.5 72t-88 -44.5T654.5 -2T543 -13Q441 -13 357 22.5T213 126T120.5 292.5T88 518q0 107 30.5 197.5t88 156T347.5 974T537 1011ZM538 940q-77 0 -138 -24T294.5 847t-72 -108T186 598H842q0 80 -22 143.5T758 849t-96 67.5T538 940Z"
></glyph
><glyph unicode="f" horiz-adv-x="644" d="M199 0V891L59 900q-29 2 -29 25v39H199v126q0 85 22 149.5T283 1347t96.5 64.5T504 1433q31 0 62.5 -5.5T622 1412l-3 -46q-1 -14 -19 -14q-12 0 -32.5 3t-50.5 3q-49 0 -90.5 -14.5T355 1297t-46.5 -83.5T292 1087V964H615V893H294V0H199Z"
></glyph
><glyph unicode="g" horiz-adv-x="1009" d="M490 1012q65 0 120.5 -16T710 951H965V918q0 -25 -28 -27L786 880q28 -38 43 -85.5T844 693q0 -72 -26 -130.5t-72.5 -100T634 398T490 375q-86 0 -156 26Q292 377 268 344T244 280q0 -43 30 -66t79.5 -33.5T466.5 167t129 -6.5T724.5 148t113 -31.5T917 53.5T947 -54q0 -62 -31 -119T826.5 -274T685 -344.5T499 -371q-105 0 -184 21.5t-132.5 58T102 -207T75 -105q0 79 52 136t143 88q-50 17 -79.5 49T161 257q0 21 8 44t24 45.5T231.5 389T284 425Q213 466 173.5 534T134 693q0 72 25.5 130.5t72 100.5T344 989t146 23ZM859 -67q0 47 -24.5 75.5T769 53T674.5 75.5T562.5 85T445 91T335 103Q297 88 264.5 68.5T209 24.5t-36 -54T160 -94q0 -44 22.5 -81.5t66 -65T355 -284t145 -16q76 0 141.5 17t114 48t76 74T859 -67ZM490 440q64 0 114 18.5T688 510t51.5 79T757 691q0 56 -18 102.5T686.5 873t-84 51T490 942q-63 0 -113 -18T292.5 873T240 793.5T222 691q0 -56 18 -102t52.5 -79T377 458.5T490 440Z"
></glyph
><glyph unicode="h" horiz-adv-x="1082" d="M162 0V1455h95V825q69 85 157.5 135.5T613 1011q82 0 144.5 -26T861 910T923 792T944 636V0H849V636q0 140 -64 219.5T589 935q-98 0 -182 -50.5T257 746V0H162Z"
></glyph
><glyph unicode="i" horiz-adv-x="475" d="M285 995V0H190V995h95ZM327 1338q0 -18 -7.5 -33.5T300 1277t-28 -19t-34 -7q-18 0 -34 7t-28 19t-19 27.5t-7 33.5q0 18 7 34.5t19 28.5t28 19t34 7q18 0 34 -7t28 -19t19.5 -28.5T327 1338Z"
></glyph
><glyph unicode="j" horiz-adv-x="471" d="M285 995V-127q0 -52 -15 -96t-44.5 -76.5t-74 -51T47 -369q-29 0 -52 5t-45 16l5 48q1 12 14 12q8 0 22.5 -4T31 -296q81 0 120 44t39 125V995h95ZM327 1338q0 -18 -7.5 -33.5T300 1277t-28 -19t-34 -7q-18 0 -34 7t-28 19t-19 27.5t-7 33.5q0 18 7 34.5t19 28.5t28 19t34 7q18 0 34 -7t28 -19t19.5 -28.5T327 1338Z"
></glyph
><glyph unicode="k" horiz-adv-x="984" d="M268 1455V568h46q14 0 26.5 4T368 591L767 970q11 11 22.5 18t29.5 7h84L464 578Q454 568 445 559.5T425 545q16 -8 27 -19t23 -24L936 0H853Q839 0 828 5.5T806 23L388 471q-17 18 -31 24.5T313 502H268V0H172V1455h96Z"
></glyph
><glyph unicode="l" horiz-adv-x="475" d="M285 1455V0H190V1455h95Z"
></glyph
><glyph unicode="m" horiz-adv-x="1591" d="M162 0V995h52q26 0 30 -25l9 -144q29 41 62 75t70.5 58.5t80 38T555 1011q109 0 174 -63.5T817 771q18 62 50.5 107T942 952.5t91.5 44T1135 1011q74 0 133 -24.5T1368.5 914T1432 796t22 -160V0h-96V636q0 146 -63 222.5T1115 935q-52 0 -99.5 -19t-84 -56.5T873.5 766T852 636V0H757V636q0 145 -58 222T530 935q-81 0 -150 -48.5T257 752V0H162Z"
></glyph
><glyph unicode="n" horiz-adv-x="1082" d="M162 0V995h52q26 0 30 -25l9 -150q68 86 158.5 138.5T613 1011q82 0 144.5 -26T861 910T923 792T944 636V0H849V636q0 140 -64 219.5T589 935q-98 0 -182 -50.5T257 746V0H162Z"
></glyph
><glyph unicode="o" horiz-adv-x="1082" d="M541 1011q107 0 191.5 -36.5T875 871T963.5 709.5T994 498Q994 381 963.5 287T875 126T732.5 23T541 -13Q434 -13 349.5 23t-143 103t-89 161T87 498q0 117 30.5 211.5t89 161.5t143 103.5T541 1011ZM541 62q89 0 155.5 30.5t111 87.5T874 317.5T896 498q0 99 -22 180T807.5 816.5T696.5 905T541 936q-89 0 -155.5 -31t-111 -88.5T207.5 678T185 498q0 -100 22.5 -180.5T274.5 180t111 -87.5T541 62Z"
></glyph
><glyph unicode="p" horiz-adv-x="1070" d="M162 -352V995h52q13 0 21 -5.5T244 970l9 -154q66 90 154.5 143T606 1012q184 0 286 -127T994 504Q994 395 965.5 300.5T882 136.5T746.5 27T561 -13Q459 -13 385 24T257 134V-352H162ZM579 935q-99 0 -179.5 -51.5T257 740V218Q314 132 383.5 97T542 62q88 0 154 32t110.5 90.5t67 140T896 504q0 222 -81.5 326.5T579 935Z"
></glyph
><glyph unicode="q" horiz-adv-x="1092" d="M920 995V-352H824V177Q758 89 670.5 38T475 -13Q292 -13 189.5 114T87 495q0 109 28.5 203.5t84 164T335.5 972T521 1012q103 0 178.5 -39T829 858l9 112q1 25 29 25h53ZM502 64q99 0 179 51T824 257V783Q770 865 699 901T539 937q-88 0 -154 -32T274.5 814.5t-67 -140T185 495q0 -222 82 -326.5T502 64Z"
></glyph
><glyph unicode="r" horiz-adv-x="794" d="M162 0V995h50q17 0 24.5 -7T245 964l8 -210q48 121 128 189.5T578 1012q45 0 83 -9.5T733 975L720 909q-3 -16 -20 -16q-6 0 -17 4t-27.5 9T615 915t-55 4Q447 919 374.5 849T257 647V0H162Z"
></glyph
><glyph unicode="s" horiz-adv-x="860" d="M710 872q-7 -14 -22 -14q-11 0 -28.5 12.5t-46 28t-70 28T442 939q-54 0 -98.5 -15.5T267.5 882t-49 -60.5T201 749q0 -47 24 -78t63 -53t88.5 -38T478 548T579.5 512.5T668 464t63 -71T755 291q0 -65 -23.5 -121t-68 -97T554 8T406 -16Q301 -16 225 17.5T89 105l23 34q5 8 11 12t17 4q13 0 32 -16t49.5 -34.5T297.5 70T410 54q63 0 111 17.5T601 119t48.5 70.5T666 275q0 50 -24 83t-63 56t-88.5 39t-102 32t-102 35T198 568t-63 70.5T111 742q0 53 23 102t65.5 86T303 989t137 22q91 0 161.5 -26T731 905L710 872Z"
></glyph
><glyph unicode="t" horiz-adv-x="713" d="M434 -16Q333 -16 276.5 40T220 213V893H77q-11 0 -18 6t-7 17v37l170 12l24 356q1 9 7.5 16t17.5 7h45V964H629V893H316V218q0 -41 10.5 -70.5T355.5 99T399 71t54 -9q36 0 62 10.5t45 23t31 23T610 129q8 0 16 -10L652 77Q614 35 555.5 9.5T434 -16Z"
></glyph
><glyph unicode="u" horiz-adv-x="1082" d="M233 995V359q0 -140 64 -219.5T492 60q97 0 181 49.5T824 247V995h96V0H867Q839 0 838 26l-9 148Q760 88 669.5 36T468 -16q-83 0 -145 26T220 85T158 203T137 359V995h96Z"
></glyph
><glyph unicode="v" horiz-adv-x="974" d="M529 0H445L25 995h75q14 0 22.5 -7.5T135 971L463 186q10 -23 15 -44t10 -42q5 21 10.5 42.5T513 186L843 971q5 11 13.5 17.5T877 995h72L529 0Z"
></glyph
><glyph unicode="w" horiz-adv-x="1474" d="M22 995H95q14 0 23 -7.5T130 971L381 186q7 -23 11 -44t8 -42q5 21 11 42t14 44L692 978q7 22 28 22h39q22 0 29 -22L1051 186q15 -45 24 -87q4 21 8.5 42.5T1096 186l252 785q8 24 34 24h70L1119 0h-70q-16 0 -23 21L753 829q-5 15 -9 30t-7 30q-3 -15 -6.5 -30T722 829L446 21Q440 0 422 0H355L22 995Z"
></glyph
><glyph unicode="x" horiz-adv-x="921" d="M395 509L49 995h91q14 0 20.5 -6T172 975L464 553q4 17 17 36L754 974q5 9 12.5 15t17.5 6h88L524 514L886 0H795Q781 0 773 8.5T760 25L458 465q-5 -20 -15 -34L153 23Q146 14 138.5 7T120 0H35L395 509Z"
></glyph
><glyph unicode="y" horiz-adv-x="974" d="M379 -320q-6 -14 -15.5 -23T336 -352H268L443 37L22 995h79q15 0 23.5 -7.5T137 971L472 197q6 -15 10.5 -30.5T491 135q5 16 10.5 31.5T513 197L844 971q5 11 14 17.5t20 6.5h73L379 -320Z"
></glyph
><glyph unicode="z" horiz-adv-x="904" d="M826 955q0 -21 -14 -38L189 75H801V0H74V38q0 17 15 37L714 920H107v75H826V955Z"
></glyph
><glyph unicode="{" horiz-adv-x="600" d="M219 445q0 33 -11 60.5t-31.5 48T127 585T63 596v61q35 0 64 11t49.5 31.5t31.5 48T219 808q0 55 -9.5 107T189 1019t-20.5 104.5T159 1232q0 61 19 113t55 90.5t88.5 60T440 1517h55v-42q0 -11 -8.5 -17T470 1452H437q-43 0 -78.5 -15t-61 -43t-40 -68T243 1237q0 -57 9 -111t20 -106.5t20 -105T301 809q0 -37 -12.5 -68t-33 -54t-47 -38.5T153 626q29 -6 55.5 -21.5t47 -39t33 -54T301 444q0 -53 -9 -105.5T272 233T252 126T243 16q0 -49 14.5 -89t40 -68t61 -43T437 -199h33q8 0 16.5 -6t8.5 -17v-42H440q-66 0 -118.5 21.5t-88.5 60T178 -92T159 21q0 56 9.5 108.5T189 234t20.5 104T219 445Z"
></glyph
><glyph unicode="|" horiz-adv-x="600" d="M262 1517h75V-352H262V1517Z"
></glyph
><glyph unicode="}" horiz-adv-x="600" d="M381 445q0 -55 9.5 -107T411 234T431.5 129.5T441 21q0 -61 -19 -113t-55 -90.5t-88.5 -60T160 -264H105v42q0 11 8 17t17 6h33q43 0 78.5 15t61 43t40 68T357 16q0 56 -9 110T328 233T308 338.5T299 444q0 37 12 67.5t32.5 54t47 39T446 626q-29 7 -55.5 22.5t-47 38.5T311 741t-12 68q0 53 9 105.5t20 105T348 1126t9 111q0 49 -14.5 89t-40 68t-61 43T163 1452H130q-9 0 -17 6t-8 17v42h55q66 0 118.5 -21.5t88.5 -60T422 1345t19 -113q0 -56 -9.5 -108.5T411 1019T390.5 915T381 808q0 -33 11 -60.5t31.5 -48t49 -31.5T536 657V596q-35 0 -63.5 -11t-49 -31.5T392 505.5T381 445Z"
></glyph
><glyph unicode="~" d="M779 567q37 0 67.5 13.5T898 618t32.5 57T942 747h78q0 -55 -16 -102T958 563T884 508T784 488q-51 0 -104.5 19.5T573.5 551T472 594.5T380 614q-38 0 -67.5 -13.5T262 563T229.5 506T217 434H140q0 55 16 102t46 82t73.5 55T375 693q52 0 105.5 -19.5T586 630T687 586.5T779 567Z"
></glyph
><glyph unicode="&#xa0;" horiz-adv-x="386" d=""
></glyph
><glyph unicode="&#xa1;" horiz-adv-x="645" d="M279 -352V198q0 45 1 85t2.5 81.5T287 452t6 102h65q3 -56 6 -102t4.5 -87.5T371 283t1 -85V-352H279ZM230 919q0 39 26.5 65.5T322 1011q19 0 36 -7t29.5 -19.5t20 -29.5T415 919q0 -20 -7.5 -37t-20 -29.5T358 832.5T322 825q-39 0 -65.5 27.5T230 919Z"
></glyph
><glyph unicode="&#xa2;" d="M589 -11Q493 -5 414 32T278 134T190 290.5T159 498q0 112 32 205.5t93.5 161t151 106T640 1011l10 205q1 13 8.5 22.5T680 1248h36L704 1008q87 -8 154.5 -37T979 896L955 863q-5 -5 -9.5 -8.5T933 851q-9 0 -25.5 11.5t-44 26t-67.5 28T700 935L657 61q75 2 126 19t84.5 36.5t53 35.5T951 168q8 0 12 -2t8 -7l24 -31Q972 99 937.5 74.5T859 31.5T763 1.5T653 -12L643 -222q-1 -13 -8.5 -22T613 -253H577l12 242ZM253 498q0 -98 23.5 -175.5t68 -133T451.5 102T592 63l44 873Q544 933 472.5 901.5t-120 -88T278.5 677T253 498Z"
></glyph
><glyph unicode="&#xa3;" d="M67 664q0 15 9.5 25T103 699H268V993q0 93 26 173t77.5 138.5t129 92T680 1430q76 0 134 -18.5T915.5 1361T990 1286t53 -91l-38 -22q-9 -5 -22 -5q-17 0 -30 17q-20 31 -42.5 60.5T857 1298t-74 36.5T680 1348q-78 0 -136.5 -26T445 1249.5t-60 -112T365 993V699H844V660q0 -11 -8.5 -19.5T814 632H365V328q0 -89 -36 -149.5T230 75q22 4 43.5 6T318 83h787V43q0 -15 -12 -29T1061 0H91V65q34 13 66 33t57 49t39.5 68T268 306V632H67v32Z"
></glyph
><glyph unicode="&#xa4;" d="M237 671q0 62 20 116.5T313 887L159 1041l49 50L362 937q45 36 100 57t118 21q62 0 116.5 -20.5T796 938l154 154l49 -50L846 889q36 -45 57 -100T924 671q0 -62 -20.5 -116.5T847 455L1001 301L951 251L797 405Q752 369 697 348.5T580 328q-62 0 -116.5 20T364 404L209 250l-49 50L314 453q-36 45 -56.5 100T237 671ZM309 671q0 -56 21.5 -105t58 -85.5t86 -58T580 401q56 0 105.5 21.5t86.5 58T830.5 566T852 671q0 56 -21.5 105.5T772 863t-86.5 58.5T580 943q-56 0 -105.5 -21.5T388.5 863t-58 -86.5T309 671Z"
></glyph
><glyph unicode="&#xa5;" d="M161 616H507L85 1415h79q26 0 39 -25L549 725q8 -20 14.5 -37.5T575 653q9 33 26 72l345 665q5 11 14.5 18t23.5 7h80L641 616H988V558H622V440H988V382H622V0H527V382H161v58H527V558H161v58Z"
></glyph
><glyph unicode="&#xa6;" horiz-adv-x="600" d="M262 1517h75V739H262v778ZM262 425h75V-352H262V425Z"
></glyph
><glyph unicode="&#xa7;" horiz-adv-x="1002" d="M808 1291q-7 -13 -22 -13q-11 0 -28.5 12.5t-46 27.5t-70 27.5T540 1358q-56 0 -101.5 -15.5t-77.5 -42T311.5 1239T294 1165q0 -46 25 -80t66 -61.5T478 973T584.5 926T691 874.5T784 812t66 -81.5T875 622q0 -83 -42 -144.5T709 381q54 -38 87.5 -87T830 176Q830 111 806.5 55t-68 -97T629 -107T481 -131q-105 0 -181 33.5T164 -10l23 34q5 8 11 12t17 4q13 0 32 -16t50 -34.5T374 -45T488 -61q62 0 110 17T679 3t50 70.5T746 161q0 51 -26 89t-69 67.5T553.5 371t-111 48t-111 50T234 529.5t-69 79T139 714q0 77 45.5 138.5T333 951q-55 37 -89.5 86.5T209 1161q0 54 23 102.5t65.5 86T401 1409t137 22q91 0 161.5 -26.5T829 1325l-21 -34ZM224 727q0 -41 19.5 -73.5t53 -59t77.5 -49T466 502t97.5 -42.5T658 413q71 32 102 80t31 109q0 45 -18 80t-48.5 62.5t-71 49.5T568 836.5t-91.5 40T387 919Q298 881 261 834T224 727Z"
></glyph
><glyph unicode="&#xa8;" horiz-adv-x="585" d="M203 1284q0 -16 -7 -30.5T178 1228t-26.5 -17.5T120 1204q-16 0 -30.5 6.5t-26 17.5t-18 25.5T39 1284q0 17 6.5 32t18 26.5t26 18T120 1367q16 0 31.5 -6.5t26.5 -18T196 1316t7 -32ZM546 1284q0 -16 -7 -30.5T521 1228t-26.5 -17.5T463 1204q-17 0 -31.5 6.5t-26 17.5t-18 25.5T381 1284q0 17 6.5 32t18 26.5t26 18T463 1367q16 0 31.5 -6.5t26.5 -18T539 1316t7 -32Z"
></glyph
><glyph unicode="&#xa9;" horiz-adv-x="1613" d="M1080 414q12 10 23 10q5 0 9 -2t6 -4l31 -31q-59 -59 -139 -94T814 258q-96 0 -176.5 32.5T499.5 382T410 524T378 709q0 100 33.5 183T505 1034.5T648 1127t182 33q52 0 95.5 -7.5t80.5 -22t69 -35t63 -47.5l-24 -33q-7 -11 -20 -11q-10 0 -26.5 13t-45.5 28.5T947.5 1074T834 1087q-83 0 -151 -26.5T566.5 985t-75 -119T465 709q0 -90 26.5 -160T565 430.5t111.5 -74T818 331q85 0 146.5 20.5T1080 414ZM85 708q0 99 26 191.5T183.5 1072T296 1218t146 113t172 73t192 26q100 0 192 -26t172.5 -73T1317 1218t112.5 -146T1502 899.5T1528 708q0 -100 -26 -192T1429.5 344T1317 198T1170.5 85T998 12T806 -14q-99 0 -191.5 26T442 85T296 198T183.5 344T111 516T85 708ZM144 708q0 -139 51.5 -260.5T337 235.5T547.5 93T806 41q138 0 259.5 52T1277 235.5t142 212T1471 708q0 139 -52 260.5T1277 1181t-211.5 143.5T806 1377q-138 0 -258.5 -52.5T337 1181T195.5 968.5T144 708Z"
></glyph
><glyph unicode="&#xaa;" horiz-adv-x="671" d="M565 839H533q-11 0 -16 4t-10 15l-10 68Q472 903 447.5 885t-51 -30t-57 -18.5T273 830q-33 0 -63 9t-53 27.5t-37 47T106 981q0 36 21 68.5t67.5 57t120.5 40T494 1164v51q0 76 -34 115.5T353 1370q-43 0 -72.5 -11T231 1335.5T197.5 1312T173 1301q-15 0 -22 13l-12 23q48 48 101 70.5T360 1430q101 0 153 -58.5T565 1215V839ZM292 883q33 0 61 7t52.5 19.5t46 29.5T494 976v138q-168 -5 -243.5 -39T175 985q0 -27 9.5 -46.5t26 -32t37.5 -18T292 883Z"
></glyph
><glyph unicode="&#xab;" horiz-adv-x="874" d="M155 513v13L396 904l30 -15q16 -10 16 -25q0 -12 -7 -23L252 548Q239 528 230 519q10 -8 22 -28L435 197q7 -11 7 -23q0 -15 -16 -25L396 134L155 513ZM410 513v13L651 904l30 -15q16 -10 16 -25q0 -12 -7 -23L507 548Q494 528 485 519q10 -8 22 -28L690 197q7 -11 7 -23q0 -15 -16 -25L651 134L410 513Z"
></glyph
><glyph unicode="&#xac;" d="M164 707H993V339H911V634H164v73Z"
></glyph
><glyph unicode="&#xad;" horiz-adv-x="665" d="M100 634H565V553H100v81Z"
></glyph
><glyph unicode="&#xae;" horiz-adv-x="1613" d="M85 708q0 99 26 191.5T183.5 1072T296 1218t146 113t172 73t192 26q100 0 192 -26t172.5 -73T1317 1218t112.5 -146T1502 899.5T1528 708q0 -100 -26 -192T1429.5 344T1317 198T1170.5 85T998 12T806 -14q-99 0 -191.5 26T442 85T296 198T183.5 344T111 516T85 708ZM144 708q0 -139 51.5 -260.5T337 235.5T547.5 93T806 41q138 0 259.5 52T1277 235.5t142 212T1471 708q0 139 -52 260.5T1277 1181t-211.5 143.5T806 1377q-138 0 -258.5 -52.5T337 1181T195.5 968.5T144 708ZM624 657V266H539v885H786q153 0 231.5 -57.5T1096 918q0 -100 -64.5 -164T850 674q12 -7 21.5 -16.5T890 634L1175 266h-80q-10 0 -17.5 3T1064 282L794 633q-8 11 -20.5 17.5T734 657H624ZM624 721H772q121 0 180.5 48.5T1012 909q0 92 -54 134t-172 42H624V721Z"
></glyph
><glyph unicode="&#xaf;" horiz-adv-x="585" d="M20 1317H565v-65H20v65Z"
></glyph
><glyph unicode="&#xb0;" horiz-adv-x="786" d="M91 1134q0 62 23.5 116.5t64 95T274 1409t118 23q63 0 118 -23t95.5 -63.5t64 -95T693 1134q0 -62 -23.5 -116t-64 -94.5T510 859.5T392 836q-63 0 -118 23.5t-95.5 64t-64 94.5T91 1134ZM162 1134q0 -48 18 -90t49 -73t73 -49t90 -18q48 0 90 18t72.5 49t48.5 73t18 90q0 48 -18 90t-48.5 73.5T482 1347t-90 18q-48 0 -90 -18t-73 -49.5T180 1224t-18 -90Z"
></glyph
><glyph unicode="&#xb1;" d="M617 1153V747h431V674H617V272H539V674H109v73H539v406h78ZM109 153h939V80H109v73Z"
></glyph
><glyph unicode="&#xb2;" horiz-adv-x="662" d="M342 1623q44 0 83 -13t67.5 -37.5t45 -61T554 1427q0 -40 -12.5 -74.5t-33.5 -66t-49 -61T401 1166L194 956q19 5 38.5 7.5T272 966H547q24 0 24 -24V900H97v24q0 8 3 16t11 15l235 237q28 28 52.5 56t43 56.5t29 58.5t10.5 62q0 35 -11.5 61t-31 43T393 1554.5t-54 8.5q-62 0 -98 -35.5T185 1437q-7 -19 -27 -19q-2 0 -8 0.5t-9 1.5l-30 5q14 96 76 147t155 51Z"
></glyph
><glyph unicode="&#xb3;" horiz-adv-x="662" d="M348 1623q44 0 82 -12.5t65.5 -36t43.5 -57T555 1441q0 -66 -36 -109.5T423 1269q73 -17 111.5 -59T573 1102q0 -48 -18.5 -86.5T504 949.5T429 907T338 892q-60 0 -100.5 15t-68 40.5t-44 59T98 1076l30 13q4 2 7.5 3t8.5 1q8 0 15 -4t10 -12l3 -8q4 -12 13.5 -32T213 998.5T260.5 966T335 952q41 0 72 13.5t51.5 34.5t31 47t10.5 51q0 33 -10.5 59T456 1201.5T396 1230t-90 10v49q91 2 135.5 39.5T486 1429q0 34 -11 59t-30.5 41.5t-45 24.5t-54.5 8q-63 0 -99.5 -32.5T191 1438q-6 -20 -24 -20q-7 0 -22 3l-25 4q14 96 75.5 147T348 1623Z"
></glyph
><glyph unicode="&#xb4;" horiz-adv-x="585" d="M517 1431L301 1178q-8 -10 -16.5 -13.5T264 1161H207l157 238q11 18 23 25t36 7h94Z"
></glyph
><glyph unicode="&#xb5;" horiz-adv-x="1082" d="M233 995V359q0 -140 64 -219.5T492 60q97 0 181 49.5T824 247V995h96V0H867Q839 0 838 26l-9 148Q759 86 674 40T487 -6Q389 -6 323 32.5T220 143q5 -43 6.5 -87T228 -24V-352H180q-20 0 -31.5 11T137 -310V995h96Z"
></glyph
><glyph unicode="&#xb6;" horiz-adv-x="1264" d="M1220 1415v-82H995V-190H910V1333H582V-190H496V699q-103 0 -185 28T172 804T84.5 919.5T54 1063q0 80 30.5 145T172 1319t139 71t185 25h724Z"
></glyph
><glyph unicode="&#xb7;" horiz-adv-x="532" d="M165 592q0 21 8 40t21.5 33T226 687t38 8q21 0 40 -8t33 -22t22 -33t8 -40q0 -20 -8 -38.5t-22 -32T304 500t-40 -8q-20 0 -38 8t-31.5 21.5t-21.5 32T165 592Z"
></glyph
><glyph unicode="&#xb8;" horiz-adv-x="585" d="M158 -273q5 0 13.5 -5.5t22 -12t33.5 -12t49 -5.5q51 0 79.5 22t28.5 60q0 25 -13 41.5T334 -157t-56.5 17T206 -129L248 5h61L279 -91q89 -16 135.5 -46T461 -226q0 -30 -13.5 -54t-38 -40.5T351 -346t-74 -9q-41 0 -80 11.5T132 -313l10 28q6 12 16 12Z"
></glyph
><glyph unicode="&#xb9;" horiz-adv-x="662" d="M187 949H345v540l4 37L205 1400q-8 -6 -16 -6q-11 0 -18 9l-22 31l211 184h58V949H565V900H187v49Z"
></glyph
><glyph unicode="&#xba;" horiz-adv-x="747" d="M375 1429q66 0 119 -21t90 -60.5t56.5 -95T660 1128q0 -69 -19.5 -124.5T584 908.5T494 848T375 827q-68 0 -121 21t-90.5 60.5t-57 95T87 1128q0 69 19.5 124.5t57 95T254 1408t121 21ZM375 885q104 0 156.5 64.5T584 1128q0 113 -52.5 178T375 1371q-107 0 -159.5 -65T163 1128q0 -114 52.5 -178.5T375 885Z"
></glyph
><glyph unicode="&#xbb;" horiz-adv-x="874" d="M223 134l-30 15q-17 9 -17 26q0 11 7 22L366 491q6 11 11.5 17.5T388 519q-5 5 -10.5 11.5T366 548L183 841q-7 11 -7 23q0 16 17 25l30 15L464 526V513L223 134ZM478 134l-30 15q-17 9 -17 26q0 11 7 22L621 491q6 11 11.5 17.5T643 519q-5 5 -10.5 11.5T621 548L438 841q-7 11 -7 23q0 16 17 25l30 15L719 526V513L478 134Z"
></glyph
><glyph unicode="&#xbc;" horiz-adv-x="1424" d="M1267 247h126V211q0 -16 -17 -16H1267V0h-63V195H879q-23 0 -25 16l-6 32l352 472h67V247ZM172 750H330v540l4 37L190 1201q-8 -6 -16 -6q-11 0 -18 9l-22 31l211 184h58V750H550V701H172v49ZM1204 582q0 23 3 52L918 247h286V582ZM408 31Q397 13 383.5 6.5T353 0H313l800 1380q10 17 22.5 26t32.5 9h42L408 31Z"
></glyph
><glyph unicode="&#xbd;" horiz-adv-x="1424" d="M1126 723q44 0 83 -13t67.5 -37.5t45 -61T1338 527q0 -40 -12.5 -74.5t-33.5 -66t-49 -61T1185 266L978 56q19 5 38.5 7.5T1056 66h275q24 0 24 -24V0H881V24q0 8 3 16t11 15l235 237q28 28 52.5 56t43 56.5t29 58.5t10.5 62q0 35 -11.5 61t-31 43T1177 654.5t-54 8.5q-62 0 -98.5 -32T969 537q-6 -19 -27 -19q-2 0 -12 1t-12 2l-23 4q14 96 76 147t155 51ZM172 750H330v540l4 37L190 1201q-8 -6 -16 -6q-11 0 -18 9l-22 31l211 184h58V750H550V701H172v49ZM361 31Q350 13 336.5 6.5T306 0H266l800 1380q10 17 22.5 26t32.5 9h42L361 31Z"
></glyph
><glyph unicode="&#xbe;" horiz-adv-x="1428" d="M1267 247h126V211q0 -16 -17 -16H1267V0h-63V195H879q-23 0 -25 16l-6 32l352 472h67V247ZM333 1424q44 0 82 -12.5t65.5 -36t43.5 -57T540 1242q0 -66 -36 -109.5T408 1070q73 -17 111.5 -59T558 903q0 -48 -18.5 -86.5T489 750.5T414 708T323 693q-60 0 -100.5 15t-68 40.5t-44 59T83 877l30 13q4 2 7.5 3t8.5 1q8 0 15 -4t10 -12l3 -8q4 -12 13.5 -32T198 799.5T245.5 767T320 753q41 0 72 13.5T443.5 801t31 47T485 899q0 33 -10.5 59T441 1002.5T381 1031t-90 10v49q91 2 135.5 39.5T471 1230q0 34 -11 59t-30.5 41.5t-45 24.5t-54.5 8q-62 0 -99 -35.5T176 1239q-7 -20 -24 -20q-1 0 -3 0t-6.5 1t-13.5 2t-24 4q14 96 75.5 147T333 1424ZM1204 582q0 23 3 52L918 247h286V582ZM416 31Q405 13 391.5 6.5T361 0H321l800 1380q10 17 22.5 26t32.5 9h42L416 31Z"
></glyph
><glyph unicode="&#xbf;" horiz-adv-x="741" d="M712 -224q-27 -27 -61 -52t-74.5 -44.5t-88.5 -31T384 -363q-69 0 -131.5 20.5t-109 59t-74 94T42 -63Q42 13 66 66.5t59.5 92t77.5 67T282 279t62.5 51T372 391l11 163h65l6 -170v-5q0 -42 -24 -72T370.5 251T293 198.5t-77.5 -61T156 56.5T132 -56q0 -54 21 -96.5t57 -72t83 -45T391 -285q69 0 116.5 17.5t79.5 39t50 39t28 17.5q9 0 13.5 -3.5T687 -185l25 -39ZM325 918q0 19 7 36t19.5 29.5t29 20T417 1011q19 0 36 -7.5t29.5 -20t20 -29.5T510 918q0 -20 -7.5 -36.5t-20 -29T453 833t-36 -7q-39 0 -65.5 26.5T325 918Z"
></glyph
><glyph unicode="&#xc0;" horiz-adv-x="1289" d="M1275 0h-79q-14 0 -23 7.5T1159 27L992 438H297L131 27Q127 16 117 8T93 0H15L594 1415H696L1275 0ZM328 514H962L673 1229q-7 17 -14 38.5T645 1313q-7 -24 -14 -45.5T617 1228L328 514ZM463 1770q24 0 35.5 -4.5T524 1748L752 1542H681q-12 0 -20 2t-18 10L350 1770H463Z"
></glyph
><glyph unicode="&#xc1;" horiz-adv-x="1289" d="M1275 0h-79q-14 0 -23 7.5T1159 27L992 438H297L131 27Q127 16 117 8T93 0H15L594 1415H696L1275 0ZM328 514H962L673 1229q-7 17 -14 38.5T645 1313q-7 -24 -14 -45.5T617 1228L328 514ZM933 1770L641 1554q-10 -7 -18.5 -9.5T602 1542H532l227 206q14 13 26 17.5t36 4.5H933Z"
></glyph
><glyph unicode="&#xc2;" horiz-adv-x="1289" d="M1275 0h-79q-14 0 -23 7.5T1159 27L992 438H297L131 27Q127 16 117 8T93 0H15L594 1415H696L1275 0ZM328 514H962L673 1229q-7 17 -14 38.5T645 1313q-7 -24 -14 -45.5T617 1228L328 514ZM924 1542H851q-8 0 -17.5 2.5T817 1552L661 1675q-8 6 -11 9t-5 5q-2 -2 -5.5 -5T628 1675L471 1552q-7 -5 -16 -7.5T438 1542H364l235 199h90L924 1542Z"
></glyph
><glyph unicode="&#xc3;" horiz-adv-x="1289" d="M1275 0h-79q-14 0 -23 7.5T1159 27L992 438H297L131 27Q127 16 117 8T93 0H15L594 1415H696L1275 0ZM328 514H962L673 1229q-7 17 -14 38.5T645 1313q-7 -24 -14 -45.5T617 1228L328 514ZM764 1616q42 0 64 27.5t23 70.5h54q0 -35 -9 -64.5t-26 -52t-43.5 -35T766 1550q-33 0 -63 16t-58 34.5T590.5 1635T537 1651q-42 0 -63.5 -28T450 1553H394q0 34 9.5 64t27.5 52.5t44 35t60 12.5q34 0 64 -16t58 -34.5T711 1632t53 -16Z"
></glyph
><glyph unicode="&#xc4;" horiz-adv-x="1289" d="M1275 0h-79q-14 0 -23 7.5T1159 27L992 438H297L131 27Q127 16 117 8T93 0H15L594 1415H696L1275 0ZM328 514H962L673 1229q-7 17 -14 38.5T645 1313q-7 -24 -14 -45.5T617 1228L328 514ZM517 1665q0 -16 -7 -30.5t-18 -25t-26 -17T435 1586q-16 0 -30.5 6.5t-25.5 17t-17.5 25T355 1665q0 16 6.5 31t17.5 26.5t25.5 18T435 1747q16 0 31 -6.5t26 -18T510 1696t7 -31ZM933 1665q0 -16 -6.5 -30.5t-18 -25t-26 -17T852 1586q-17 0 -31.5 6.5t-25.5 17t-17.5 25T771 1665q0 33 24 57.5t57 24.5q16 0 30.5 -6.5t26 -18t18 -26.5t6.5 -31Z"
></glyph
><glyph unicode="&#xc5;" horiz-adv-x="1289" d="M1275 0h-79q-14 0 -23 7.5T1159 27L992 438H297L131 27Q127 16 117 8T93 0H15L594 1415H696L1275 0ZM328 514H962L673 1229q-7 17 -14 38.5T645 1313q-7 -24 -14 -45.5T617 1228L328 514ZM477 1630q0 34 13.5 63.5t36 50.5t53 33t64.5 12q34 0 65 -12t53.5 -33t36 -50.5T812 1630q0 -35 -13.5 -64t-36 -50T709 1483.5T644 1472q-34 0 -64.5 11.5t-53 32.5t-36 50T477 1630ZM530 1630q0 -50 32 -82t83 -32q50 0 82 32t32 82q0 50 -32 82t-82 32q-51 0 -83 -32t-32 -82Z"
></glyph
><glyph unicode="&#xc6;" horiz-adv-x="1847" d="M763 1415h960v-85H908L980 758h618V675H991L1066 85h657V0H981L925 438H329L102 25Q89 0 60 0H-19L763 1415ZM371 514H915L810 1337q-8 -26 -18 -49t-21 -46L371 514Z"
></glyph
><glyph unicode="&#xc7;" horiz-adv-x="1407" d="M656 -273q5 0 13.5 -5.5t22 -12t33.5 -12t49 -5.5q51 0 79.5 22t28.5 60q0 25 -13 41.5T832 -157t-56.5 17T704 -129l36 115Q603 -6 489.5 49T295 198T169 421T124 708q0 161 50.5 294t142 228.5t219 148T817 1431q77 0 141 -11.5t119.5 -33T1182 1333t96 -74l-31 -45q-8 -12 -25 -12q-9 0 -23 10.5t-35.5 26t-52 34t-72.5 34t-97 26T817 1343q-129 0 -237 -44.5t-186 -127T272.5 971.5T229 708q0 -150 43 -268T391 240.5t179.5 -125T795 72q76 0 135.5 10T1040 112t93 49t85 68q5 4 9.5 6.5T1238 238q10 0 17 -7l40 -43q-44 -46 -94.5 -83t-111 -63.5T957 0T800 -16L777 -91q89 -16 135.5 -46T959 -226q0 -30 -13.5 -54t-38 -40.5T849 -346t-74 -9q-41 0 -80 11.5T630 -313l10 28q6 12 16 12Z"
></glyph
><glyph unicode="&#xc8;" horiz-adv-x="1182" d="M1058 1415v-85H313V758H933V675H313V85h745V0H210V1415h848ZM462 1770q24 0 35.5 -4.5T523 1748L751 1542H680q-12 0 -20 2t-18 10L349 1770H462Z"
></glyph
><glyph unicode="&#xc9;" horiz-adv-x="1182" d="M1058 1415v-85H313V758H933V675H313V85h745V0H210V1415h848ZM932 1770L640 1554q-10 -7 -18.5 -9.5T601 1542H531l227 206q14 13 26 17.5t36 4.5H932Z"
></glyph
><glyph unicode="&#xca;" horiz-adv-x="1182" d="M1058 1415v-85H313V758H933V675H313V85h745V0H210V1415h848ZM923 1542H850q-8 0 -17.5 2.5T816 1552L660 1675q-8 6 -11 9t-5 5q-2 -2 -5.5 -5T627 1675L470 1552q-7 -5 -16 -7.5T437 1542H363l235 199h90L923 1542Z"
></glyph
><glyph unicode="&#xcb;" horiz-adv-x="1182" d="M1058 1415v-85H313V758H933V675H313V85h745V0H210V1415h848ZM516 1665q0 -16 -7 -30.5t-18 -25t-26 -17T434 1586q-16 0 -30.5 6.5t-25.5 17t-17.5 25T354 1665q0 16 6.5 31t17.5 26.5t25.5 18T434 1747q16 0 31 -6.5t26 -18T509 1696t7 -31ZM932 1665q0 -16 -6.5 -30.5t-18 -25t-26 -17T851 1586q-17 0 -31.5 6.5t-25.5 17t-17.5 25T770 1665q0 33 24 57.5t57 24.5q16 0 30.5 -6.5t26 -18t18 -26.5t6.5 -31Z"
></glyph
><glyph unicode="&#xcc;" horiz-adv-x="598" d="M350 0H247V1415H350V0ZM120 1770q24 0 35.5 -4.5T181 1748L409 1542H338q-12 0 -20 2t-18 10L7 1770H120Z"
></glyph
><glyph unicode="&#xcd;" horiz-adv-x="598" d="M350 0H247V1415H350V0ZM590 1770L298 1554q-10 -7 -18.5 -9.5T259 1542H189l227 206q14 13 26 17.5t36 4.5H590Z"
></glyph
><glyph unicode="&#xce;" horiz-adv-x="598" d="M350 0H247V1415H350V0ZM581 1542H508q-8 0 -17.5 2.5T474 1552L318 1675q-8 6 -11 9t-5 5q-2 -2 -5.5 -5T285 1675L128 1552q-7 -5 -16 -7.5T95 1542H21l235 199h90L581 1542Z"
></glyph
><glyph unicode="&#xcf;" horiz-adv-x="598" d="M350 0H247V1415H350V0ZM174 1665q0 -16 -7 -30.5t-18 -25t-26 -17T92 1586q-16 0 -30.5 6.5t-25.5 17t-17.5 25T12 1665q0 16 6.5 31T36 1722.5t25.5 18T92 1747q16 0 31 -6.5t26 -18T167 1696t7 -31ZM590 1665q0 -16 -6.5 -30.5t-18 -25t-26 -17T509 1586q-17 0 -31.5 6.5t-25.5 17t-17.5 25T428 1665q0 33 24 57.5t57 24.5q16 0 30.5 -6.5t26 -18t18 -26.5t6.5 -31Z"
></glyph
><glyph unicode="&#xd0;" horiz-adv-x="1575" d="M49 749H265v666H781q151 0 275 -49t213 -141t138 -223t49 -294q0 -164 -49 -295T1269 190T1056 49T781 0H265V685H49v64ZM1350 708q0 148 -41 264t-115.5 196T1014 1290t-233 42H368V749H772V685H368V83H781q128 0 233 42t179.5 122T1309 443t41 265Z"
></glyph
><glyph unicode="&#xd1;" horiz-adv-x="1512" d="M260 1415q14 0 22 -3.5T299 1396L1215 170q-3 30 -3 58V1415h90V0h-49q-23 0 -37 20L296 1248q3 -30 3 -57V0H210V1415h50v0ZM912 1616q42 0 64 27.5t23 70.5h54q0 -35 -9 -64.5t-26 -52t-43.5 -35T914 1550q-33 0 -63 16t-58 34.5T738.5 1635T685 1651q-42 0 -63.5 -28T598 1553H542q0 34 9.5 64t27.5 52.5t44 35t60 12.5q34 0 64 -16t58 -34.5T859 1632t53 -16Z"
></glyph
><glyph unicode="&#xd2;" horiz-adv-x="1595" d="M1472 708q0 -164 -49 -297.5t-138 -228T1072 36.5T797 -15Q648 -15 524 36.5t-213 146t-138.5 228T123 708q0 163 49.5 296.5t138.5 228T524 1379t273 52q151 0 275 -51.5T1285 1233t138 -228.5T1472 708ZM1366 708q0 148 -41 266t-115.5 200T1030 1299.5T797 1343q-126 0 -230.5 -43.5T386.5 1174T269.5 974T228 708q0 -149 41.5 -266.5T386.5 242t180 -125T797 74q128 0 233 43t179.5 125T1325 441.5T1366 708ZM618 1770q24 0 35.5 -4.5T679 1748L907 1542H836q-12 0 -20 2t-18 10L505 1770H618Z"
></glyph
><glyph unicode="&#xd3;" horiz-adv-x="1595" d="M1472 708q0 -164 -49 -297.5t-138 -228T1072 36.5T797 -15Q648 -15 524 36.5t-213 146t-138.5 228T123 708q0 163 49.5 296.5t138.5 228T524 1379t273 52q151 0 275 -51.5T1285 1233t138 -228.5T1472 708ZM1366 708q0 148 -41 266t-115.5 200T1030 1299.5T797 1343q-126 0 -230.5 -43.5T386.5 1174T269.5 974T228 708q0 -149 41.5 -266.5T386.5 242t180 -125T797 74q128 0 233 43t179.5 125T1325 441.5T1366 708ZM1088 1770L796 1554q-10 -7 -18.5 -9.5T757 1542H687l227 206q14 13 26 17.5t36 4.5h112Z"
></glyph
><glyph unicode="&#xd4;" horiz-adv-x="1595" d="M1472 708q0 -164 -49 -297.5t-138 -228T1072 36.5T797 -15Q648 -15 524 36.5t-213 146t-138.5 228T123 708q0 163 49.5 296.5t138.5 228T524 1379t273 52q151 0 275 -51.5T1285 1233t138 -228.5T1472 708ZM1366 708q0 148 -41 266t-115.5 200T1030 1299.5T797 1343q-126 0 -230.5 -43.5T386.5 1174T269.5 974T228 708q0 -149 41.5 -266.5T386.5 242t180 -125T797 74q128 0 233 43t179.5 125T1325 441.5T1366 708ZM1079 1542h-73q-8 0 -17.5 2.5T972 1552L816 1675q-8 6 -11 9t-5 5q-2 -2 -5.5 -5T783 1675L626 1552q-7 -5 -16 -7.5T593 1542H519l235 199h90l235 -199Z"
></glyph
><glyph unicode="&#xd5;" horiz-adv-x="1595" d="M1472 708q0 -164 -49 -297.5t-138 -228T1072 36.5T797 -15Q648 -15 524 36.5t-213 146t-138.5 228T123 708q0 163 49.5 296.5t138.5 228T524 1379t273 52q151 0 275 -51.5T1285 1233t138 -228.5T1472 708ZM1366 708q0 148 -41 266t-115.5 200T1030 1299.5T797 1343q-126 0 -230.5 -43.5T386.5 1174T269.5 974T228 708q0 -149 41.5 -266.5T386.5 242t180 -125T797 74q128 0 233 43t179.5 125T1325 441.5T1366 708ZM919 1616q42 0 64 27.5t23 70.5h54q0 -35 -9 -64.5t-26 -52t-43.5 -35T921 1550q-33 0 -63 16t-58 34.5T745.5 1635T692 1651q-42 0 -63.5 -28T605 1553H549q0 34 9.5 64t27.5 52.5t44 35t60 12.5q34 0 64 -16t58 -34.5T866 1632t53 -16Z"
></glyph
><glyph unicode="&#xd6;" horiz-adv-x="1595" d="M1472 708q0 -164 -49 -297.5t-138 -228T1072 36.5T797 -15Q648 -15 524 36.5t-213 146t-138.5 228T123 708q0 163 49.5 296.5t138.5 228T524 1379t273 52q151 0 275 -51.5T1285 1233t138 -228.5T1472 708ZM1366 708q0 148 -41 266t-115.5 200T1030 1299.5T797 1343q-126 0 -230.5 -43.5T386.5 1174T269.5 974T228 708q0 -149 41.5 -266.5T386.5 242t180 -125T797 74q128 0 233 43t179.5 125T1325 441.5T1366 708ZM672 1665q0 -16 -7 -30.5t-18 -25t-26 -17T590 1586q-16 0 -30.5 6.5t-25.5 17t-17.5 25T510 1665q0 16 6.5 31t17.5 26.5t25.5 18T590 1747q16 0 31 -6.5t26 -18T665 1696t7 -31ZM1088 1665q0 -16 -6.5 -30.5t-18 -25t-26 -17T1007 1586q-17 0 -31.5 6.5t-25.5 17t-17.5 25T926 1665q0 33 24 57.5t57 24.5q16 0 30.5 -6.5t26 -18t18 -26.5t6.5 -31Z"
></glyph
><glyph unicode="&#xd7;" d="M998 1036L631 670L1003 298L952 246L579 618L205 244l-52 52L526 670L158 1038l53 54L579 723l366 367l53 -54Z"
></glyph
><glyph unicode="&#xd8;" horiz-adv-x="1595" d="M1472 708q0 -164 -49 -297.5t-138 -228T1072 36.5T797 -15Q682 -15 582.5 15.5T402 103L271 -73Q258 -90 242 -97.5T209 -105H165L350 144Q242 240 182.5 382.5T123 708q0 163 49.5 296.5t138.5 228T524 1379t273 52q121 0 225 -33.5T1209 1301l111 149q12 16 21 23t29 7h55L1260 1258q101 -96 156.5 -235T1472 708ZM228 708q0 -160 47 -282.5T407 221l746 1005q-71 57 -160.5 87T797 1343q-126 0 -230.5 -43.5T386.5 1174T269.5 974T228 708ZM1366 708q0 152 -43 271t-121 201L457 178q69 -51 154.5 -77.5T797 74q128 0 233 43t179.5 125T1325 441.5T1366 708Z"
></glyph
><glyph unicode="&#xd9;" horiz-adv-x="1467" d="M733 73q102 0 182.5 35.5T1052 207t85.5 148.5T1167 540v875h102V540q0 -117 -37 -218.5t-106.5 -177T956.5 26T733 -17Q609 -17 509.5 26t-169 118.5T234 321.5T197 540v875H300V541q0 -99 29.5 -184.5T414.5 208t136 -99T733 73ZM552 1770q24 0 35.5 -4.5T613 1748L841 1542H770q-12 0 -20 2t-18 10L439 1770H552Z"
></glyph
><glyph unicode="&#xda;" horiz-adv-x="1467" d="M733 73q102 0 182.5 35.5T1052 207t85.5 148.5T1167 540v875h102V540q0 -117 -37 -218.5t-106.5 -177T956.5 26T733 -17Q609 -17 509.5 26t-169 118.5T234 321.5T197 540v875H300V541q0 -99 29.5 -184.5T414.5 208t136 -99T733 73ZM1022 1770L730 1554q-10 -7 -18.5 -9.5T691 1542H621l227 206q14 13 26 17.5t36 4.5h112Z"
></glyph
><glyph unicode="&#xdb;" horiz-adv-x="1467" d="M733 73q102 0 182.5 35.5T1052 207t85.5 148.5T1167 540v875h102V540q0 -117 -37 -218.5t-106.5 -177T956.5 26T733 -17Q609 -17 509.5 26t-169 118.5T234 321.5T197 540v875H300V541q0 -99 29.5 -184.5T414.5 208t136 -99T733 73ZM1013 1542H940q-8 0 -17.5 2.5T906 1552L750 1675q-8 6 -11 9t-5 5q-2 -2 -5.5 -5T717 1675L560 1552q-7 -5 -16 -7.5T527 1542H453l235 199h90l235 -199Z"
></glyph
><glyph unicode="&#xdc;" horiz-adv-x="1467" d="M733 73q102 0 182.5 35.5T1052 207t85.5 148.5T1167 540v875h102V540q0 -117 -37 -218.5t-106.5 -177T956.5 26T733 -17Q609 -17 509.5 26t-169 118.5T234 321.5T197 540v875H300V541q0 -99 29.5 -184.5T414.5 208t136 -99T733 73ZM606 1665q0 -16 -7 -30.5t-18 -25t-26 -17T524 1586q-16 0 -30.5 6.5t-25.5 17t-17.5 25T444 1665q0 16 6.5 31t17.5 26.5t25.5 18T524 1747q16 0 31 -6.5t26 -18T599 1696t7 -31ZM1022 1665q0 -16 -6.5 -30.5t-18 -25t-26 -17T941 1586q-17 0 -31.5 6.5t-25.5 17t-17.5 25T860 1665q0 33 24 57.5t57 24.5q16 0 30.5 -6.5t26 -18t18 -26.5t6.5 -31Z"
></glyph
><glyph unicode="&#xdd;" horiz-adv-x="1199" d="M651 584V0H548V584L25 1415h89q14 0 22.5 -6.5T153 1390L558 740q14 -23 24 -44.5T600 652q8 22 18 43.5T642 740l404 650q6 11 15 18t23 7h90L651 584ZM889 1770L597 1554q-10 -7 -18.5 -9.5T558 1542H488l227 206q14 13 26 17.5t36 4.5H889Z"
></glyph
><glyph unicode="&#xde;" horiz-adv-x="1187" d="M342 286V0H240V1415H342V1131H605q249 0 375.5 -109T1107 711q0 -93 -34.5 -171T973 405.5t-158 -88T605 286H342ZM342 368H605q94 0 168 26t125.5 72t79 108.5T1005 711q0 163 -100.5 250.5T605 1049H342V368Z"
></glyph
><glyph unicode="&#xdf;" horiz-adv-x="1158" d="M641 1433q85 0 151 -25.5t111 -66T971 1251t23 -100q0 -62 -23.5 -108t-59 -81.5T835 898T758.5 842.5T699.5 786T676 720q0 -36 16.5 -60.5t44 -42.5t62 -33t71 -31.5t71 -37t62 -50.5t44 -71.5T1063 293q0 -68 -25 -125T968 70T860 6.5T720 -16Q619 -16 546.5 17.5T414 105l22 34q5 8 11.5 12t17.5 4q13 0 31.5 -16T545 104.5T619.5 70T727 54q59 0 105 17.5t77.5 48t48 71.5T974 279q0 67 -29.5 107.5T871 453t-95 45t-95 43.5t-73.5 62T578 704q0 49 24 85t60.5 67T741 916t78.5 63t60.5 75.5t24 97.5q0 31 -14 67.5t-45.5 68T762 1340t-124 21q-71 0 -133.5 -21.5T395 1274T321 1161.5T294 999V0H199V1001q0 101 33 181.5t91.5 136t140 85T641 1433Z"
></glyph
><glyph unicode="&#xe0;" horiz-adv-x="973" d="M797 0Q767 0 760 28L746 155Q705 115 664.5 83T580 29T485 -4.5T373 -16q-51 0 -99 15T189 45t-59.5 79.5T107 241q0 63 36 117t112.5 94t197 64T742 544V648q0 138 -59.5 212.5T506 935q-72 0 -122.5 -20T298 871T241 827T204 807q-20 0 -30 18l-17 29q78 78 164 118t195 40q80 0 140 -25.5t99.5 -73T815 798.5T835 648V0H797ZM397 53q58 0 106.5 12.5t90 35T671 154t71 67V480Q600 476 497.5 458.5T328.5 411t-98 -71.5T199 245q0 -50 16.5 -86.5T259 98.5T322 64T397 53ZM392 1431q24 0 36 -7t23 -25L608 1161H554q-12 0 -20.5 3.5T517 1178L300 1431h92Z"
></glyph
><glyph unicode="&#xe1;" horiz-adv-x="973" d="M797 0Q767 0 760 28L746 155Q705 115 664.5 83T580 29T485 -4.5T373 -16q-51 0 -99 15T189 45t-59.5 79.5T107 241q0 63 36 117t112.5 94t197 64T742 544V648q0 138 -59.5 212.5T506 935q-72 0 -122.5 -20T298 871T241 827T204 807q-20 0 -30 18l-17 29q78 78 164 118t195 40q80 0 140 -25.5t99.5 -73T815 798.5T835 648V0H797ZM397 53q58 0 106.5 12.5t90 35T671 154t71 67V480Q600 476 497.5 458.5T328.5 411t-98 -71.5T199 245q0 -50 16.5 -86.5T259 98.5T322 64T397 53ZM731 1431L515 1178q-8 -10 -16.5 -13.5T478 1161H421l157 238q11 18 23 25t36 7h94Z"
></glyph
><glyph unicode="&#xe2;" horiz-adv-x="973" d="M797 0Q767 0 760 28L746 155Q705 115 664.5 83T580 29T485 -4.5T373 -16q-51 0 -99 15T189 45t-59.5 79.5T107 241q0 63 36 117t112.5 94t197 64T742 544V648q0 138 -59.5 212.5T506 935q-72 0 -122.5 -20T298 871T241 827T204 807q-20 0 -30 18l-17 29q78 78 164 118t195 40q80 0 140 -25.5t99.5 -73T815 798.5T835 648V0H797ZM397 53q58 0 106.5 12.5t90 35T671 154t71 67V480Q600 476 497.5 458.5T328.5 411t-98 -71.5T199 245q0 -50 16.5 -86.5T259 98.5T322 64T397 53ZM766 1169H701q-16 0 -27 12L518 1344q-6 4 -11 11q-2 -4 -5 -6.5t-5 -4.5L340 1181q-5 -5 -12 -8.5T313 1169H246l218 246h85L766 1169Z"
></glyph
><glyph unicode="&#xe3;" horiz-adv-x="973" d="M797 0Q767 0 760 28L746 155Q705 115 664.5 83T580 29T485 -4.5T373 -16q-51 0 -99 15T189 45t-59.5 79.5T107 241q0 63 36 117t112.5 94t197 64T742 544V648q0 138 -59.5 212.5T506 935q-72 0 -122.5 -20T298 871T241 827T204 807q-20 0 -30 18l-17 29q78 78 164 118t195 40q80 0 140 -25.5t99.5 -73T815 798.5T835 648V0H797ZM397 53q58 0 106.5 12.5t90 35T671 154t71 67V480Q600 476 497.5 458.5T328.5 411t-98 -71.5T199 245q0 -50 16.5 -86.5T259 98.5T322 64T397 53ZM621 1280q43 0 65 27.5t23 74.5h59q0 -36 -9.5 -67.5t-28 -54.5T685 1224t-61 -13q-33 0 -62.5 16.5t-56.5 36t-52.5 36T401 1316q-42 0 -64 -28.5T313 1214H252q0 36 10 67.5t29 54.5t46 36t61 13q34 0 63.5 -16.5t56 -36t52 -36T621 1280Z"
></glyph
><glyph unicode="&#xe4;" horiz-adv-x="973" d="M797 0Q767 0 760 28L746 155Q705 115 664.5 83T580 29T485 -4.5T373 -16q-51 0 -99 15T189 45t-59.5 79.5T107 241q0 63 36 117t112.5 94t197 64T742 544V648q0 138 -59.5 212.5T506 935q-72 0 -122.5 -20T298 871T241 827T204 807q-20 0 -30 18l-17 29q78 78 164 118t195 40q80 0 140 -25.5t99.5 -73T815 798.5T835 648V0H797ZM397 53q58 0 106.5 12.5t90 35T671 154t71 67V480Q600 476 497.5 458.5T328.5 411t-98 -71.5T199 245q0 -50 16.5 -86.5T259 98.5T322 64T397 53ZM417 1284q0 -16 -7 -30.5T392 1228t-26.5 -17.5T334 1204q-16 0 -30.5 6.5t-26 17.5t-18 25.5T253 1284q0 17 6.5 32t18 26.5t26 18T334 1367q16 0 31.5 -6.5t26.5 -18T410 1316t7 -32ZM760 1284q0 -16 -7 -30.5T735 1228t-26.5 -17.5T677 1204q-17 0 -31.5 6.5t-26 17.5t-18 25.5T595 1284q0 17 6.5 32t18 26.5t26 18T677 1367q16 0 31.5 -6.5t26.5 -18T753 1316t7 -32Z"
></glyph
><glyph unicode="&#xe5;" horiz-adv-x="973" d="M797 0Q767 0 760 28L746 155Q705 115 664.5 83T580 29T485 -4.5T373 -16q-51 0 -99 15T189 45t-59.5 79.5T107 241q0 63 36 117t112.5 94t197 64T742 544V648q0 138 -59.5 212.5T506 935q-72 0 -122.5 -20T298 871T241 827T204 807q-20 0 -30 18l-17 29q78 78 164 118t195 40q80 0 140 -25.5t99.5 -73T815 798.5T835 648V0H797ZM397 53q58 0 106.5 12.5t90 35T671 154t71 67V480Q600 476 497.5 458.5T328.5 411t-98 -71.5T199 245q0 -50 16.5 -86.5T259 98.5T322 64T397 53ZM334 1302q0 36 13.5 66t37 51.5t55 34T506 1466q35 0 66.5 -12.5t55 -34T665 1368t14 -66q0 -36 -14 -65.5T627.5 1185t-55 -34T506 1139q-35 0 -66.5 12t-55 34t-37 51.5T334 1302ZM392 1302q0 -50 32 -82t83 -32q50 0 82 32t32 82q0 50 -32 82t-82 32q-51 0 -83 -32t-32 -82Z"
></glyph
><glyph unicode="&#xe6;" horiz-adv-x="1609" d="M1159 1011q75 0 140 -30t113 -87.5T1487.5 751T1515 555q0 -22 -5 -30t-19 -8H831q0 -112 24 -197T923 178T1029 92T1167 63q71 0 121 16.5t84 36t53 36t29 16.5q14 0 22 -10l24 -30Q1477 98 1440 72T1358 27.5T1262.5 -2T1160 -13q-131 0 -225.5 69T793 262Q773 185 730.5 132T634 46T519.5 -1.5T404 -16q-63 0 -117 15.5T193 48t-63 85T107 258q0 64 36 120.5T255.5 478t197 70T742 579v69q0 138 -59.5 213.5T506 937q-72 0 -122.5 -20.5T298 872T241 827.5T204 807q-11 0 -18 5t-12 13l-17 29q77 78 160.5 118T508 1012q126 0 198 -64.5T801 771q47 111 137 175.5t221 64.5ZM742 515Q600 510 497.5 490t-169 -53t-98 -77.5T199 262q0 -56 16.5 -95.5T262 102T333 65T423 53q66 0 124 22t101.5 64.5T717 244t25 141V515ZM1157 940q-72 0 -129.5 -26T929 841T863.5 727T833 578h598q0 85 -20 152.5t-56 114t-86.5 71T1157 940Z"
></glyph
><glyph unicode="&#xe7;" horiz-adv-x="910" d="M393 -273q5 0 13.5 -5.5t22 -12t33.5 -12t49 -5.5q51 0 79.5 22t28.5 60q0 25 -13 41.5T569 -157t-56.5 17T441 -129l37 118Q391 -5 319 32.5T195.5 135T116 291.5T88 498q0 114 30 208t87.5 162t141 105.5T538 1011q97 0 172.5 -31T842 896L817 862q-5 -5 -9.5 -8.5T795 850q-10 0 -27.5 13.5T721 893t-72.5 29.5T543 936q-86 0 -152.5 -30.5T278.5 818T209 680T185 498q0 -105 24.5 -186T279 175.5T388 91T530 62q72 0 120.5 17t80 37t50 37T810 170q13 0 20 -10l26 -32Q811 70 727.5 31T538 -12L514 -91q89 -16 135.5 -46T696 -226q0 -30 -13.5 -54t-38 -40.5T586 -346t-74 -9q-41 0 -80 11.5T367 -313l10 28q6 12 16 12Z"
></glyph
><glyph unicode="&#xe8;" horiz-adv-x="1022" d="M537 1011q84 0 155.5 -29t124 -84.5T898.5 761T928 575q0 -22 -6.5 -30T901 537H182V518q0 -112 26 -197T282 178.5T398 92T550 63q75 0 130 16.5t92.5 37t59.5 37T864 170q13 0 20 -10l26 -32Q886 98 846.5 72t-88 -44.5T654.5 -2T543 -13Q441 -13 357 22.5T213 126T120.5 292.5T88 518q0 107 30.5 197.5t88 156T347.5 974T537 1011ZM538 940q-77 0 -138 -24T294.5 847t-72 -108T186 598H842q0 80 -22 143.5T758 849t-96 67.5T538 940ZM423 1431q24 0 36 -7t23 -25L639 1161H585q-12 0 -20.5 3.5T548 1178L331 1431h92Z"
></glyph
><glyph unicode="&#xe9;" horiz-adv-x="1022" d="M537 1011q84 0 155.5 -29t124 -84.5T898.5 761T928 575q0 -22 -6.5 -30T901 537H182V518q0 -112 26 -197T282 178.5T398 92T550 63q75 0 130 16.5t92.5 37t59.5 37T864 170q13 0 20 -10l26 -32Q886 98 846.5 72t-88 -44.5T654.5 -2T543 -13Q441 -13 357 22.5T213 126T120.5 292.5T88 518q0 107 30.5 197.5t88 156T347.5 974T537 1011ZM538 940q-77 0 -138 -24T294.5 847t-72 -108T186 598H842q0 80 -22 143.5T758 849t-96 67.5T538 940ZM762 1431L546 1178q-8 -10 -16.5 -13.5T509 1161H452l157 238q11 18 23 25t36 7h94Z"
></glyph
><glyph unicode="&#xea;" horiz-adv-x="1022" d="M537 1011q84 0 155.5 -29t124 -84.5T898.5 761T928 575q0 -22 -6.5 -30T901 537H182V518q0 -112 26 -197T282 178.5T398 92T550 63q75 0 130 16.5t92.5 37t59.5 37T864 170q13 0 20 -10l26 -32Q886 98 846.5 72t-88 -44.5T654.5 -2T543 -13Q441 -13 357 22.5T213 126T120.5 292.5T88 518q0 107 30.5 197.5t88 156T347.5 974T537 1011ZM538 940q-77 0 -138 -24T294.5 847t-72 -108T186 598H842q0 80 -22 143.5T758 849t-96 67.5T538 940ZM797 1169H732q-16 0 -27 12L549 1344q-6 4 -11 11q-2 -4 -5 -6.5t-5 -4.5L371 1181q-5 -5 -12 -8.5T344 1169H277l218 246h85L797 1169Z"
></glyph
><glyph unicode="&#xeb;" horiz-adv-x="1022" d="M537 1011q84 0 155.5 -29t124 -84.5T898.5 761T928 575q0 -22 -6.5 -30T901 537H182V518q0 -112 26 -197T282 178.5T398 92T550 63q75 0 130 16.5t92.5 37t59.5 37T864 170q13 0 20 -10l26 -32Q886 98 846.5 72t-88 -44.5T654.5 -2T543 -13Q441 -13 357 22.5T213 126T120.5 292.5T88 518q0 107 30.5 197.5t88 156T347.5 974T537 1011ZM538 940q-77 0 -138 -24T294.5 847t-72 -108T186 598H842q0 80 -22 143.5T758 849t-96 67.5T538 940ZM448 1284q0 -16 -7 -30.5T423 1228t-26.5 -17.5T365 1204q-16 0 -30.5 6.5t-26 17.5t-18 25.5T284 1284q0 17 6.5 32t18 26.5t26 18T365 1367q16 0 31.5 -6.5t26.5 -18T441 1316t7 -32ZM791 1284q0 -16 -7 -30.5T766 1228t-26.5 -17.5T708 1204q-17 0 -31.5 6.5t-26 17.5t-18 25.5T626 1284q0 17 6.5 32t18 26.5t26 18T708 1367q16 0 31.5 -6.5t26.5 -18T784 1316t7 -32Z"
></glyph
><glyph unicode="&#xec;" horiz-adv-x="475" d="M285 995V0H190V995h95ZM126 1431q24 0 36 -7t23 -25L342 1161H288q-12 0 -20.5 3.5T251 1178L34 1431h92Z"
></glyph
><glyph unicode="&#xed;" horiz-adv-x="475" d="M285 995V0H190V995h95ZM465 1431L249 1178q-8 -10 -16.5 -13.5T212 1161H155l157 238q11 18 23 25t36 7h94Z"
></glyph
><glyph unicode="&#xee;" horiz-adv-x="475" d="M285 995V0H190V995h95ZM500 1169H435q-16 0 -27 12L252 1344q-6 4 -11 11q-2 -4 -5 -6.5t-5 -4.5L74 1181q-5 -5 -12 -8.5T47 1169H-20l218 246h85L500 1169Z"
></glyph
><glyph unicode="&#xef;" horiz-adv-x="475" d="M285 995V0H190V995h95ZM151 1284q0 -16 -7 -30.5T126 1228T99.5 1210.5T68 1204q-16 0 -30.5 6.5t-26 17.5t-18 25.5T-13 1284q0 17 6.5 32t18 26.5t26 18T68 1367q16 0 31.5 -6.5t26.5 -18T144 1316t7 -32ZM494 1284q0 -16 -7 -30.5T469 1228t-26.5 -17.5T411 1204q-17 0 -31.5 6.5t-26 17.5t-18 25.5T329 1284q0 17 6.5 32t18 26.5t26 18T411 1367q16 0 31.5 -6.5t26.5 -18T487 1316t7 -32Z"
></glyph
><glyph unicode="&#xf0;" horiz-adv-x="1072" d="M454 1070q-7 8 -7 18q0 10 12 21l126 109q-60 33 -126.5 56.5T318 1313q-10 2 -18 9.5t-8 21.5q0 3 2.5 13.5T299 1372l6 20q90 -14 177.5 -44T648 1270l153 135l18 -29q5 -8 5 -16q0 -11 -13 -23L697 1237q63 -47 115.5 -108t91 -140T963 813T984 599Q984 461 955.5 348.5T870 155.5T727 31.5T526 -12q-91 0 -170.5 32.5t-139 93T123 260.5T89 455q0 96 29 181t84.5 148.5T339 884.5T523 921q53 0 106.5 -13.5t103 -42T825 793T900 689Q885 870 815 991T635 1187L471 1042l-17 28ZM528 63q88 0 155 34.5t113 99T867 354t28 209q-15 51 -44.5 102T777 756T674 821T539 846q-88 0 -154.5 -30t-111 -83t-67 -124.5T184 455q0 -93 27.5 -166t75 -123t110 -76.5T528 63Z"
></glyph
><glyph unicode="&#xf1;" horiz-adv-x="1082" d="M162 0V995h52q26 0 30 -25l9 -150q68 86 158.5 138.5T613 1011q82 0 144.5 -26T861 910T923 792T944 636V0H849V636q0 140 -64 219.5T589 935q-98 0 -182 -50.5T257 746V0H162ZM664 1280q43 0 65 27.5t23 74.5h59q0 -36 -9.5 -67.5t-28 -54.5T728 1224t-61 -13q-33 0 -62.5 16.5t-56.5 36t-52.5 36T444 1316q-42 0 -64 -28.5T356 1214H295q0 36 10 67.5t29 54.5t46 36t61 13q34 0 63.5 -16.5t56 -36t52 -36T664 1280Z"
></glyph
><glyph unicode="&#xf2;" horiz-adv-x="1082" d="M541 1011q107 0 191.5 -36.5T875 871T963.5 709.5T994 498Q994 381 963.5 287T875 126T732.5 23T541 -13Q434 -13 349.5 23t-143 103t-89 161T87 498q0 117 30.5 211.5t89 161.5t143 103.5T541 1011ZM541 62q89 0 155.5 30.5t111 87.5T874 317.5T896 498q0 99 -22 180T807.5 816.5T696.5 905T541 936q-89 0 -155.5 -31t-111 -88.5T207.5 678T185 498q0 -100 22.5 -180.5T274.5 180t111 -87.5T541 62ZM428 1431q24 0 36 -7t23 -25L644 1161H590q-12 0 -20.5 3.5T553 1178L336 1431h92Z"
></glyph
><glyph unicode="&#xf3;" horiz-adv-x="1082" d="M541 1011q107 0 191.5 -36.5T875 871T963.5 709.5T994 498Q994 381 963.5 287T875 126T732.5 23T541 -13Q434 -13 349.5 23t-143 103t-89 161T87 498q0 117 30.5 211.5t89 161.5t143 103.5T541 1011ZM541 62q89 0 155.5 30.5t111 87.5T874 317.5T896 498q0 99 -22 180T807.5 816.5T696.5 905T541 936q-89 0 -155.5 -31t-111 -88.5T207.5 678T185 498q0 -100 22.5 -180.5T274.5 180t111 -87.5T541 62ZM767 1431L551 1178q-8 -10 -16.5 -13.5T514 1161H457l157 238q11 18 23 25t36 7h94Z"
></glyph
><glyph unicode="&#xf4;" horiz-adv-x="1082" d="M541 1011q107 0 191.5 -36.5T875 871T963.5 709.5T994 498Q994 381 963.5 287T875 126T732.5 23T541 -13Q434 -13 349.5 23t-143 103t-89 161T87 498q0 117 30.5 211.5t89 161.5t143 103.5T541 1011ZM541 62q89 0 155.5 30.5t111 87.5T874 317.5T896 498q0 99 -22 180T807.5 816.5T696.5 905T541 936q-89 0 -155.5 -31t-111 -88.5T207.5 678T185 498q0 -100 22.5 -180.5T274.5 180t111 -87.5T541 62ZM802 1169H737q-16 0 -27 12L554 1344q-6 4 -11 11q-2 -4 -5 -6.5t-5 -4.5L376 1181q-5 -5 -12 -8.5T349 1169H282l218 246h85L802 1169Z"
></glyph
><glyph unicode="&#xf5;" horiz-adv-x="1082" d="M541 1011q107 0 191.5 -36.5T875 871T963.5 709.5T994 498Q994 381 963.5 287T875 126T732.5 23T541 -13Q434 -13 349.5 23t-143 103t-89 161T87 498q0 117 30.5 211.5t89 161.5t143 103.5T541 1011ZM541 62q89 0 155.5 30.5t111 87.5T874 317.5T896 498q0 99 -22 180T807.5 816.5T696.5 905T541 936q-89 0 -155.5 -31t-111 -88.5T207.5 678T185 498q0 -100 22.5 -180.5T274.5 180t111 -87.5T541 62ZM657 1280q43 0 65 27.5t23 74.5h59q0 -36 -9.5 -67.5t-28 -54.5T721 1224t-61 -13q-33 0 -62.5 16.5t-56.5 36t-52.5 36T437 1316q-42 0 -64 -28.5T349 1214H288q0 36 10 67.5t29 54.5t46 36t61 13q34 0 63.5 -16.5t56 -36t52 -36T657 1280Z"
></glyph
><glyph unicode="&#xf6;" horiz-adv-x="1082" d="M541 1011q107 0 191.5 -36.5T875 871T963.5 709.5T994 498Q994 381 963.5 287T875 126T732.5 23T541 -13Q434 -13 349.5 23t-143 103t-89 161T87 498q0 117 30.5 211.5t89 161.5t143 103.5T541 1011ZM541 62q89 0 155.5 30.5t111 87.5T874 317.5T896 498q0 99 -22 180T807.5 816.5T696.5 905T541 936q-89 0 -155.5 -31t-111 -88.5T207.5 678T185 498q0 -100 22.5 -180.5T274.5 180t111 -87.5T541 62ZM453 1284q0 -16 -7 -30.5T428 1228t-26.5 -17.5T370 1204q-16 0 -30.5 6.5t-26 17.5t-18 25.5T289 1284q0 17 6.5 32t18 26.5t26 18T370 1367q16 0 31.5 -6.5t26.5 -18T446 1316t7 -32ZM796 1284q0 -16 -7 -30.5T771 1228t-26.5 -17.5T713 1204q-17 0 -31.5 6.5t-26 17.5t-18 25.5T631 1284q0 17 6.5 32t18 26.5t26 18T713 1367q16 0 31.5 -6.5t26.5 -18T789 1316t7 -32Z"
></glyph
><glyph unicode="&#xf7;" d="M109 707h939V634H109v73ZM486 1025q0 39 26.5 66.5T578 1119q19 0 36 -7.5t29.5 -20t20 -30T671 1025q0 -20 -7.5 -36.5t-20 -29T614 940t-36 -7q-39 0 -65.5 26.5T486 1025ZM486 313q0 39 26.5 66.5T578 407q19 0 36 -7.5t29.5 -20t20 -30T671 313q0 -20 -7.5 -36.5t-20 -29T614 228t-36 -7q-39 0 -65.5 26.5T486 313Z"
></glyph
><glyph unicode="&#xf8;" horiz-adv-x="1082" d="M872 873q60 -67 91 -162T994 498Q994 381 963.5 287T875 126T732.5 23T541 -13Q380 -13 272 66L191 -43Q178 -60 161.5 -67.5T128 -75H90L225 106Q157 173 122 272T87 498q0 117 30.5 211.5t89 161.5t143 103.5T541 1011q88 0 159.5 -24.5T827 917l87 116q11 15 20.5 22t28.5 7h50L872 873ZM180 498q0 -104 23.5 -186T275 173L779 852q-45 42 -104 64T541 938q-89 0 -156.5 -31.5t-113 -89T203 678.5T180 498ZM541 60q89 0 156.5 31T810 179t68 138t23 181q0 191 -80 306L319 129Q406 60 541 60Z"
></glyph
><glyph unicode="&#xf9;" horiz-adv-x="1082" d="M233 995V359q0 -140 64 -219.5T492 60q97 0 181 49.5T824 247V995h96V0H867Q839 0 838 26l-9 148Q760 88 669.5 36T468 -16q-83 0 -145 26T220 85T158 203T137 359V995h96ZM421 1431q24 0 36 -7t23 -25L637 1161H583q-12 0 -20.5 3.5T546 1178L329 1431h92Z"
></glyph
><glyph unicode="&#xfa;" horiz-adv-x="1082" d="M233 995V359q0 -140 64 -219.5T492 60q97 0 181 49.5T824 247V995h96V0H867Q839 0 838 26l-9 148Q760 88 669.5 36T468 -16q-83 0 -145 26T220 85T158 203T137 359V995h96ZM760 1431L544 1178q-8 -10 -16.5 -13.5T507 1161H450l157 238q11 18 23 25t36 7h94Z"
></glyph
><glyph unicode="&#xfb;" horiz-adv-x="1082" d="M233 995V359q0 -140 64 -219.5T492 60q97 0 181 49.5T824 247V995h96V0H867Q839 0 838 26l-9 148Q760 88 669.5 36T468 -16q-83 0 -145 26T220 85T158 203T137 359V995h96ZM795 1169H730q-16 0 -27 12L547 1344q-6 4 -11 11q-2 -4 -5 -6.5t-5 -4.5L369 1181q-5 -5 -12 -8.5T342 1169H275l218 246h85L795 1169Z"
></glyph
><glyph unicode="&#xfc;" horiz-adv-x="1082" d="M233 995V359q0 -140 64 -219.5T492 60q97 0 181 49.5T824 247V995h96V0H867Q839 0 838 26l-9 148Q760 88 669.5 36T468 -16q-83 0 -145 26T220 85T158 203T137 359V995h96ZM446 1284q0 -16 -7 -30.5T421 1228t-26.5 -17.5T363 1204q-16 0 -30.5 6.5t-26 17.5t-18 25.5T282 1284q0 17 6.5 32t18 26.5t26 18T363 1367q16 0 31.5 -6.5t26.5 -18T439 1316t7 -32ZM789 1284q0 -16 -7 -30.5T764 1228t-26.5 -17.5T706 1204q-17 0 -31.5 6.5t-26 17.5t-18 25.5T624 1284q0 17 6.5 32t18 26.5t26 18T706 1367q16 0 31.5 -6.5t26.5 -18T782 1316t7 -32Z"
></glyph
><glyph unicode="&#xfd;" horiz-adv-x="974" d="M379 -320q-6 -14 -15.5 -23T336 -352H268L443 37L22 995h79q15 0 23.5 -7.5T137 971L472 197q6 -15 10.5 -30.5T491 135q5 16 10.5 31.5T513 197L844 971q5 11 14 17.5t20 6.5h73L379 -320ZM737 1431L521 1178q-8 -10 -16.5 -13.5T484 1161H427l157 238q11 18 23 25t36 7h94Z"
></glyph
><glyph unicode="&#xfe;" horiz-adv-x="1070" d="M162 -352V1455h95V820q66 88 153 139.5T606 1011q184 0 286 -126.5T994 504Q994 395 965.5 300.5T882 136.5T746.5 27T561 -13Q459 -13 385 26T257 141V-352H162ZM579 935q-99 0 -179.5 -51.5T257 740V218Q314 132 383.5 97T542 62q88 0 154 32t110.5 90.5t67 140T896 504q0 222 -81.5 326.5T579 935Z"
></glyph
><glyph unicode="&#xff;" horiz-adv-x="974" d="M379 -320q-6 -14 -15.5 -23T336 -352H268L443 37L22 995h79q15 0 23.5 -7.5T137 971L472 197q6 -15 10.5 -30.5T491 135q5 16 10.5 31.5T513 197L844 971q5 11 14 17.5t20 6.5h73L379 -320ZM423 1284q0 -16 -7 -30.5T398 1228t-26.5 -17.5T340 1204q-16 0 -30.5 6.5t-26 17.5t-18 25.5T259 1284q0 17 6.5 32t18 26.5t26 18T340 1367q16 0 31.5 -6.5t26.5 -18T416 1316t7 -32ZM766 1284q0 -16 -7 -30.5T741 1228t-26.5 -17.5T683 1204q-17 0 -31.5 6.5t-26 17.5t-18 25.5T601 1284q0 17 6.5 32t18 26.5t26 18T683 1367q16 0 31.5 -6.5t26.5 -18T759 1316t7 -32Z"
></glyph
><glyph unicode="&#x104;" horiz-adv-x="1289" d="M1350 -243q10 0 13 -8l16 -34q-28 -24 -70 -38.5T1220 -338q-76 0 -123 37.5T1050 -197q0 31 11.5 59.5t31 53.5t44 46T1187 0q-20 4 -28 27L992 438H297L131 27Q127 16 117 8T93 0H15L594 1415H696L1275 0q-12 0 -37 -12.5t-50.5 -36t-44.5 -56T1124 -176q0 -48 32 -74.5t82 -26.5q28 0 47 5.5t32 11.5t20.5 11.5t12.5 5.5ZM328 514H962L673 1229q-7 17 -14 38.5T645 1313q-7 -24 -14 -45.5T617 1228L328 514Z"
></glyph
><glyph unicode="&#x105;" horiz-adv-x="973" d="M928 -243q10 0 13 -8l16 -34q-28 -24 -70 -38.5T798 -338q-76 0 -123 37.5T628 -197q0 32 12.5 61.5t33 55t46.5 47T773 5q-10 9 -13 23L746 155Q705 115 664.5 83T580 29T485 -4.5T373 -16q-51 0 -99 15T189 45t-59.5 79.5T107 241q0 63 36 117t112.5 94t197 64T742 544V648q0 138 -59.5 212.5T506 935q-72 0 -122.5 -20T298 871T241 827T204 807q-11 0 -18 5t-12 13l-17 29q78 78 164 118t195 40q80 0 140 -25.5t99.5 -73T815 798.5T835 648V0Q815 -11 792 -28T749 -67.5t-33.5 -50T702 -176q0 -48 32 -74.5T816 -277q28 0 47 5.5t32 11.5t20.5 11.5T928 -243ZM397 53q58 0 106.5 12.5t90 35T671 154t71 67V480Q600 476 497.5 458.5T328.5 411t-98 -71.5T199 245q0 -50 16.5 -86.5T259 98.5T322 64T397 53Z"
></glyph
><glyph unicode="&#x106;" horiz-adv-x="1407" d="M1238 238q10 0 17 -7l40 -43q-44 -47 -96 -84.5t-113.5 -64t-135 -41T789 -16Q642 -16 519.5 35.5t-210 146T173 410T124 708q0 161 50.5 294t142 228.5t219 148T817 1431q77 0 141 -11.5t119.5 -33T1182 1333t96 -74l-31 -45q-8 -12 -25 -12q-9 0 -23 10.5t-35.5 26t-52 34t-72.5 34t-97 26T817 1343q-129 0 -237 -44.5t-186 -127T272.5 971.5T229 708q0 -150 43 -268T391 240.5t179.5 -125T795 72q76 0 135.5 10T1040 112t93 49t85 68q5 4 9.5 6.5T1238 238ZM1109 1770L817 1554q-10 -7 -18.5 -9.5T778 1542H708l227 206q14 13 26 17.5t36 4.5h112Z"
></glyph
><glyph unicode="&#x107;" horiz-adv-x="910" d="M817 862q-5 -5 -9.5 -8.5T795 850q-10 0 -27.5 13.5T721 893t-72.5 29.5T543 936q-86 0 -152.5 -30.5T278.5 818T209 680T185 498q0 -105 24.5 -186T279 175.5T388 91T530 62q72 0 120.5 17t80 37t50 37T810 170q13 0 20 -10l26 -32Q833 98 798 72T719 27T623.5 -2.5T516 -13q-95 0 -173.5 34.5t-135 100T119.5 282T88 498q0 114 30 208t87.5 162t141 105.5T538 1011q97 0 172.5 -31T842 896L817 862ZM765 1431L549 1178q-8 -10 -16.5 -13.5T512 1161H455l157 238q11 18 23 25t36 7h94Z"
></glyph
><glyph unicode="&#x118;" horiz-adv-x="1224" d="M1060 -243q10 0 13 -8l16 -34q-28 -24 -70 -38.5T930 -338q-76 0 -123 37.5T760 -197q0 31 11.5 59T802 -85t43.5 46.5T896 0H210V1415h848v-85H313V758H933V675H313V85h745V0H967Q947 -11 924 -28T881 -67.5t-33.5 -50T834 -176q0 -48 32 -74.5T948 -277q28 0 47 5.5t32 11.5t20.5 11.5t12.5 5.5Z"
></glyph
><glyph unicode="&#x119;" horiz-adv-x="1022" d="M745 -243q10 0 13 -8l16 -34q-28 -24 -70 -38.5T615 -338q-76 0 -123 37.5T445 -197q0 28 9.5 54t26 49.5t38 44T563 -12q-5 0 -10 -0.5T543 -13Q441 -13 357 22.5T213 126T120.5 292.5T88 518q0 107 30.5 197.5t88 156T347.5 974T537 1011q84 0 155.5 -29t124 -84.5T898.5 761T928 575q0 -22 -6.5 -30T901 537H182V518q0 -112 26 -197T282 178.5T398 92T550 63q75 0 130 16.5t92.5 37t59.5 37T864 170q13 0 20 -10l26 -32Q891 105 863.5 84t-62 -38T727 16.5T645 -3Q625 -15 603 -32T562 -71t-31 -48.5T519 -176q0 -48 32 -74.5T633 -277q28 0 47 5.5t32 11.5t20.5 11.5T745 -243ZM538 940q-77 0 -138 -24T294.5 847t-72 -108T186 598H842q0 80 -22 143.5T758 849t-96 67.5T538 940Z"
></glyph
><glyph unicode="&#x131;" horiz-adv-x="475" d="M285 995V0H190V995h95Z"
></glyph
><glyph unicode="&#x141;" horiz-adv-x="1066" d="M355 722L772 939V876q0 -11 -4 -18T753 845L355 633V87h671V0H253V587L58 486v66q0 19 18 29l177 93v741H355V722Z"
></glyph
><glyph unicode="&#x142;" horiz-adv-x="600" d="M347 1455V862l196 89V901q0 -11 -4 -18.5T524 870L347 786V0H252V750L57 660v52q0 21 18 29l177 84v630h95Z"
></glyph
><glyph unicode="&#x143;" horiz-adv-x="1512" d="M260 1415q14 0 22 -3.5T299 1396L1215 170q-3 30 -3 58V1415h90V0h-49q-23 0 -37 20L296 1248q3 -30 3 -57V0H210V1415h50v0ZM1081 1770L789 1554q-10 -7 -18.5 -9.5T750 1542H680l227 206q14 13 26 17.5t36 4.5h112Z"
></glyph
><glyph unicode="&#x144;" horiz-adv-x="1082" d="M162 0V995h52q26 0 30 -25l9 -150q68 86 158.5 138.5T613 1011q82 0 144.5 -26T861 910T923 792T944 636V0H849V636q0 140 -64 219.5T589 935q-98 0 -182 -50.5T257 746V0H162ZM776 1431L560 1178q-8 -10 -16.5 -13.5T523 1161H466l157 238q11 18 23 25t36 7h94Z"
></glyph
><glyph unicode="&#x152;" horiz-adv-x="2227" d="M2103 1330H1358V758h620V675H1358V85h745V0H1266V334q-37 -82 -90.5 -146.5T1054 78.5T904.5 10.5T730 -13Q595 -13 483.5 38T292 183.5T167.5 411T123 708q0 163 44.5 296.5t124.5 228T483.5 1379T730 1431q93 0 174.5 -24T1054 1338t121.5 -109.5T1266 1082v333h837v-85ZM1255 708q0 148 -37 266t-104.5 200.5T951.5 1301T742 1345q-114 0 -209 -44T370.5 1174.5T265.5 974T228 708q0 -149 37.5 -267t105 -199.5T533 116.5T742 73q115 0 209.5 43.5t162 125T1218 441t37 267Z"
></glyph
><glyph unicode="&#x153;" horiz-adv-x="1717" d="M1266 1011q75 0 140.5 -30T1520 893.5T1595.5 751T1623 555q0 -22 -5.5 -30T1598 517H938q0 -112 24 -197t68.5 -142T1137 92T1275 63q67 0 116.5 16.5t84 37t55 37T1562 170q12 0 19 -10l26 -32Q1584 98 1547 72T1465 27.5T1369.5 -2T1267 -13q-135 0 -232 74.5T894 282Q852 143 754 65T508 -13q-98 0 -176 36T199.5 126T116 287T87 498q0 117 29 211.5T199.5 871T333 974.5T511 1011q144 0 241 -77T891 722q20 66 54.5 119t81.5 91t107 58.5t132 20.5ZM516 62q82 0 143.5 30.5T762 180t61.5 137.5T844 498q0 99 -20.5 180T762 816.5T659.5 905T516 936q-83 0 -145 -31T267.5 816.5T205.5 678T185 498q0 -100 20.5 -180.5T267.5 180T371 92.5T516 62ZM1264 940q-72 0 -129.5 -26T1036 841T970.5 727T940 578h599q0 85 -20 152.5t-56.5 114t-87 71T1264 940Z"
></glyph
><glyph unicode="&#x15a;" horiz-adv-x="1082" d="M894 1243q-9 -17 -26 -17q-13 0 -33.5 18.5t-55.5 41T691.5 1327T562 1346q-77 0 -135.5 -22t-98 -60t-60 -88T248 1071q0 -72 30.5 -119T359 872T472.5 816.5T603 772T733.5 723.5T847 657t80.5 -98.5T958 413q0 -89 -30.5 -167.5T839 109T697 17.5T505 -16Q365 -16 264 33.5T87 169l28 44q12 15 28 15q9 0 23 -12t34 -29.5t48 -38t65 -38T398 81T507 69q84 0 150 25.5T768.5 164T838 268.5T862 398q0 75 -30.5 123.5t-80.5 81T637.5 657T507 700T376.5 747T263 813.5t-80.5 101T152 1066q0 71 27 137t79 116.5t128.5 81T561 1431q110 0 197.5 -35T918 1289l-24 -46ZM853 1770L561 1554q-10 -7 -18.5 -9.5T522 1542H452l227 206q14 13 26 17.5t36 4.5H853Z"
></glyph
><glyph unicode="&#x15b;" horiz-adv-x="860" d="M710 872q-7 -14 -22 -14q-11 0 -28.5 12.5t-46 28t-70 28T442 939q-54 0 -98.5 -15.5T267.5 882t-49 -60.5T201 749q0 -47 24 -78t63 -53t88.5 -38T478 548T579.5 512.5T668 464t63 -71T755 291q0 -65 -23.5 -121t-68 -97T554 8T406 -16Q301 -16 225 17.5T89 105l23 34q5 8 11 12t17 4q13 0 32 -16t49.5 -34.5T297.5 70T410 54q63 0 111 17.5T601 119t48.5 70.5T666 275q0 50 -24 83t-63 56t-88.5 39t-102 32t-102 35T198 568t-63 70.5T111 742q0 53 23 102t65.5 86T303 989t137 22q91 0 161.5 -26T731 905L710 872ZM705 1431L489 1178q-8 -10 -16.5 -13.5T452 1161H395l157 238q11 18 23 25t36 7h94Z"
></glyph
><glyph unicode="&#x160;" horiz-adv-x="1045" d="M894 1243q-9 -17 -26 -17q-13 0 -33.5 18.5t-55.5 41T691.5 1327T562 1346q-77 0 -135.5 -22t-98 -60t-60 -88T248 1071q0 -72 30.5 -119T359 872T472.5 816.5T603 772T733.5 723.5T847 657t80.5 -98.5T958 413q0 -89 -30.5 -167.5T839 109T697 17.5T505 -16Q365 -16 264 33.5T87 169l28 44q12 15 28 15q9 0 23 -12t34 -29.5t48 -38t65 -38T398 81T507 69q84 0 150 25.5T768.5 164T838 268.5T862 398q0 75 -30.5 123.5t-80.5 81T637.5 657T507 700T376.5 747T263 813.5t-80.5 101T152 1066q0 71 27 137t79 116.5t128.5 81T561 1431q110 0 197.5 -35T918 1289l-24 -46ZM293 1741h74q8 0 17 -2.5t16 -7.5L557 1608q8 -6 11 -9t5 -5q2 2 5 4.5t12 9.5l156 123q7 5 16.5 7.5T780 1741h73L618 1542H528L293 1741Z"
></glyph
><glyph unicode="&#x161;" horiz-adv-x="860" d="M710 872q-7 -14 -22 -14q-11 0 -28.5 12.5t-46 28t-70 28T442 939q-54 0 -98.5 -15.5T267.5 882t-49 -60.5T201 749q0 -47 24 -78t63 -53t88.5 -38T478 548T579.5 512.5T668 464t63 -71T755 291q0 -65 -23.5 -121t-68 -97T554 8T406 -16Q301 -16 225 17.5T89 105l23 34q5 8 11 12t17 4q13 0 32 -16t49.5 -34.5T297.5 70T410 54q63 0 111 17.5T601 119t48.5 70.5T666 275q0 50 -24 83t-63 56t-88.5 39t-102 32t-102 35T198 568t-63 70.5T111 742q0 53 23 102t65.5 86T303 989t137 22q91 0 161.5 -26T731 905L710 872ZM195 1415h67q16 0 27 -11L445 1241l11 -13l11 13l156 163q5 6 12.5 8.5T650 1415h65L498 1169H413L195 1415Z"
></glyph
><glyph unicode="&#x178;" horiz-adv-x="1199" d="M651 584V0H548V584L25 1415h89q14 0 22.5 -6.5T153 1390L558 740q14 -23 24 -44.5T600 652q8 22 18 43.5T642 740l404 650q6 11 15 18t23 7h90L651 584ZM473 1665q0 -16 -7 -30.5t-18 -25t-26 -17T391 1586q-16 0 -30.5 6.5t-25.5 17t-17.5 25T311 1665q0 16 6.5 31t17.5 26.5t25.5 18T391 1747q16 0 31 -6.5t26 -18T466 1696t7 -31ZM889 1665q0 -16 -6.5 -30.5t-18 -25t-26 -17T808 1586q-17 0 -31.5 6.5t-25.5 17t-17.5 25T727 1665q0 33 24 57.5t57 24.5q16 0 30.5 -6.5t26 -18t18 -26.5t6.5 -31Z"
></glyph
><glyph unicode="&#x179;" horiz-adv-x="1266" d="M1163 1415v-35q0 -21 -14 -41L251 85h904V0H115V37q0 19 12 36l900 1257H141v85H1163ZM946 1770L654 1554q-10 -7 -18.5 -9.5T615 1542H545l227 206q14 13 26 17.5t36 4.5H946Z"
></glyph
><glyph unicode="&#x17a;" horiz-adv-x="904" d="M826 955q0 -21 -14 -38L189 75H801V0H74V38q0 17 15 37L714 920H107v75H826V955ZM698 1431L482 1178q-8 -10 -16.5 -13.5T445 1161H388l157 238q11 18 23 25t36 7h94Z"
></glyph
><glyph unicode="&#x17b;" horiz-adv-x="1266" d="M1163 1415v-35q0 -21 -14 -41L251 85h904V0H115V37q0 19 12 36l900 1257H141v85H1163ZM742 1677q0 -17 -7.5 -32.5t-19.5 -27T687 1599t-33 -7q-17 0 -32.5 7t-27 18.5t-18.5 27t-7 32.5q0 18 7 33.5t18.5 27.5t27 19t32.5 7q17 0 33 -7t28 -19t19.5 -27.5T742 1677Z"
></glyph
><glyph unicode="&#x17c;" horiz-adv-x="904" d="M826 955q0 -21 -14 -38L189 75H801V0H74V38q0 17 15 37L714 920H107v75H826V955ZM562 1350q0 -18 -7.5 -33.5T535 1289t-28 -19t-34 -7q-18 0 -34 7t-28 19t-19 27.5t-7 33.5q0 18 7 34.5t19 28.5t28 19t34 7q18 0 34 -7t28 -19t19.5 -28.5T562 1350Z"
></glyph
><glyph unicode="&#x17d;" horiz-adv-x="1266" d="M1163 1415v-35q0 -21 -14 -41L251 85h904V0H115V37q0 19 12 36l900 1257H141v85H1163ZM375 1741h74q8 0 17 -2.5t16 -7.5L639 1608q8 -6 11 -9t5 -5q2 2 5 4.5t12 9.5l156 123q7 5 16.5 7.5T862 1741h73L700 1542H610L375 1741Z"
></glyph
><glyph unicode="&#x17e;" horiz-adv-x="904" d="M826 955q0 -21 -14 -38L189 75H801V0H74V38q0 17 15 37L714 920H107v75H826V955ZM213 1415h67q16 0 27 -11L463 1241l11 -13l11 13l156 163q5 6 12.5 8.5T668 1415h65L516 1169H431L213 1415Z"
></glyph
><glyph unicode="&#x192;" d="M635 797L539 13Q527 -85 493 -155T405 -271T278.5 -338.5T118 -360v48q0 32 36 32q51 1 99 16.5t87 50.5t66.5 91T444 16l95 778L347 804q-26 2 -26 25v39H548l24 191q23 192 131 283t290 91v-51q0 -30 -36 -30q-53 0 -101 -15.5T769 1286t-66.5 -91T665 1057L640 868H997V797H635Z"
></glyph
><glyph unicode="&#x2c6;" horiz-adv-x="585" d="M552 1169H487q-16 0 -27 12L304 1344q-6 4 -11 11q-2 -4 -5 -6.5t-5 -4.5L126 1181q-5 -5 -12 -8.5T99 1169H32l218 246h85L552 1169Z"
></glyph
><glyph unicode="&#x2c7;" horiz-adv-x="585" d="M32 1415H99q16 0 27 -11L282 1241l11 -13l11 13l156 163q5 6 12.5 8.5T487 1415h65L335 1169H250L32 1415Z"
></glyph
><glyph unicode="&#x2c9;" horiz-adv-x="585" d="M20 1317H565v-65H20v65Z"
></glyph
><glyph unicode="&#x2d8;" horiz-adv-x="585" d="M292 1168q-66 0 -111.5 19.5t-74 53.5t-41 79T53 1415h69q0 -37 8.5 -70T159 1287t52.5 -39.5T292 1233q48 0 80.5 14.5t53 39.5t29 58t8.5 70h69q0 -50 -13 -95t-41.5 -79t-74 -53.5T292 1168Z"
></glyph
><glyph unicode="&#x2d9;" horiz-adv-x="585" d="M381 1350q0 -18 -7.5 -33.5T354 1289t-28 -19t-34 -7q-18 0 -34 7t-28 19t-19 27.5t-7 33.5q0 18 7 34.5t19 28.5t28 19t34 7q18 0 34 -7t28 -19t19.5 -28.5T381 1350Z"
></glyph
><glyph unicode="&#x2da;" horiz-adv-x="585" d="M120 1302q0 36 13.5 66t37 51.5t55 34T292 1466q35 0 66.5 -12.5t55 -34T451 1368t14 -66q0 -36 -14 -65.5T413.5 1185t-55 -34T292 1139q-35 0 -66.5 12t-55 34t-37 51.5T120 1302ZM178 1302q0 -50 32 -82t83 -32q50 0 82 32t32 82q0 50 -32 82t-82 32q-51 0 -83 -32t-32 -82Z"
></glyph
><glyph unicode="&#x2db;" horiz-adv-x="585" d="M438 -243q10 0 13 -8l16 -34q-28 -24 -70 -38.5T308 -338q-76 0 -123 37.5T138 -197q0 34 14 64.5T188.5 -75T239 -26t57 39L345 0Q325 -11 302 -28T259 -67.5t-33.5 -50T212 -176q0 -48 32 -74.5T326 -277q28 0 47 5.5t32 11.5t20.5 11.5T438 -243Z"
></glyph
><glyph unicode="&#x2dc;" horiz-adv-x="585" d="M407 1280q43 0 65 27.5t23 74.5h59q0 -36 -9.5 -67.5t-28 -54.5T471 1224t-61 -13q-33 0 -62.5 16.5t-56.5 36t-52.5 36T187 1316q-42 0 -64 -28.5T99 1214H38q0 36 10 67.5T77 1336t46 36t61 13q34 0 63.5 -16.5t56 -36t52 -36T407 1280Z"
></glyph
><glyph unicode="&#x2dd;" horiz-adv-x="585" d="M401 1431L203 1178q-8 -10 -16.5 -13.5T166 1161H124l152 238q11 17 23 24.5t36 7.5h66ZM673 1431L442 1178q-8 -10 -16.5 -13.5T405 1161H358l182 238q13 17 24 24.5t35 7.5h74Z"
></glyph
><glyph unicode="&#x3c0;" horiz-adv-x="1174" d="M1139 995V959q0 -14 -9.5 -25T1102 923H930V0H835V923H367V216Q367 106 312.5 48T153 -10q-31 0 -57 4.5T46 13l5 39q5 14 18 14q9 0 23 -2.5T129 61q143 0 143 156V923H70v34q0 13 10.5 25.5T111 995H1139Z"
></glyph
><glyph unicode="&#x2013;" horiz-adv-x="1082" d="M147 614H934V543H147v71Z"
></glyph
><glyph unicode="&#x2014;" horiz-adv-x="1591" d="M147 614H1444V543H147v71Z"
></glyph
><glyph unicode="&#x2018;" horiz-adv-x="395" d="M171 1057q-21 38 -31 75.5T130 1208q0 78 38 150t99 131l27 -18q8 -6 8 -14q0 -7 -6 -13q-38 -51 -63 -101T208 1239q0 -59 35 -120q5 -8 5 -16q0 -14 -15 -20l-62 -26Z"
></glyph
><glyph unicode="&#x2019;" horiz-adv-x="395" d="M240 1477q22 -38 32 -75.5T282 1326q0 -78 -38 -150T145 1045l-28 18q-7 6 -7 14q0 8 6 14q38 50 63 100.5T204 1296q0 58 -35 119q-5 8 -5 16q0 14 15 20l61 26Z"
></glyph
><glyph unicode="&#x201a;" horiz-adv-x="395" d="M240 176q22 -38 32 -75.5T282 25q0 -78 -38 -150T145 -256l-28 18q-7 6 -7 14q0 8 6 14q38 50 63 100.5T204 -5q0 58 -35 119q-5 8 -5 16q0 14 15 20l61 26Z"
></glyph
><glyph unicode="&#x201c;" horiz-adv-x="665" d="M171 1057q-21 38 -31 75.5T130 1208q0 78 38 150t99 131l27 -18q8 -6 8 -14q0 -7 -6 -13q-38 -51 -63 -101T208 1239q0 -59 35 -120q5 -8 5 -16q0 -14 -15 -20l-62 -26ZM440 1057q-21 38 -31 75.5T399 1208q0 78 38 150t99 131l27 -18q8 -6 8 -14q0 -7 -6 -13q-38 -51 -63 -101T477 1239q0 -59 35 -120q5 -8 5 -16q0 -14 -15 -20l-62 -26Z"
></glyph
><glyph unicode="&#x201d;" horiz-adv-x="665" d="M240 1477q22 -38 32 -75.5T282 1326q0 -78 -38 -150T145 1045l-28 18q-7 6 -7 14q0 8 6 14q38 50 63 100.5T204 1296q0 58 -35 119q-5 8 -5 16q0 14 15 20l61 26ZM509 1477q22 -38 32 -75.5T551 1326q0 -78 -38 -150T414 1045l-28 18q-7 6 -7 14q0 8 6 14q38 50 63 100.5T473 1296q0 58 -35 119q-5 8 -5 16q0 14 15 20l61 26Z"
></glyph
><glyph unicode="&#x201e;" horiz-adv-x="665" d="M240 176q22 -38 32 -75.5T282 25q0 -78 -38 -150T145 -256l-28 18q-7 6 -7 14q0 8 6 14q38 50 63 100.5T204 -5q0 58 -35 119q-5 8 -5 16q0 14 15 20l61 26ZM509 176q22 -38 32 -75.5T551 25q0 -78 -38 -150T414 -256l-28 18q-7 6 -7 14q0 8 6 14q38 50 63 100.5T473 -5q0 58 -35 119q-5 8 -5 16q0 14 15 20l61 26Z"
></glyph
><glyph unicode="&#x2020;" d="M160 924q0 17 11.5 31T206 969q77 -2 164 -9.5T540 949l-13 483q23 13 51 13q27 0 50 -13L615 949q82 3 169 10.5T949 969q23 0 35 -14t12 -31V892H615V397l13 -746q-23 -13 -50 -13q-28 0 -51 13l13 746V892H160v32Z"
></glyph
><glyph unicode="&#x2021;" d="M160 190H540V892H160v32q0 17 11.5 31T206 969q77 -2 164 -9.5T540 949l-13 483q23 13 51 13q27 0 50 -13L615 949q82 3 169 10.5T949 969q23 0 35 -14t12 -31V892H615V190H996V158q0 -17 -12 -30.5T949 114q-78 2 -165 9.5T615 134l13 -483q-23 -13 -50 -13q-28 0 -51 13l13 483Q457 131 370 123.5T206 114q-23 0 -34.5 13.5T160 158v32Z"
></glyph
><glyph unicode="&#x2022;" d="M286 596q0 61 23 115t63 94.5T465 869t113 23q61 0 115 -23t94 -63.5T850 711T873 596q0 -60 -23 -112.5T787 391T693 328T578 305q-60 0 -113 23t-93 63t-63 92.5T286 596Z"
></glyph
><glyph unicode="&#x2026;" horiz-adv-x="1376" d="M105 77q0 19 7 36t19.5 29.5t29 20T197 170q19 0 36 -7.5t29.5 -20t20 -29.5T290 77q0 -20 -7.5 -36.5t-20 -29T233 -8t-36 -7q-39 0 -65.5 26.5T105 77ZM1086 77q0 19 7 36t19.5 29.5t29 20T1178 170q19 0 36 -7.5t29.5 -20t20 -29.5T1271 77q0 -20 -7.5 -36.5t-20 -29T1214 -8t-36 -7q-39 0 -65.5 26.5T1086 77ZM595 77q0 19 7 36t19.5 29.5t29 20T687 170q19 0 36 -7.5t29.5 -20t20 -29.5T780 77q0 -20 -7.5 -36.5t-20 -29T723 -8t-36 -7q-39 0 -65.5 26.5T595 77Z"
></glyph
><glyph unicode="&#x2030;" horiz-adv-x="2258" d="M682 1075q0 -87 -24 -153.5T593 811T498 744.5T384 722q-62 0 -116.5 22.5T173 811T110 921.5T87 1075q0 88 23 155t63 111.5t94.5 67T384 1431q62 0 116 -22.5t94.5 -67t64 -111.5T682 1075ZM606 1075q0 77 -17.5 132t-48 90.5t-71 52T384 1366q-45 0 -85 -16.5t-70 -52T181.5 1207T164 1075q0 -77 17.5 -131.5T229 854t70 -51.5T384 786q45 0 85.5 16.5t71 51.5t48 89.5T606 1075ZM1219 1397q6 8 14.5 13t22.5 5h67L307 18Q294 0 272 0H204L1219 1397ZM1446 336q0 -87 -24 -153.5T1357.5 72T1263 5.5T1149 -17q-62 0 -116.5 22.5T938 72T875 182.5T852 336q0 88 23 155t63 111.5t94.5 67T1149 692q62 0 116 -22.5t94.5 -67T1423 491t23 -155ZM1370 336q0 77 -17.5 132.5t-47.5 91t-70.5 52T1149 628q-45 0 -85.5 -16.5T993 559.5t-47.5 -91T928 336q0 -77 17.5 -131.5T993 115t70.5 -51T1149 48q45 0 85.5 16t70.5 51t47.5 89.5T1370 336ZM2170 336q0 -87 -24 -153.5T2081.5 72T1987 5.5T1873 -17q-62 0 -116.5 22.5T1662 72t-63 110.5T1576 336q0 88 23 155t63 111.5t94.5 67T1873 692q62 0 116 -22.5t94.5 -67T2147 491t23 -155ZM2094 336q0 77 -17.5 132.5t-47.5 91t-70.5 52T1873 628q-45 0 -85.5 -16.5t-70.5 -52t-47.5 -91T1652 336q0 -77 17.5 -131.5T1717 115t70.5 -51T1873 48q45 0 85.5 16t70.5 51t47.5 89.5T2094 336Z"
></glyph
><glyph unicode="&#x2039;" horiz-adv-x="619" d="M155 513v13L396 904l30 -15q16 -10 16 -25q0 -12 -7 -23L252 548Q239 528 230 519q10 -8 22 -28L435 197q7 -11 7 -23q0 -15 -16 -25L396 134L155 513Z"
></glyph
><glyph unicode="&#x203a;" horiz-adv-x="619" d="M223 134l-30 15q-17 9 -17 26q0 11 7 22L366 491q6 11 11.5 17.5T388 519q-5 5 -10.5 11.5T366 548L183 841q-7 11 -7 23q0 16 17 25l30 15L464 526V513L223 134Z"
></glyph
><glyph unicode="&#x2044;" horiz-adv-x="497" d="M-107 31Q-118 13 -131.5 6.5T-162 0h-40L598 1380q10 17 22.5 26t32.5 9h42L-107 31Z"
></glyph
><glyph unicode="&#x20ac;" d="M31 863H195q16 132 61 237t114 178t160 112t201 39q64 0 118.5 -11.5t101 -33.5t87 -54.5T1115 1254l-31 -35q-4 -5 -9 -8.5t-13 -3.5q-8 0 -19 10.5t-28 25.5t-41.5 33.5t-58 33.5t-78 25.5T735 1346q-90 0 -165 -31.5T438.5 1222T345 1071T293 863H895V833q0 -11 -7.5 -19.5T863 805H287q-3 -47 -3 -97q0 -21 0.5 -40.5T286 628H803V598q0 -12 -8 -20.5T772 569H291Q304 445 340 351T432 194T563 99T728 67q62 0 109.5 12T921 109.5t62 40t44 40t30.5 30.5t21.5 12q10 0 19 -9l37 -35q-36 -46 -78 -83.5t-93 -64T853 -0.5T723 -15Q610 -15 518 24T358.5 138T249 321.5T193 569H31v59H188q-1 20 -1.5 39.5T186 708q0 49 3 97H31v58Z"
></glyph
><glyph unicode="&#x2122;" horiz-adv-x="1427" d="M979 1010q5 16 13 29l213 364q5 8 9.5 10t14.5 2h57V840h-62v443l5 44L1010 947q-8 -16 -25 -16H974q-17 0 -25 16L726 1325l5 -42V840H668v575h57q10 0 14.5 -2T751 1403L968 1039l11 -29ZM543 1415v-59H344V840H273v516H72v59H543Z"
></glyph
><glyph unicode="&#x2126;" horiz-adv-x="1510" d="M867 0V363q96 20 175 59.5t136 99t88 140T1297 845q0 126 -43 220t-117 157t-172.5 94.5T755 1348q-111 0 -209.5 -31.5T373 1222T256 1065T213 845q0 -103 31 -183.5t87.5 -140T467 422.5T642 363V0H141Q124 0 114 10T104 36V88H561V310q-98 22 -181 68T236.5 492T142 650T108 849q0 137 50.5 245T297 1277t205.5 114.5T755 1431q135 0 252.5 -39.5t205 -114.5t138 -183T1401 849q0 -109 -34 -199T1273 492T1130 378T949 310V88h456V36q0 -16 -10 -26T1368 0H867Z"
></glyph
><glyph unicode="&#x2202;" d="M401 1341q36 24 69.5 41.5t67 28.5t69 16.5T682 1433q87 0 155.5 -36t116 -104T1026 1126.5T1051 902q0 -195 -35.5 -362T909 250T732 57.5T486 -12q-81 0 -147.5 27T224 93T149.5 216.5T123 380q0 114 36.5 214.5T262 770T420.5 888T626 931q53 0 102.5 -13.5t92.5 -42t77 -72T954 701q3 29 5 58.5t2.5 56t1 49T963 903q0 218 -75 335T671 1355q-49 0 -86.5 -10.5T519 1322t-46.5 -22.5T444 1289q-7 0 -12.5 3.5T421 1306l-20 35ZM498 64q82 0 152.5 35.5t126 102t95 162T931 580q-10 51 -31.5 100.5t-57 88.5t-86 62.5T637 855q-98 0 -175 -36.5T331.5 718.5t-82 -150T221 382q0 -75 20 -134T297.5 148T385 85.5T498 64Z"
></glyph
><glyph unicode="&#x2206;" horiz-adv-x="1304" d="M606 1415h92L1287 0H17L606 1415ZM156 83h992L678 1229q-14 33 -26 76q-6 -22 -12.5 -41T626 1228L156 83Z"
></glyph
><glyph unicode="&#x220f;" horiz-adv-x="1364" d="M1286 1415v-82H1076V-352H978V1333H385V-352H287V1333H77v82H1286Z"
></glyph
><glyph unicode="&#x2211;" horiz-adv-x="1364" d="M87 1415H1276v-82H236L881 545V519L236 -270H1276v-82H87v36q0 18 11 32L771 533L99 1347q-12 13 -12 32v36Z"
></glyph
><glyph unicode="&#x2212;" d="M164 707H993V634H164v73Z"
></glyph
><glyph unicode="&#x221a;" horiz-adv-x="1123" d="M309 690H79q-16 0 -27.5 9.5T40 731v30H354q15 0 23.5 -7.5T390 736L597 197q14 -46 20 -87q6 37 16 76l488 1509q4 11 13 17.5t21 6.5h58L655 0H576L309 690Z"
></glyph
><glyph unicode="&#x221e;" horiz-adv-x="1364" d="M1006 282q-55 0 -101 20t-85 53t-72.5 76.5T683 522Q652 475 618.5 432T546 355.5T461.5 302T361 282q-57 0 -109 21.5T160.5 365t-63 97.5T74 591q0 71 23.5 128t63 97T252 877.5T361 899q55 0 100.5 -20T546 825.5t72.5 -77T683 659q31 46 64.5 89.5t72.5 77T905 879t101 20q57 0 109 -21.5T1206.5 816t63 -97T1293 591q0 -71 -23.5 -128.5t-63 -97.5T1115 303.5T1006 282ZM365 360q44 0 81.5 19T517 430t62.5 73.5T639 590q-30 45 -59.5 87T517 751t-70.5 51T365 821q-44 0 -82.5 -15.5T215 761T169.5 689T153 591q0 -56 16.5 -99T215 420t67.5 -44.5T365 360ZM1003 360q43 0 81.5 15.5t67 44.5t45 72t16.5 99q0 55 -16.5 98t-45 72t-67 44.5T1003 821q-45 0 -82.5 -19T850 751T787.5 677T728 590q30 -45 59.5 -86.5T850 430t70.5 -51T1003 360Z"
></glyph
><glyph unicode="&#x222b;" horiz-adv-x="770" d="M392 1086q10 87 39 152t72 107.5t98.5 64T721 1431q39 0 67.5 -5.5T843 1407l-5 -43q-3 -10 -9.5 -12.5T808 1349q-11 0 -26 0.5t-37 0.5q-52 0 -96 -16t-77.5 -50t-56 -85.5T484 1075L352 13Q340 -86 308.5 -156.5T230.5 -272T124 -338T-5 -359q-33 0 -65.5 4.5T-127 -336l7 39q3 9 8 12t15 3q11 0 28 -2t45 -2q60 0 108 16t83.5 51.5t59 92T260 11L392 1086Z"
></glyph
><glyph unicode="&#x2248;" d="M781 810q52 0 96 22.5T942 883l19 -58Q932 782 882 758.5T776 735q-52 0 -102.5 18t-100 40T476 833t-94 18q-55 0 -98.5 -22.5T219 777l-21 56q30 45 79.5 69T387 926q52 0 103 -18T590.5 868t97 -40T781 810ZM781 494q52 0 96 22.5T942 567l19 -58Q932 466 882 443T776 420q-52 0 -102.5 18t-100 40T476 518t-94 18q-55 0 -98.5 -22.5T219 462l-21 56q30 45 79.5 68.5T387 610q52 0 103 -18T590.5 552t97 -40T781 494Z"
></glyph
><glyph unicode="&#x2260;" d="M166 869H642l117 267h71L714 869H993V795H681L577 556H993V482H545L427 211H355L473 482H166v74H506L610 795H166v74Z"
></glyph
><glyph unicode="&#x2264;" d="M160 729l750 374v-62q0 -11 -6.5 -20T880 1004L330 733q-17 -8 -36.5 -13.5T253 709q21 -5 40.5 -11T330 684L879 412q17 -9 24 -17t7 -19V313L160 689v40ZM160 153H910V80H160v73Z"
></glyph
><glyph unicode="&#x2265;" d="M1000 729V689L250 313v63q0 11 6.5 19.5T280 412L830 684q17 8 36 14t40 11q-21 5 -40 10.5T830 733L280 1004q-17 8 -23.5 17t-6.5 20v62L1000 729ZM1000 80H250v73h750V80Z"
></glyph
><glyph unicode="&#x25ca;" d="M145 678l402 832h66L1015 678L613 -154H547L145 678ZM227 678L559 -7q8 -15 12.5 -29.5T579 -65q4 14 8.5 28T600 -7L934 678L600 1363q-8 16 -12.5 30t-8.5 28q-4 -14 -9 -28t-11 -30L227 678Z"
></glyph
><glyph unicode="&#x2669;" horiz-adv-x="0" d="M-2 1455H2V-352H-2V1455Z"
></glyph
><glyph unicode="&#xfb01;" horiz-adv-x="1066" d="M199 0V891L59 900q-29 2 -29 25v39H199v85q0 92 27 165.5t78.5 125t125.5 79T599 1446q33 0 68.5 -5.5T727 1425l-4 -48q-1 -10 -14 -10q-11 0 -32.5 3.5T622 1374q-158 0 -244 -81T292 1046V964H875V0H779V893H294V0H199Z"
></glyph
><glyph unicode="&#xfb02;" horiz-adv-x="1132" d="M199 0V891L59 900q-29 2 -29 25v39H199v65q0 88 26 163.5T301 1323t124.5 86T596 1440q34 0 70.5 -2t71 -5t64.5 -5t51 -2h72V0H830V1359q-54 2 -113.5 6T609 1369q-75 0 -134 -23.5t-99.5 -68T313.5 1170T292 1029V964H580V893H294V0H199Z"
></glyph
></font
></defs
><g style="font-family: &quot;Lato&quot;; font-size:50;fill:black"
><text x="20" y="50"
>!&quot;#$%&amp;&#39;()*+,-./0123456789:;&#229;&lt;&gt;?</text
><text x="20" y="100"
>@ABCDEFGHIJKLMNOPQRSTUVWXYZ[\]^_</text
><text x="20" y="150"
>` abcdefghijklmnopqrstuvwxyz|{}~</text
></g
></svg
>